{
  "_id": "fkdhZBKmlJcLH3dU",
  "name": "Hive Creature (Quick)",
  "permission": {
    "default": 0
  },
  "type": "feat",
  "data": {
    "description": {
      "value": "<p><strong>Acquired/Inherited Template</strong>&nbsp;Acquired<br><strong>Simple Template</strong>&nbsp;Yes<br><strong>Usable with Summons</strong>&nbsp;No<br><br>While a creature infested by a hive corruption usually becomes a warrior, mutations can create hive creatures that retain the capabilities of the original creatures.<br><br><strong>Quick Rules:</strong> +3 to AC; +1 on rolls based on Str, Dex, and Con; –3 on rolls based on Cha; +1 hp/ HD; two claw attacks that each deal 1d4 points of damage (for Medium creatures) and one bite attack that deals 1d6 points of damage (for Medium creatures); immunity to acid; blind; blindsense 60 ft.; blindsight 10 ft.; corrosive blood*; hive mind*.<br><br><strong>Rebuild Rules:</strong>&nbsp;Type&nbsp;gain the hive subtype and all the corresponding abilities;&nbsp;AC&nbsp;natural armor bonus increases by 2;&nbsp;Melee&nbsp;two claw attacks that each deal 1d4 points of damage (for Medium creatures) and one bite attack that deals 1d6 points of damage (for Medium creatures);&nbsp;Ability Scores&nbsp;+2 Str, +2 Dex, +2 Con, –6 Cha.</p>",
      "chat": "",
      "unidentified": ""
    },
    "tags": [],
    "activation": {
      "cost": 1,
      "type": ""
    },
    "unchainedAction": {
      "activation": {
        "cost": 1,
        "type": ""
      }
    },
    "duration": {
      "value": null,
      "units": ""
    },
    "target": {
      "value": ""
    },
    "range": {
      "value": null,
      "units": "",
      "maxIncrements": 1,
      "minValue": null,
      "minUnits": "",
      "long": null
    },
    "uses": {
      "value": 0,
      "max": 0,
      "per": null,
      "autoDeductCharges": true,
      "autoDeductChargesCost": "1"
    },
    "measureTemplate": {
      "type": "",
      "size": "0",
      "overrideColor": false,
      "customColor": "",
      "overrideTexture": false,
      "customTexture": ""
    },
    "attackName": "",
    "actionType": "",
    "attackBonus": "",
    "critConfirmBonus": "",
    "damage": {
      "parts": [],
      "critParts": [],
      "nonCritParts": []
    },
    "attackParts": [],
    "formula": "",
    "ability": {
      "attack": null,
      "damage": null,
      "damageMult": 1,
      "critRange": 20,
      "critMult": 2
    },
    "save": {
      "dc": 0,
      "type": "",
      "description": ""
    },
    "effectNotes": "",
    "attackNotes": "",
    "soundEffect": "",
    "changes": [
      {
        "_id": "einc517k",
        "formula": "3",
        "operator": "+",
        "target": "ac",
        "subTarget": "nac",
        "modifier": "untyped",
        "priority": 0,
        "value": 0
      },
      {
        "_id": "8jc5ne3b",
        "formula": "@attributes.hd.total",
        "operator": "+",
        "target": "misc",
        "subTarget": "mhp",
        "modifier": "untyped",
        "priority": 0,
        "value": 0
      },
      {
        "_id": "vpsy5i2w",
        "formula": "1",
        "operator": "+",
        "target": "attack",
        "subTarget": "mattack",
        "modifier": "untyped",
        "priority": 0,
        "value": 0
      },
      {
        "_id": "bi77yiom",
        "formula": "1",
        "operator": "+",
        "target": "damage",
        "subTarget": "wdamage",
        "modifier": "untyped",
        "priority": 0,
        "value": 0
      },
      {
        "_id": "wg7s2yop",
        "formula": "1",
        "operator": "+",
        "target": "skills",
        "subTarget": "strSkills",
        "modifier": "untyped",
        "priority": 0,
        "value": 0
      },
      {
        "_id": "yybgs5l3",
        "formula": "1",
        "operator": "+",
        "target": "abilityChecks",
        "subTarget": "strChecks",
        "modifier": "untyped",
        "priority": 0,
        "value": 0
      },
      {
        "_id": "m7lwww61",
        "formula": "1",
        "operator": "+",
        "target": "savingThrows",
        "subTarget": "ref",
        "modifier": "untyped",
        "priority": 0,
        "value": 0
      },
      {
        "_id": "1g1jcxjj",
        "formula": "1",
        "operator": "+",
        "target": "skills",
        "subTarget": "dexSkills",
        "modifier": "untyped",
        "priority": 0,
        "value": 0
      },
      {
        "_id": "a2k0x65h",
        "formula": "1",
        "operator": "+",
        "target": "abilityChecks",
        "subTarget": "dexChecks",
        "modifier": "untyped",
        "priority": 0,
        "value": 0
      },
      {
        "_id": "p9cu147z",
        "formula": "1",
        "operator": "+",
        "target": "skills",
        "subTarget": "conSkills",
        "modifier": "untyped",
        "priority": 0,
        "value": 0
      },
      {
        "_id": "0suhcrta",
        "formula": "1",
        "operator": "+",
        "target": "abilityChecks",
        "subTarget": "conChecks",
        "modifier": "untyped",
        "priority": 0,
        "value": 0
      },
      {
        "_id": "a3w6pbhg",
        "formula": "-3",
        "operator": "+",
        "target": "skills",
        "subTarget": "chaSkills",
        "modifier": "untyped",
        "priority": 0,
        "value": 0
      },
      {
        "_id": "r0qmkzok",
        "formula": "-3",
        "operator": "+",
        "target": "abilityChecks",
        "subTarget": "chaChecks",
        "modifier": "untyped",
        "priority": 0,
        "value": 0
      }
    ],
    "changeFlags": {
      "loseDexToAC": false,
      "noStr": false,
      "noDex": false,
      "oneInt": false,
      "oneWis": false,
      "oneCha": false,
      "noEncumbrance": false,
      "mediumArmorFullSpeed": false,
      "heavyArmorFullSpeed": false
    },
    "contextNotes": [],
    "links": {
      "children": [],
      "charges": []
    },
    "tag": "",
    "useCustomTag": false,
    "armorProf": {
      "value": [],
      "custom": ""
    },
    "weaponProf": {
      "value": [],
      "custom": ""
    },
    "featType": "template",
    "associations": {
      "classes": []
    },
    "showInQuickbar": false,
    "nonlethal": false,
    "abilityType": "none",
    "crOffset": "1",
    "attack": {
      "parts": []
    }
  },
  "flags": {},
  "img": "systems/pf1/icons/skills/violet_07.jpg",
  "effects": []
}