{
  "_id": "1kpZeLHXJWe988Oh",
  "name": "Spore Zombie",
  "permission": {
    "default": 0
  },
  "type": "feat",
  "data": {
    "description": {
      "value": "<p><strong>Acquired/Inherited Template&nbsp;</strong>Acquired<br><strong>Simple Template</strong>&nbsp;No<br><strong>Usable with Summons</strong>&nbsp;No<br><br>There are certain evil fungal creatures (such as&nbsp;<a href=\"https://aonprd.com/MonsterDisplay.aspx?ItemName=Fungus%20Queen\">fungus queens</a>, but also rare fungal growths or extraplanar blights upon the wild) that can infest vermin with spores that have been infused with sinister power and negative energy. These foul spores grow quickly in the body of a dead vermin, eventually bursting from its head to form disturbing, antler-like growths. At the same time, the spores animate the vermin as an intelligent undead creature.<br><br>These are then known as spore zombies.<br><br>“Spore zombie” is an acquired template that can be added to any vermin, which is referred to hereafter as the base creature.<br><br><strong>Challenge Rating:</strong> The base creature’s CR + 1.<br><br><strong>Alignment:</strong> Always chaotic evil.<br><br><strong>Type: </strong>The creature’s type changes to undead. It retains any subtypes and gains the augmented subtype.<br><br><strong>Armor Class:</strong> A spore zombie gains a +2 bonus to the base creature’s natural armor.<br><br><strong>Hit Dice:</strong> The base creature’s Hit Dice + 2.<br><br><strong>Saves: </strong>The creature’s base save bonuses are Fort +1/3 Hit Dice, Ref +1/3 Hit Dice, and Will +1/2 Hit Dice + 2.<br><br><strong>Defensive Abilities: </strong>Spore zombies gain all of the qualities and immunities granted by the undead type, and retain all defensive abilities that the base creature had.<br><br><strong>Attacks:</strong> A spore zombie retains all of the base creature’s natural attacks.<br><br><strong>Special Attacks:</strong> A spore zombie retains all of the base creature’s special attacks, plus the following (any special attack save DCs that are Constitution-based are now Charisma-based).<br><br><em>Spore Burst (Ex):</em> Once per day as a swift action, a spore zombie can spray a cloud of spores through the area. This deals 2d6 points of damage to the spore zombie and creates a cloud of spores that fills an area equal to the spore zombie’s reach. Any creature in this area must succeed at a Fortitude save or be nauseated by the spores for 1d6 rounds. Vermin that fail this save become infested for 24 hours. If an infested vermin dies during this time, it rises as a spore zombie 1d6 rounds after its death.<br><br><strong>Abilities:</strong> Strength +4. A spore zombie gains an Intelligence score of 10 and a Charisma score equal to the base creature’s Constitution score. They do not have a Con score.<br><br><strong>Feats: </strong>A spore zombie gains feats as appropriate for its Hit Dice, and gains&nbsp;<a href=\"https://aonprd.com/FeatDisplay.aspx?ItemName=Toughness\">Toughness</a>&nbsp;as a bonus feat.<br><br><strong>Skills:</strong> A spore zombie gains skill points equal to 4 + Int modifier per Hit Die (4 points per HD for most). Climb, Fly, Perception, and Stealth are class skills.<br><br><strong>Languages:</strong> A spore zombie can understand Abyssal but can’t speak.</p>",
      "chat": "",
      "unidentified": ""
    },
    "tags": [],
    "activation": {
      "cost": 1,
      "type": ""
    },
    "unchainedAction": {
      "activation": {
        "cost": 1,
        "type": ""
      }
    },
    "duration": {
      "value": null,
      "units": ""
    },
    "target": {
      "value": ""
    },
    "range": {
      "value": null,
      "units": "",
      "maxIncrements": 1,
      "minValue": null,
      "minUnits": "",
      "long": null
    },
    "uses": {
      "value": 0,
      "max": 0,
      "per": null,
      "autoDeductCharges": true,
      "autoDeductChargesCost": "1"
    },
    "measureTemplate": {
      "type": "",
      "size": "0",
      "overrideColor": false,
      "customColor": "",
      "overrideTexture": false,
      "customTexture": ""
    },
    "attackName": "",
    "actionType": "",
    "attackBonus": "",
    "critConfirmBonus": "",
    "damage": {
      "parts": [],
      "critParts": [],
      "nonCritParts": []
    },
    "attackParts": [],
    "formula": "",
    "ability": {
      "attack": null,
      "damage": null,
      "damageMult": 1,
      "critRange": 20,
      "critMult": 2
    },
    "save": {
      "dc": 0,
      "type": "",
      "description": ""
    },
    "effectNotes": "",
    "attackNotes": "",
    "soundEffect": "",
    "changes": [
      {
        "_id": "g74xnipa",
        "formula": "2",
        "operator": "add",
        "target": "ac",
        "subTarget": "nac",
        "modifier": "untyped",
        "priority": 0,
        "value": 0
      },
      {
        "_id": "xlqtw7ic",
        "formula": "4",
        "operator": "add",
        "target": "ability",
        "subTarget": "str",
        "modifier": "untyped",
        "priority": 0,
        "value": 0
      }
    ],
    "changeFlags": {
      "loseDexToAC": false,
      "noStr": false,
      "noDex": false,
      "oneInt": false,
      "oneWis": false,
      "oneCha": false,
      "noEncumbrance": false,
      "mediumArmorFullSpeed": false,
      "heavyArmorFullSpeed": false
    },
    "contextNotes": [],
    "links": {
      "children": [],
      "charges": []
    },
    "tag": "",
    "useCustomTag": false,
    "armorProf": {
      "value": [],
      "custom": ""
    },
    "weaponProf": {
      "value": [],
      "custom": ""
    },
    "featType": "template",
    "associations": {
      "classes": []
    },
    "showInQuickbar": false,
    "nonlethal": false,
    "abilityType": "none",
    "crOffset": "1",
    "attack": {
      "parts": []
    }
  },
  "flags": {},
  "img": "systems/pf1/icons/skills/violet_07.jpg",
  "effects": []
}