{
  "_id": "6A4FD98953A6DE587624C51BB246CC2BE3E4E7A55BB5AEF126A582F87074566D",
  "name": "Art of War",
  "permission": {
    "default": 0
  },
  "type": "feat",
  "data": {
    "description": {
      "value": "                  \r\n    <p><strong>Flavor:</strong> The art of war must be trained from childhood.</p>\r\n    <p><strong>Short:</strong> More critical hits with strikes and chopping ability.</p>\r\n    <p><strong>Prerequisite:</strong> Hobgoblin, Base Knowledge(Warfare) 9+</p>\r\n    <p><strong>Benefit:</strong> \n        When performing a strike maneuver, use a chopping ability or an attack ability that relies on expending the psionic focus your critical hit range with that attack is doubled and its damage will be multiplied with the critical hit. Automatical critical hits will not receive any bonuses with this ability.\n    </p>\r\n    ",
      "chat": "",
      "unidentified": ""
    },
    "tags": [
      [
        "Racial"
      ],
      [
        "Epic"
      ]
    ],
    "activation": {
      "cost": 1,
      "type": ""
    },
    "unchainedAction": {
      "activation": {
        "cost": 1,
        "type": ""
      }
    },
    "duration": {
      "value": null,
      "units": ""
    },
    "target": {
      "value": ""
    },
    "range": {
      "value": null,
      "units": "",
      "maxIncrements": 1,
      "minValue": null,
      "minUnits": "",
      "long": null
    },
    "uses": {
      "value": 0,
      "max": 0,
      "per": null,
      "autoDeductCharges": true,
      "autoDeductChargesCost": "1"
    },
    "measureTemplate": {
      "type": "",
      "size": "0",
      "overrideColor": false,
      "customColor": "",
      "overrideTexture": false,
      "customTexture": ""
    },
    "attackName": "",
    "actionType": "",
    "attackBonus": "",
    "critConfirmBonus": "",
    "damage": {
      "parts": [],
      "critParts": [],
      "nonCritParts": []
    },
    "attackParts": [],
    "formula": "",
    "ability": {
      "attack": null,
      "damage": null,
      "damageMult": 1,
      "critRange": 20,
      "critMult": 2
    },
    "save": {
      "dc": 0,
      "type": "",
      "description": ""
    },
    "effectNotes": "",
    "attackNotes": "",
    "soundEffect": "",
    "changes": [],
    "changeFlags": {
      "loseDexToAC": false,
      "noStr": false,
      "noDex": false,
      "oneInt": false,
      "oneWis": false,
      "oneCha": false,
      "noEncumbrance": false,
      "mediumArmorFullSpeed": false,
      "heavyArmorFullSpeed": false
    },
    "contextNotes": [],
    "links": {
      "children": [],
      "charges": []
    },
    "tag": "",
    "useCustomTag": false,
    "armorProf": {
      "value": [],
      "custom": ""
    },
    "weaponProf": {
      "value": [],
      "custom": ""
    },
    "featType": "feat",
    "associations": {
      "classes": []
    },
    "showInQuickbar": false,
    "nonlethal": false,
    "abilityType": "none",
    "crOffset": "",
    "recharge": {
      "value": null,
      "charged": false,
      "_deprecated": true
    },
    "time": {
      "value": "",
      "_deprecated": true
    },
    "damageType": {
      "value": "",
      "_deprecated": true
    },
    "attack": {
      "parts": []
    },
    "conditionals": [],
    "identifiedName": ""
  },
  "flags": {},
  "img": "",
  "effects": []
}
