{
  "_id": "50579F82E42BEA81EF65C673D94D300E510F0D78A57BF4CB7BB321C066D378B5",
  "name": "Chopping Ability",
  "permission": {
    "default": 0
  },
  "type": "feat",
  "data": {
    "description": {
      "value": "                  \r\n    <p><strong>Flavor:</strong> Slash and burn!</p>\r\n    <p><strong>Short:</strong> Use a weapon to deliver a touch attack.</p>\r\n    <p><strong>Prerequisite:</strong>  Character Level 2 </p>\r\n    <p><strong>Benefit:</strong> \n        A chopping ability delivers a touch ability with a successful melee attack. A spell / ability / power must have a melee touch or a ranged touch effect and must have an action of a single standard action or a single full round action. Instead of a melee touch attack make a normal melee attack if it hits it deals normal damage and the ability takes effect without an additional attack roll. If you miss the ability is lost. If the spell has multiple charges or multiple projectiles, it works like <a href=\"http://paizo.com/pathfinderRPG/prd/coreRulebook/combat.html#holding-the-charge\">holding the charge</a>. Multiple projectiles count as having multiple charges, but still if you miss some charges they are lost.\n         </p>\r\n    ",
      "chat": "",
      "unidentified": ""
    },
    "tags": [
      [
        "General"
      ]
    ],
    "activation": {
      "cost": 1,
      "type": ""
    },
    "unchainedAction": {
      "activation": {
        "cost": 1,
        "type": ""
      }
    },
    "duration": {
      "value": null,
      "units": ""
    },
    "target": {
      "value": ""
    },
    "range": {
      "value": null,
      "units": "",
      "maxIncrements": 1,
      "minValue": null,
      "minUnits": "",
      "long": null
    },
    "uses": {
      "value": 0,
      "max": 0,
      "per": null,
      "autoDeductCharges": true,
      "autoDeductChargesCost": "1"
    },
    "measureTemplate": {
      "type": "",
      "size": "0",
      "overrideColor": false,
      "customColor": "",
      "overrideTexture": false,
      "customTexture": ""
    },
    "attackName": "",
    "actionType": "",
    "attackBonus": "",
    "critConfirmBonus": "",
    "damage": {
      "parts": [],
      "critParts": [],
      "nonCritParts": []
    },
    "attackParts": [],
    "formula": "",
    "ability": {
      "attack": null,
      "damage": null,
      "damageMult": 1,
      "critRange": 20,
      "critMult": 2
    },
    "save": {
      "dc": 0,
      "type": "",
      "description": ""
    },
    "effectNotes": "",
    "attackNotes": "",
    "soundEffect": "",
    "changes": [],
    "changeFlags": {
      "loseDexToAC": false,
      "noStr": false,
      "noDex": false,
      "oneInt": false,
      "oneWis": false,
      "oneCha": false,
      "noEncumbrance": false,
      "mediumArmorFullSpeed": false,
      "heavyArmorFullSpeed": false
    },
    "contextNotes": [],
    "links": {
      "children": [],
      "charges": []
    },
    "tag": "",
    "useCustomTag": false,
    "armorProf": {
      "value": [],
      "custom": ""
    },
    "weaponProf": {
      "value": [],
      "custom": ""
    },
    "featType": "feat",
    "associations": {
      "classes": []
    },
    "showInQuickbar": false,
    "nonlethal": false,
    "abilityType": "none",
    "crOffset": "",
    "recharge": {
      "value": null,
      "charged": false,
      "_deprecated": true
    },
    "time": {
      "value": "",
      "_deprecated": true
    },
    "damageType": {
      "value": "",
      "_deprecated": true
    },
    "attack": {
      "parts": []
    },
    "conditionals": [],
    "identifiedName": ""
  },
  "flags": {},
  "img": "",
  "effects": []
}
