{
  "_id": "2ACF07F4D29D297220AAEFF8D8354307F78BF5A4A82EE9605E135A2DD14BB6FC",
  "name": "Epic Hunter of Mages",
  "permission": {
    "default": 0
  },
  "type": "feat",
  "data": {
    "description": {
      "value": "                  \r\n    <p><strong>Flavor:</strong> You may run from your destiny but not from me. Not even your chameleon skin and your invisibility spell can protect you.</p>\r\n    <p><strong>Short:</strong> You ignore invisiblity of your marked prey.</p>\r\n    <p><strong>Prerequisite:</strong> base wisdom 21+, Scout level 6, @Compendium[pf1.feats.0A3F171E66753877DA98DEB732DFD6557DC4ED7654A2CCDA8C7FED7CF1AFAF30]{Mage Slayer Style}, Track, @Compendium[pf1.feats.4A45CBF54432987020EB9ABD33CB9B204C2750CFF7C54B02F173420F9F4D8A8A]{Swift Tracker}</p>\r\n    <p><strong>Benefit:</strong> \n    Whenever you use perception to locate your marked prey, the prey does not receive any bonuses from spells on his stealth check. If you succeed to percept your prey, you may ignore all effects of that spell.\n</p>\r\n    ",
      "chat": "",
      "unidentified": ""
    },
    "tags": [
      [
        "Class"
      ],
      [
        "Epic"
      ]
    ],
    "activation": {
      "cost": 1,
      "type": ""
    },
    "unchainedAction": {
      "activation": {
        "cost": 1,
        "type": ""
      }
    },
    "duration": {
      "value": null,
      "units": ""
    },
    "target": {
      "value": ""
    },
    "range": {
      "value": null,
      "units": "",
      "maxIncrements": 1,
      "minValue": null,
      "minUnits": "",
      "long": null
    },
    "uses": {
      "value": 0,
      "max": 0,
      "per": null,
      "autoDeductCharges": true,
      "autoDeductChargesCost": "1"
    },
    "measureTemplate": {
      "type": "",
      "size": "0",
      "overrideColor": false,
      "customColor": "",
      "overrideTexture": false,
      "customTexture": ""
    },
    "attackName": "",
    "actionType": "",
    "attackBonus": "",
    "critConfirmBonus": "",
    "damage": {
      "parts": [],
      "critParts": [],
      "nonCritParts": []
    },
    "attackParts": [],
    "formula": "",
    "ability": {
      "attack": null,
      "damage": null,
      "damageMult": 1,
      "critRange": 20,
      "critMult": 2
    },
    "save": {
      "dc": 0,
      "type": "",
      "description": ""
    },
    "effectNotes": "",
    "attackNotes": "",
    "soundEffect": "",
    "changes": [],
    "changeFlags": {
      "loseDexToAC": false,
      "noStr": false,
      "noDex": false,
      "oneInt": false,
      "oneWis": false,
      "oneCha": false,
      "noEncumbrance": false,
      "mediumArmorFullSpeed": false,
      "heavyArmorFullSpeed": false
    },
    "contextNotes": [],
    "links": {
      "children": [],
      "charges": []
    },
    "tag": "",
    "useCustomTag": false,
    "armorProf": {
      "value": [],
      "custom": ""
    },
    "weaponProf": {
      "value": [],
      "custom": ""
    },
    "featType": "feat",
    "associations": {
      "classes": []
    },
    "showInQuickbar": false,
    "nonlethal": false,
    "abilityType": "none",
    "crOffset": "",
    "recharge": {
      "value": null,
      "charged": false,
      "_deprecated": true
    },
    "time": {
      "value": "",
      "_deprecated": true
    },
    "damageType": {
      "value": "",
      "_deprecated": true
    },
    "attack": {
      "parts": []
    },
    "conditionals": [],
    "identifiedName": ""
  },
  "flags": {},
  "img": "",
  "effects": []
}
