{
  "_id": "E83A6E968E1A848B54E7A7FEE33397C757F11319B05804A1344FA17B7BDB85D0",
  "name": "Gift of the Spider Queen",
  "permission": {
    "default": 0
  },
  "type": "feat",
  "data": {
    "description": {
      "value": "                  \r\n    <p><strong>Flavor:</strong> Thank you Spiderqueen!.</p>\r\n    <p><strong>Short:</strong> gain new uses for your SLA's</p>\r\n    <p><strong>Prerequisite:</strong> </p>\r\n    <p><strong>Benefit:</strong> \n   <p>As a swift action, you swap may combine your SLA's into any of the following spell-like abilities (using your class level as your caster level) for one turn (activating the new spell like ability is still a standard action). You spend one daily use of each spell-like ability used in this combination.</p>\n<p><i>Curtain of Darkness:</i></p>\n <p>You can expend one daily use of dancing lights and darkness to extinguish all nonmagical light sources within 100 feet. This is not a magical darkness effect; the fires or other sources, such as sunrods simply go out. This ability does not function on any flame larger than that of a torch or lantern, so it cannot be used to extinguish a burning building or as a defense against fire used as a weapon.</p>\n<p><i>Mirror Image:</i></p>\n <p>You can expend one daily use of dancing lights and faerie fire to use mirror image (as the spell, except you gain only 1d4 images and the duration is one round per caster level).</p>\n<p><i>See Invisibility:</i></p>\n <p>You can expend one daily use of darkness and faerie fire to use see invisibility (as the spell, except the duration is only 1 round per caster level).</p>\n<p><i>Blinding  Vanish:</i></p>\n <p>You  can  expend  one  daily  use  of dancing lights, darkness, and faerie fire to disappear in a blinding flash  of light. All creatures within a 20-foot-radius burst are blindedfor  1  round;  a  successful  Fortitude  save reduces the effect to dazzled for 1 round. In addition, you become invisible (as the invisibility spell, except the duration is 1 round per caster level).</p>\n    </p>\r\n    ",
      "chat": "",
      "unidentified": ""
    },
    "tags": [
      [
        "racial"
      ]
    ],
    "activation": {
      "cost": 1,
      "type": ""
    },
    "unchainedAction": {
      "activation": {
        "cost": 1,
        "type": ""
      }
    },
    "duration": {
      "value": null,
      "units": ""
    },
    "target": {
      "value": ""
    },
    "range": {
      "value": null,
      "units": "",
      "maxIncrements": 1,
      "minValue": null,
      "minUnits": "",
      "long": null
    },
    "uses": {
      "value": 0,
      "max": 0,
      "per": null,
      "autoDeductCharges": true,
      "autoDeductChargesCost": "1"
    },
    "measureTemplate": {
      "type": "",
      "size": "0",
      "overrideColor": false,
      "customColor": "",
      "overrideTexture": false,
      "customTexture": ""
    },
    "attackName": "",
    "actionType": "",
    "attackBonus": "",
    "critConfirmBonus": "",
    "damage": {
      "parts": [],
      "critParts": [],
      "nonCritParts": []
    },
    "attackParts": [],
    "formula": "",
    "ability": {
      "attack": null,
      "damage": null,
      "damageMult": 1,
      "critRange": 20,
      "critMult": 2
    },
    "save": {
      "dc": 0,
      "type": "",
      "description": ""
    },
    "effectNotes": "",
    "attackNotes": "",
    "soundEffect": "",
    "changes": [],
    "changeFlags": {
      "loseDexToAC": false,
      "noStr": false,
      "noDex": false,
      "oneInt": false,
      "oneWis": false,
      "oneCha": false,
      "noEncumbrance": false,
      "mediumArmorFullSpeed": false,
      "heavyArmorFullSpeed": false
    },
    "contextNotes": [],
    "links": {
      "children": [],
      "charges": []
    },
    "tag": "",
    "useCustomTag": false,
    "armorProf": {
      "value": [],
      "custom": ""
    },
    "weaponProf": {
      "value": [],
      "custom": ""
    },
    "featType": "feat",
    "associations": {
      "classes": []
    },
    "showInQuickbar": false,
    "nonlethal": false,
    "abilityType": "none",
    "crOffset": "",
    "recharge": {
      "value": null,
      "charged": false,
      "_deprecated": true
    },
    "time": {
      "value": "",
      "_deprecated": true
    },
    "damageType": {
      "value": "",
      "_deprecated": true
    },
    "attack": {
      "parts": []
    },
    "conditionals": [],
    "identifiedName": ""
  },
  "flags": {},
  "img": "",
  "effects": []
}
