{
  "_id": "74C13A115BE787F08C7AB8695A9EEC69C2C63E5A3A312D37BF83051090697F4D",
  "name": "Guarding Spell",
  "permission": {
    "default": 0
  },
  "type": "feat",
  "data": {
    "description": {
      "value": "                  \r\n    <p><strong>Flavor:</strong> I am always one step ahead.</p>\r\n    <p><strong>Short:</strong> Ready a spell over multiple turns.</p>\r\n    <p><strong>Prerequisite:</strong> </p>\r\n    <p><strong>Benefit:</strong> A guarding spell works like the ready spell action. Choose a trigger as for a ready action and once the trigger is triggered the spell is casted. The origin of the spell is at the point where the spell has been casted and conditions as range must still be met. A guarding spells must be triggered within 3 turns after casting.\n\n       <p>A guarding spell uses up a spell slot two level higher than the spell’s actual level. Or one level if the spell is a counter spell or from the abjuration school.</p>\n      <p>You can only have one active guarding spell at a time.</p>\n     </p>\r\n    ",
      "chat": "",
      "unidentified": ""
    },
    "tags": [
      [
        "Metamagic"
      ]
    ],
    "activation": {
      "cost": 1,
      "type": ""
    },
    "unchainedAction": {
      "activation": {
        "cost": 1,
        "type": ""
      }
    },
    "duration": {
      "value": null,
      "units": ""
    },
    "target": {
      "value": ""
    },
    "range": {
      "value": null,
      "units": "",
      "maxIncrements": 1,
      "minValue": null,
      "minUnits": "",
      "long": null
    },
    "uses": {
      "value": 0,
      "max": 0,
      "per": null,
      "autoDeductCharges": true,
      "autoDeductChargesCost": "1"
    },
    "measureTemplate": {
      "type": "",
      "size": "0",
      "overrideColor": false,
      "customColor": "",
      "overrideTexture": false,
      "customTexture": ""
    },
    "attackName": "",
    "actionType": "",
    "attackBonus": "",
    "critConfirmBonus": "",
    "damage": {
      "parts": [],
      "critParts": [],
      "nonCritParts": []
    },
    "attackParts": [],
    "formula": "",
    "ability": {
      "attack": null,
      "damage": null,
      "damageMult": 1,
      "critRange": 20,
      "critMult": 2
    },
    "save": {
      "dc": 0,
      "type": "",
      "description": ""
    },
    "effectNotes": "",
    "attackNotes": "",
    "soundEffect": "",
    "changes": [],
    "changeFlags": {
      "loseDexToAC": false,
      "noStr": false,
      "noDex": false,
      "oneInt": false,
      "oneWis": false,
      "oneCha": false,
      "noEncumbrance": false,
      "mediumArmorFullSpeed": false,
      "heavyArmorFullSpeed": false
    },
    "contextNotes": [],
    "links": {
      "children": [],
      "charges": []
    },
    "tag": "",
    "useCustomTag": false,
    "armorProf": {
      "value": [],
      "custom": ""
    },
    "weaponProf": {
      "value": [],
      "custom": ""
    },
    "featType": "feat",
    "associations": {
      "classes": []
    },
    "showInQuickbar": false,
    "nonlethal": false,
    "abilityType": "none",
    "crOffset": "",
    "recharge": {
      "value": null,
      "charged": false,
      "_deprecated": true
    },
    "time": {
      "value": "",
      "_deprecated": true
    },
    "damageType": {
      "value": "",
      "_deprecated": true
    },
    "attack": {
      "parts": []
    },
    "conditionals": [],
    "identifiedName": ""
  },
  "flags": {},
  "img": "",
  "effects": []
}
