{
  "_id": "0BE8C23A767DC2BB73232702011290CE81CDD90385FCF237BC2F47D93170054E",
  "name": "Infecting sleep",
  "permission": {
    "default": 0
  },
  "type": "feat",
  "data": {
    "description": {
      "value": "                  \r\n    <p><strong>Flavor:</strong> sleep spreads like yawning.</p>\r\n    <p><strong>Short:</strong> Sleep starts spreading from one creature.</p>\r\n    <p><strong>Prerequisite:</strong> </p>\r\n    <p><strong>Benefit:</strong> You may use this feat to modify sleep or deep slumber or spells with similar effect. The spell level is not increased. You may cast sleep targeted on one creature. When this creature fails its save, the creature closest to the creature previously fallen asleep is also affected. This continues as long as there are creatures left in a 10 ft burst centered on the original target and as long as the HD limit of the spell is not reached.</p>\r\n    ",
      "chat": "",
      "unidentified": ""
    },
    "tags": [
      [
        "Metaspell"
      ],
      [
        "Metamagic"
      ],
      [
        "Legacy"
      ]
    ],
    "activation": {
      "cost": 1,
      "type": ""
    },
    "unchainedAction": {
      "activation": {
        "cost": 1,
        "type": ""
      }
    },
    "duration": {
      "value": null,
      "units": ""
    },
    "target": {
      "value": ""
    },
    "range": {
      "value": null,
      "units": "",
      "maxIncrements": 1,
      "minValue": null,
      "minUnits": "",
      "long": null
    },
    "uses": {
      "value": 0,
      "max": 0,
      "per": null,
      "autoDeductCharges": true,
      "autoDeductChargesCost": "1"
    },
    "measureTemplate": {
      "type": "",
      "size": "0",
      "overrideColor": false,
      "customColor": "",
      "overrideTexture": false,
      "customTexture": ""
    },
    "attackName": "",
    "actionType": "",
    "attackBonus": "",
    "critConfirmBonus": "",
    "damage": {
      "parts": [],
      "critParts": [],
      "nonCritParts": []
    },
    "attackParts": [],
    "formula": "",
    "ability": {
      "attack": null,
      "damage": null,
      "damageMult": 1,
      "critRange": 20,
      "critMult": 2
    },
    "save": {
      "dc": 0,
      "type": "",
      "description": ""
    },
    "effectNotes": "",
    "attackNotes": "",
    "soundEffect": "",
    "changes": [],
    "changeFlags": {
      "loseDexToAC": false,
      "noStr": false,
      "noDex": false,
      "oneInt": false,
      "oneWis": false,
      "oneCha": false,
      "noEncumbrance": false,
      "mediumArmorFullSpeed": false,
      "heavyArmorFullSpeed": false
    },
    "contextNotes": [],
    "links": {
      "children": [],
      "charges": []
    },
    "tag": "",
    "useCustomTag": false,
    "armorProf": {
      "value": [],
      "custom": ""
    },
    "weaponProf": {
      "value": [],
      "custom": ""
    },
    "featType": "feat",
    "associations": {
      "classes": []
    },
    "showInQuickbar": false,
    "nonlethal": false,
    "abilityType": "none",
    "crOffset": "",
    "recharge": {
      "value": null,
      "charged": false,
      "_deprecated": true
    },
    "time": {
      "value": "",
      "_deprecated": true
    },
    "damageType": {
      "value": "",
      "_deprecated": true
    },
    "attack": {
      "parts": []
    },
    "conditionals": [],
    "identifiedName": ""
  },
  "flags": {},
  "img": "",
  "effects": []
}
