{
  "_id": "ubx4PIbRqmVT93Ds",
  "name": "Gathlain",
  "permission": {
    "default": 0
  },
  "type": "race",
  "data": {
    "description": {
      "value": "<h2>Standard Racial Traits</h2>\n<ul>\n<li><strong>Ability Score Modifiers: </strong>Gathlains are quick, with dynamic and engaging personalities, but are rather fragile. They gain a +2 bonus to&nbsp;<a href=\"https://www.d20pfsrd.com/basics-ability-scores/ability-scores#TOC-Dexterity-Dex-\">Dexterity</a>&nbsp;and&nbsp;<a href=\"https://www.d20pfsrd.com/basics-ability-scores/ability-scores#TOC-Charisma-Cha-\">Charisma</a>&nbsp;but suffer a –2 penalty to&nbsp;<a href=\"https://www.d20pfsrd.com/basics-ability-scores/ability-scores#TOC-Constitution-Con-\">Constitution</a>.</li>\n<li><strong>Type:</strong> Gathlains are Fey.</li>\n<li><strong>Size:</strong> Gathlains are Small and gain a +1&nbsp;<a href=\"https://www.d20pfsrd.com/basics-ability-scores/glossary#TOC-Size-Bonus\">size bonus</a>&nbsp;to their AC, a +1&nbsp;<a href=\"https://www.d20pfsrd.com/basics-ability-scores/glossary#TOC-Size-Bonus\">size bonus</a>&nbsp;on&nbsp;<a href=\"https://www.d20pfsrd.com/gamemastering/combat#TOC-Attack-Roll\">attack rolls</a>, a –1 penalty on&nbsp;<a href=\"https://www.d20pfsrd.com/gamemastering/combat#TOC-Combat-Maneuvers\">combat maneuver</a>&nbsp;checks and to&nbsp;<a href=\"https://www.d20pfsrd.com/gamemastering/combat#TOC-Combat-Maneuver-Defense\">CMD</a>, a +2 bonus on&nbsp;<a href=\"https://www.d20pfsrd.com/skills/fly\">Fly</a>&nbsp;checks, and a +4&nbsp;<a href=\"https://www.d20pfsrd.com/basics-ability-scores/glossary#TOC-Size-Bonus\">size bonus</a>&nbsp;on&nbsp;<a href=\"https://www.d20pfsrd.com/skills/stealth\">Stealth</a>&nbsp;checks.</li>\n<li><strong>Speed:</strong> Gathlains have a base speed of 30 feet and a fly speed of 40 feet (poor maneuverability).</li>\n<li><strong>Languages:</strong> Gathlains speak Common and Sylvan. A gathlain with a high&nbsp;<a href=\"https://www.d20pfsrd.com/basics-ability-scores/ability-scores#TOC-Intelligence-Int-\">Intelligence</a>&nbsp;score can choose from the following languages: Draconic, Elven,&nbsp;<a href=\"https://www.d20pfsrd.com/races/other-races/featured-races/arg-goblin\">Goblin</a>,&nbsp;<a href=\"https://www.d20pfsrd.com/races/core-races/halfling\">Halfling</a>, and&nbsp;<a href=\"https://www.d20pfsrd.com/races/other-races/featured-races/arg-orc\">Orc</a>.</li>\n</ul>\n<h4>Senses</h4>\n<ul>\n<li><strong>Low-Light Vision:</strong>&nbsp;Gathlains can see twice as far as&nbsp;<a href=\"https://www.d20pfsrd.com/races/core-races/human\">humans</a> in dim light.</li>\n</ul>\n<h4>Defensive Abilities</h4>\n<ul>\n<li>\n<h4><strong>Natural Armor:</strong> Gathlains have a +1&nbsp;<a href=\"https://www.d20pfsrd.com/basics-ability-scores/glossary#TOC-Natural-Armor-Bonus\">natural armor bonus</a>.</h4>\n</li>\n</ul>\n<h4>Spell-Like Abilities</h4>\n<ul>\n<li>\n<h4><strong>Spell-Like Abilities:</strong> 1/day—<a href=\"https://www.d20pfsrd.com/magic/all-spells/e/entangle\">entangle</a>,&nbsp;<a href=\"https://www.d20pfsrd.com/magic/all-spells/f/feather-step\">feather step</a>&nbsp;(<a href=\"https://www.d20pfsrd.com/magic#TOC-Caster-Level\">caster level</a>&nbsp;equals the gathlain’s character level).</h4>\n</li>\n</ul>",
      "chat": "",
      "unidentified": ""
    },
    "tags": [],
    "changes": [
      {
        "_id": "lmeggrmg",
        "formula": "2",
        "operator": "+",
        "target": "ability",
        "subTarget": "dex",
        "modifier": "racial",
        "priority": 0,
        "value": 0
      },
      {
        "_id": "x2jolwqk",
        "formula": "2",
        "operator": "+",
        "target": "ability",
        "subTarget": "cha",
        "modifier": "racial",
        "priority": 0,
        "value": 0
      },
      {
        "_id": "kytmbrx4",
        "formula": "-2",
        "operator": "+",
        "target": "ability",
        "subTarget": "con",
        "modifier": "racial",
        "priority": 0,
        "value": 0
      },
      {
        "_id": "0zt5u7mb",
        "formula": "1",
        "operator": "+",
        "target": "ac",
        "subTarget": "nac",
        "modifier": "base",
        "priority": 0,
        "value": 0
      }
    ],
    "changeFlags": {
      "loseDexToAC": false,
      "noStr": false,
      "noDex": false,
      "oneInt": false,
      "oneWis": false,
      "oneCha": false,
      "noEncumbrance": false,
      "mediumArmorFullSpeed": false,
      "heavyArmorFullSpeed": false
    },
    "contextNotes": [],
    "links": {
      "children": []
    },
    "armorProf": {
      "value": [],
      "custom": ""
    },
    "weaponProf": {
      "value": [],
      "custom": ""
    },
    "creatureType": "fey",
    "subTypes": [],
    "damage": {
      "parts": []
    }
  },
  "flags": {},
  "img": "systems/pf1/icons/spells/vines-acid-1.jpg",
  "effects": []
}