{
  "_id": "G96EeduQ7ttyMNXT",
  "name": "Chain-Hammer",
  "permission": {
    "default": 0
  },
  "type": "weapon",
  "data": {
    "description": {
      "value": "<p><em>This pair of hammers is linked by a loose chain. While the two hammers are balanced to wield in melee together, the chain is long enough that you can throw one&nbsp;<a href=\"https://www.d20pfsrd.com/equipment/goods-and-services/tools-kits#TOC-Hammer\">hammer</a>&nbsp;a short distance and then pull it back; pulling the chain to retrieve the thrown&nbsp;<a href=\"https://www.d20pfsrd.com/equipment/goods-and-services/tools-kits#TOC-Hammer\">hammer</a>&nbsp;is a&nbsp;<a href=\"https://www.d20pfsrd.com/gamemastering/combat#TOC-Move-Actions\">move action</a>. The chain-hammer’s maximum throwing range is 10 feet.&nbsp;<a href=\"https://www.d20pfsrd.com/races/core-races/dwarf\">Dwarf</a>&nbsp;<a href=\"https://www.d20pfsrd.com/classes/core-classes/ranger\">rangers</a>&nbsp;are fond of using chain-hammers, often using a locked&nbsp;<a href=\"https://www.d20pfsrd.com/equipment/weapons/weapon-descriptions/gauntlet\">gauntlet</a>&nbsp;to make sure one of the hammers remains secure.</em></p>",
      "chat": "",
      "unidentified": ""
    },
    "tags": [],
    "quantity": 1,
    "weight": 8,
    "price": 35,
    "identified": true,
    "hp": {
      "max": 10,
      "value": 10
    },
    "hardness": 5,
    "carried": true,
    "unidentified": {
      "price": 0,
      "name": ""
    },
    "identifiedName": "Chain-Hammer",
    "cl": 0,
    "aura": {
      "custom": false,
      "school": ""
    },
    "changes": [],
    "changeFlags": {
      "loseDexToAC": false,
      "noStr": false,
      "noDex": false,
      "oneInt": false,
      "oneWis": false,
      "oneCha": false,
      "noEncumbrance": false,
      "mediumArmorFullSpeed": false,
      "heavyArmorFullSpeed": false
    },
    "contextNotes": [],
    "links": {
      "children": []
    },
    "equipped": true,
    "masterwork": false,
    "weaponType": "exotic",
    "weaponSubtype": "2h",
    "properties": {
      "blc": false,
      "brc": false,
      "dbl": true,
      "dis": false,
      "fin": false,
      "frg": false,
      "imp": false,
      "mnk": false,
      "nnl": false,
      "prf": false,
      "rch": false,
      "thr": true,
      "trp": false,
      "grp": false,
      "snd": false
    },
    "enh": null,
    "weaponData": {
      "damageRoll": "1d6",
      "damageType": "B",
      "critRange": "20",
      "critMult": "2",
      "range": 20,
      "attackFormula": "",
      "damageFormula": "",
      "size": "med",
      "maxRangeIncrements": 5
    },
    "broken": false,
    "bonus": {
      "value": 0,
      "_deprecated": true
    },
    "damageType": {
      "value": "",
      "_deprecated": true
    },
    "damage2": {
      "value": "",
      "_deprecated": true
    },
    "damage2Type": {
      "value": "",
      "_deprecated": true
    },
    "damage": {
      "parts": []
    },
    "uses": {
      "value": 0,
      "max": 0
    }
  },
  "flags": {},
  "img": "systems/pf1/icons/items/weapons/chain-hammer.png",
  "effects": []
}