{
  "_id": "kedpoijexuzmffkp",
  "name": "Boline",
  "permission": {
    "default": 0
  },
  "type": "loot",
  "data": {
    "description": {
      "value": "\r\n<p class=\"source\"><b>Source</b>: <a href=\"http://amzn.to/2eT3m9D\" target=\"_blank\" rel=\"noopener\">PZO9481</a></p>\r\n<p><b>Price</b> 10 gp; <b>Weight</b> 2 lbs.</p>\r\n<p>Bolines are hook-shaped knives commonly used by herbalists and spellcasters to harvest ingredients for their craft. A boline's blade is typically 5 inches long, and is too small and irregular to use as a weapon. You can use a boline to finely slice the herbs in a <a href=\"https://www.d20pfsrd.com/equipment/goods-and-services/tools-kits#TOC-Kit-Healer-s\">healer's kit</a>, so you can treat <a href=\"https://www.d20pfsrd.com/magic-items/magic-weapons/magic-weapon-special-abilities/deadly\">deadly</a> wounds with only a single use from a <a href=\"https://www.d20pfsrd.com/equipment/goods-and-services/tools-kits#TOC-Kit-Healer-s\">healer's kit</a> rather than two uses.</p>\r\n\r\n",
      "chat": "",
      "unidentified": ""
    },
    "tags": [],
    "quantity": 1,
    "weight": 2,
    "price": 10,
    "identified": true,
    "hp": {
      "max": 10,
      "value": 10
    },
    "hardness": 0,
    "carried": true,
    "unidentified": {
      "price": 0,
      "name": ""
    },
    "identifiedName": "",
    "cl": 0,
    "aura": {
      "custom": false,
      "school": ""
    },
    "changes": [],
    "changeFlags": {
      "loseDexToAC": false,
      "noStr": false,
      "noDex": false,
      "oneInt": false,
      "oneWis": false,
      "oneCha": false,
      "noEncumbrance": false,
      "mediumArmorFullSpeed": false,
      "heavyArmorFullSpeed": false
    },
    "contextNotes": [],
    "links": {
      "children": []
    },
    "tag": "",
    "useCustomTag": false,
    "subType": "gear",
    "equipped": false,
    "damage": {
      "parts": []
    }
  },
  "flags": {},
  "img": "systems/pf1/icons/items/inventory/dice.jpg",
  "effects": []
}