{
  "_id": "nvosvnkjqicbmnaf",
  "name": "Cage",
  "permission": {
    "default": 0
  },
  "type": "loot",
  "data": {
    "description": {
      "value": "\r\n<p><b>Price</b> varies; <b>Weight</b> varies</p>\r\n<p>This secure, portable enclosure is used to hold creatures-generally animals, but a large enough cage can hold anything. Cages are made from iron, wood, or bamboo, depending on local customs and available materials. One cage holds one animal of that size, or five animals of a smaller size. The weight of the creature adds to the weight of the cage. Cages come in the following sizes: Diminutive or Fine, Tiny, Small, Medium, Large, and Huge. Cages for aquatic creatures cost twice as much, and weigh four times the normal weight when filled with water.</p>\r\n\r\n",
      "chat": "",
      "unidentified": ""
    },
    "tags": [],
    "quantity": 1,
    "weight": 0,
    "price": 0,
    "identified": true,
    "hp": {
      "max": 10,
      "value": 10
    },
    "hardness": 0,
    "carried": true,
    "unidentified": {
      "price": 0,
      "name": ""
    },
    "identifiedName": "",
    "cl": 0,
    "aura": {
      "custom": false,
      "school": ""
    },
    "changes": [],
    "changeFlags": {
      "loseDexToAC": false,
      "noStr": false,
      "noDex": false,
      "oneInt": false,
      "oneWis": false,
      "oneCha": false,
      "noEncumbrance": false,
      "mediumArmorFullSpeed": false,
      "heavyArmorFullSpeed": false
    },
    "contextNotes": [],
    "links": {
      "children": []
    },
    "tag": "",
    "useCustomTag": false,
    "subType": "gear",
    "equipped": false,
    "damage": {
      "parts": []
    }
  },
  "flags": {},
  "img": "systems/pf1/icons/items/inventory/dice.jpg",
  "effects": []
}