{
  "_id": "zsljbxlsarhitmyw",
  "name": "Ink, Ghost",
  "permission": {
    "default": 0
  },
  "type": "loot",
  "data": {
    "description": {
      "value": "\r\n<p class=\"source\"><b>Source</b> SoS</p>\r\n<p>Pale blue when wet, ghost ink quickly dries to near transparency 1 minute after application. Ghost ink is most often used to blaze trails and mark locations in a subtle manner. The pigment shines with a warm red glow under the light shed by <a href=\"https://www.d20pfsrd.com/bestiary/monster-listings/vermin/beetle/beetle-fire\">fire beetle</a> glands and sunrods, but under optimal normal conditions (such as a pale surface like parchment or a plaster wall) can only be noticed with a successful DC 25 <a href=\"https://www.d20pfsrd.com/skills/perception\">Perception</a> check. One vial of ghost ink is the size of a potion vial and sufficient for writing a page's worth of characters.</p>\r\n",
      "chat": "",
      "unidentified": ""
    },
    "tags": [],
    "quantity": 1,
    "weight": 0,
    "price": 8,
    "identified": true,
    "hp": {
      "max": 10,
      "value": 10
    },
    "hardness": 0,
    "carried": true,
    "unidentified": {
      "price": 0,
      "name": ""
    },
    "identifiedName": "",
    "cl": 0,
    "aura": {
      "custom": false,
      "school": ""
    },
    "changes": [],
    "changeFlags": {
      "loseDexToAC": false,
      "noStr": false,
      "noDex": false,
      "oneInt": false,
      "oneWis": false,
      "oneCha": false,
      "noEncumbrance": false,
      "mediumArmorFullSpeed": false,
      "heavyArmorFullSpeed": false
    },
    "contextNotes": [],
    "links": {
      "children": []
    },
    "tag": "",
    "useCustomTag": false,
    "subType": "gear",
    "equipped": false,
    "damage": {
      "parts": []
    }
  },
  "flags": {},
  "img": "systems/pf1/icons/items/inventory/dice.jpg",
  "effects": []
}