{
  "_id": "klgarsgufbovztjz",
  "name": "Kit, Riding",
  "permission": {
    "default": 0
  },
  "type": "loot",
  "data": {
    "description": {
      "value": "\r\n<table border=\"1\" cellpadding=\"5\">\r\n<thead>\r\n<tr>\r\n<th class=\"text\">Type</th>\r\n<th class=\"text\">Price</th>\r\n<th class=\"text\">Weight</th>\r\n</tr>\r\n</thead>\r\n<tbody>\r\n<tr>\r\n<td class=\"text\">Common</td>\r\n<td class=\"money number\">16 gp</td>\r\n<td class=\"text\">54 lbs.</td>\r\n</tr>\r\n<tr>\r\n<td class=\"text\">Exotic Mount</td>\r\n<td class=\"money number\">36 gp</td>\r\n<td class=\"text\">59 lbs.</td>\r\n</tr>\r\n</tbody>\r\n</table>\r\n<p>This kit includes a bit and bridle, a saddle, a saddle blanket, saddlebags, and 2 days' worth of feed for a mount. The weight can be lightened 10 pounds by discarding the feed.</p>\r\n\r\n",
      "chat": "",
      "unidentified": ""
    },
    "tags": [],
    "quantity": 1,
    "weight": 0,
    "price": 0,
    "identified": true,
    "hp": {
      "max": 10,
      "value": 10
    },
    "hardness": 0,
    "carried": true,
    "unidentified": {
      "price": 0,
      "name": ""
    },
    "identifiedName": "",
    "cl": 0,
    "aura": {
      "custom": false,
      "school": ""
    },
    "changes": [],
    "changeFlags": {
      "loseDexToAC": false,
      "noStr": false,
      "noDex": false,
      "oneInt": false,
      "oneWis": false,
      "oneCha": false,
      "noEncumbrance": false,
      "mediumArmorFullSpeed": false,
      "heavyArmorFullSpeed": false
    },
    "contextNotes": [],
    "links": {
      "children": []
    },
    "tag": "",
    "useCustomTag": false,
    "subType": "gear",
    "equipped": false,
    "damage": {
      "parts": []
    }
  },
  "flags": {},
  "img": "systems/pf1/icons/items/inventory/dice.jpg",
  "effects": []
}