{
  "_id": "C8PhETwQQHuDKUkm",
  "name": "Ring of Protection +4",
  "permission": {
    "default": 0
  },
  "type": "equipment",
  "data": {
    "description": {
      "value": "<p style=\"box-sizing: border-box; user-select: text; color: #191813; font-size: 13px;\">This ring offers continual magical protection in the form of a&nbsp;<a style=\"box-sizing: border-box; user-select: text;\" href=\"https://www.d20pfsrd.com/basics-ability-scores/glossary#TOC-Bonus-Deflection-\">deflection</a>&nbsp;bonus of +1 to +5 to&nbsp;<a style=\"box-sizing: border-box; user-select: text;\" href=\"https://www.d20pfsrd.com/gamemastering/combat#TOC-Armor-Class\" rel=\"nofollow\">AC</a>.</p>",
      "chat": "",
      "unidentified": ""
    },
    "tags": [],
    "quantity": 1,
    "weight": 0,
    "price": 32000,
    "identified": true,
    "hp": {
      "max": 10,
      "value": 10
    },
    "hardness": 0,
    "carried": true,
    "unidentified": {
      "price": 0,
      "name": "Ring"
    },
    "identifiedName": "Ring of Protection +4",
    "cl": 12,
    "aura": {
      "custom": false,
      "school": "abj"
    },
    "activation": {
      "cost": null,
      "type": ""
    },
    "unchainedAction": {
      "activation": {
        "cost": 1,
        "type": ""
      }
    },
    "duration": {
      "value": null,
      "units": ""
    },
    "target": {
      "value": ""
    },
    "range": {
      "value": null,
      "units": "",
      "maxIncrements": 1,
      "minValue": null,
      "minUnits": ""
    },
    "uses": {
      "value": 0,
      "max": 0,
      "per": null,
      "autoDeductCharges": true,
      "autoDeductChargesCost": "1"
    },
    "changes": [
      {
        "_id": "3hkn7xua",
        "formula": "4",
        "operator": "add",
        "target": "ac",
        "subTarget": "ac",
        "modifier": "deflection",
        "priority": 0,
        "value": 0
      }
    ],
    "changeFlags": {
      "loseDexToAC": false,
      "noStr": false,
      "noDex": false,
      "oneInt": false,
      "oneWis": false,
      "oneCha": false,
      "noEncumbrance": false,
      "mediumArmorFullSpeed": false,
      "heavyArmorFullSpeed": false
    },
    "contextNotes": [],
    "measureTemplate": {
      "type": "",
      "size": "",
      "overrideColor": false,
      "customColor": "",
      "overrideTexture": false,
      "customTexture": ""
    },
    "attackName": "",
    "actionType": null,
    "attackBonus": "",
    "critConfirmBonus": "",
    "damage": {
      "parts": [],
      "critParts": [],
      "nonCritParts": []
    },
    "attackParts": [],
    "formula": "",
    "ability": {
      "attack": null,
      "damage": null,
      "damageMult": 1,
      "critRange": 20,
      "critMult": 2
    },
    "save": {
      "dc": 0,
      "type": "",
      "description": ""
    },
    "effectNotes": "",
    "attackNotes": "",
    "soundEffect": "",
    "links": {
      "children": [],
      "charges": []
    },
    "tag": "",
    "useCustomTag": false,
    "equipped": true,
    "equipmentType": "misc",
    "equipmentSubtype": "wondrous",
    "armor": {
      "value": 0,
      "dex": "",
      "acp": 0,
      "enh": 0
    },
    "spellFailure": 0,
    "slot": "ring",
    "masterwork": false,
    "size": "fine",
    "broken": false,
    "nonlethal": false,
    "armorType": {
      "value": "",
      "_deprecated": true
    },
    "attack": {
      "parts": []
    }
  },
  "flags": {},
  "img": "systems/pf1/icons/items/jewelry/ring-iron.jpg",
  "effects": []
}