{
  "_id": "jxsllgxdbaecyqpq",
  "name": "Seeing Slime",
  "permission": {
    "default": 0
  },
  "type": "loot",
  "data": {
    "description": {
      "value": "\r\n<p class=\"source\"><b>Source</b> <a href=\"http://amzn.to/2z71S07\" target=\"_blank\" rel=\"noopener\">PZO1140</a></p>\r\n<p><b>Price</b> 160 gp</p>\r\n<p>This violet <a href=\"https://www.d20pfsrd.com/bestiary/monster-listings/oozes/slime-mold\">slime mold</a> is found only in rock formations containing nodules of agate.</p>\r\n<p><b>Gather</b> DC 19; <b>Yield</b> 1 dose</p>\r\n<p><b>Terrain</b> any underground</p>\r\n<p><b>Preparation</b> After collecting this rare <a href=\"https://www.d20pfsrd.com/bestiary/monster-listings/oozes/slime-mold\">slime mold</a> from where it naturally occurs in the lightless depths, the herbalist must combine the slime with mineral salts and store it in an airtight container such as a <a href=\"https://www.d20pfsrd.com/equipment/goods-and-services/containers-bags-boxes-more#TOC-Bottle\">bottle</a> or jar.</p>\r\n<p><b>Use</b> The slime causes mild skin rashes, but it grants <a href=\"https://www.d20pfsrd.com/gamemastering/special-abilities#TOC-Darkvision\">darkvision</a> out to a range of 30 feet for 24 hours if applied to the eyes (a <a href=\"https://www.d20pfsrd.com/gamemastering/combat#TOC-Full-Round-Actions\">full-round action</a> that provokes <a href=\"https://www.d20pfsrd.com/gamemastering/combat#TOC-Attacks-of-Opportunity\">attacks of opportunity</a>). If the subject already had <a href=\"https://www.d20pfsrd.com/gamemastering/special-abilities#TOC-Darkvision\">darkvision</a>, the <a href=\"https://www.d20pfsrd.com/gamemastering/special-abilities#TOC-Darkvision\">darkvision's</a> range increases by 30 feet. Frequent use of this herb causes permanent purple blotches on the skin around the user's eyes.</p>\r\n",
      "chat": "",
      "unidentified": ""
    },
    "tags": [],
    "quantity": 1,
    "weight": 0,
    "price": 160,
    "identified": true,
    "hp": {
      "max": 10,
      "value": 10
    },
    "hardness": 0,
    "carried": true,
    "unidentified": {
      "price": 0,
      "name": ""
    },
    "identifiedName": "",
    "cl": 0,
    "aura": {
      "custom": false,
      "school": ""
    },
    "changes": [],
    "changeFlags": {
      "loseDexToAC": false,
      "noStr": false,
      "noDex": false,
      "oneInt": false,
      "oneWis": false,
      "oneCha": false,
      "noEncumbrance": false,
      "mediumArmorFullSpeed": false,
      "heavyArmorFullSpeed": false
    },
    "contextNotes": [],
    "links": {
      "children": []
    },
    "tag": "",
    "useCustomTag": false,
    "subType": "gear",
    "equipped": false,
    "damage": {
      "parts": []
    }
  },
  "flags": {},
  "img": "systems/pf1/icons/items/inventory/dice.jpg",
  "effects": []
}