{
  "_id": "seeyrinkfshzoryl",
  "name": "Sky Mine",
  "permission": {
    "default": 0
  },
  "type": "loot",
  "data": {
    "description": {
      "value": "\r\n<p class=\"source\"><b>Source</b> PZO9257</p>\r\n<p><b>Price</b> 1,000 gp; <b>Weight</b> 500 lbs.</p>\r\n<p><a href=\"https://www.d20pfsrd.com/races/core-races/dwarf\">Dwarves</a> fill these 20-foot-diameter cloth balloons with a secret and highly flammable gas (included in the price) and then release them into the sky over their enemies. To transform the balloons into decoys, dwarven siege warriors place dummies in cargo baskets beneath the balloons to look like balloonist scouts or snipers. Whoever releases the balloon can attempt a DC 15 <a href=\"https://www.d20pfsrd.com/skills/profession\">Profession</a> (driver), <a href=\"https://www.d20pfsrd.com/skills/knowledge\">Knowledge</a> (nature), or <a href=\"https://www.d20pfsrd.com/basics-ability-scores/ability-scores#TOC-Wisdom-Wis-\">Wisdom</a> check; if the check is successful, the balloon can be guided out to a maximum range of 300 feet, a far enough distance for archers to safely shoot the balloon with flaming arrows, causing it to explode in a devastating ball of fire. A detonated sky mine creates a 50-foot-radius burst of flame that deals 10d6 points of fire damage to anything in the area.</p>\r\n",
      "chat": "",
      "unidentified": ""
    },
    "tags": [],
    "quantity": 1,
    "weight": 0,
    "price": 0,
    "identified": true,
    "hp": {
      "max": 10,
      "value": 10
    },
    "hardness": 0,
    "carried": true,
    "unidentified": {
      "price": 0,
      "name": ""
    },
    "identifiedName": "",
    "cl": 0,
    "aura": {
      "custom": false,
      "school": ""
    },
    "changes": [],
    "changeFlags": {
      "loseDexToAC": false,
      "noStr": false,
      "noDex": false,
      "oneInt": false,
      "oneWis": false,
      "oneCha": false,
      "noEncumbrance": false,
      "mediumArmorFullSpeed": false,
      "heavyArmorFullSpeed": false
    },
    "contextNotes": [],
    "links": {
      "children": []
    },
    "tag": "",
    "useCustomTag": false,
    "subType": "gear",
    "equipped": false,
    "damage": {
      "parts": []
    }
  },
  "flags": {},
  "img": "systems/pf1/icons/items/inventory/dice.jpg",
  "effects": []
}