{
  "_id": "antkhgbaltnwhkcp",
  "name": "Smoke Pellet",
  "permission": {
    "default": 0
  },
  "type": "loot",
  "data": {
    "description": {
      "value": "\r\n<p><b>Price</b> 25 gp; <b>Weight</b> -</p>\r\n<p>This small clay sphere contains two alchemical substances separated by a thin barrier. When you break the sphere, the substances mingle and fill a 5-foot square with a cloud of foul but harmless yellow smoke. The smoke pellet acts as a smokestick, except the smoke only lasts for 1 round before dispersing. You may throw a smoke pellet as a ranged <a href=\"https://www.d20pfsrd.com/gamemastering/combat#TOC-Touch-Attacks\">touch attack</a> with a range increment of 10 feet.</p>\r\n<p><b>Create</b>: <a href=\"https://www.d20pfsrd.com/skills/craft\">Craft</a> (alchemy) DC 20</p>\r\n<p><b>Smoke pellet, pepper</b></p>\r\n<p class=\"source\"><b>Source</b> <a href=\"http://www.amazon.com/gp/product/1601255101/ref=as_li_qf_sp_asin_il_tl?ie=UTF8&amp;camp=1789&amp;creative=9325&amp;creativeASIN=1601255101&amp;linkCode=as2&amp;tag=httpwwwd20pfs-20\" target=\"_blank\" rel=\"noopener\">PZO9430</a></p>\r\n<p>The smoke from a pepper pellet is an ocular and respiratory irritant, and creatures that are hit by a pepper pellet or pass through the smoke must succeed at a DC 12 <a href=\"https://www.d20pfsrd.com/gamemastering/combat#TOC-Fortitude\">Fortitude</a> save or be <a href=\"https://www.d20pfsrd.com/gamemastering/conditions#TOC-Sickened\">sickened</a> for 1 round.</p>\r\n<p><b>Price</b> 60 gp; <b>Weight</b> -</p>\r\n<p><b>Smoke pellet, smog</b></p>\r\n<p class=\"source\"><b>Source</b> <a href=\"http://www.amazon.com/gp/product/1601255101/ref=as_li_qf_sp_asin_il_tl?ie=UTF8&amp;camp=1789&amp;creative=9325&amp;creativeASIN=1601255101&amp;linkCode=as2&amp;tag=httpwwwd20pfs-20\" target=\"_blank\" rel=\"noopener\">PZO9430</a></p>\r\n<p>The smoke from a smog pellet is oily, and creatures that are hit by a smog pellet or pass through the smoke are covered in thick residue. This residue makes <a href=\"https://www.d20pfsrd.com/gamemastering/conditions#TOC-Invisible\">invisible</a> creatures visible for 1d4 rounds.</p>\r\n<p><b>Price</b> 40 gp; <b>Weight</b> -</p>\r\n",
      "chat": "",
      "unidentified": ""
    },
    "tags": [],
    "quantity": 1,
    "weight": 0,
    "price": 25,
    "identified": true,
    "hp": {
      "max": 10,
      "value": 10
    },
    "hardness": 0,
    "carried": true,
    "unidentified": {
      "price": 0,
      "name": ""
    },
    "identifiedName": "",
    "cl": 0,
    "aura": {
      "custom": false,
      "school": ""
    },
    "changes": [],
    "changeFlags": {
      "loseDexToAC": false,
      "noStr": false,
      "noDex": false,
      "oneInt": false,
      "oneWis": false,
      "oneCha": false,
      "noEncumbrance": false,
      "mediumArmorFullSpeed": false,
      "heavyArmorFullSpeed": false
    },
    "contextNotes": [],
    "links": {
      "children": []
    },
    "tag": "",
    "useCustomTag": false,
    "subType": "gear",
    "equipped": false,
    "damage": {
      "parts": []
    }
  },
  "flags": {},
  "img": "systems/pf1/icons/items/inventory/dice.jpg",
  "effects": []
}