{
  "_id": "Tlsqgb6EZol2bOJY",
  "name": "Crystal Shard",
  "permission": {
    "default": 0
  },
  "type": "feat",
  "data": {
    "description": {
      "value": "<p>At 9th level, you can touch a metal or stone weapon (or up to 50 pieces of ammunition) as a&nbsp;<a href=\"https://www.d20pfsrd.com/gamemastering/combat#TOC-Standard-Actions\">standard action</a>, giving it the&nbsp;<a href=\"https://www.d20pfsrd.com/magic-items/magic-weapons#TOC-Bane\">bane</a>&nbsp;property against any creature with the&nbsp;<a href=\"https://www.d20pfsrd.com/bestiary/rules-for-monsters/creature-types#TOC-Earth\">earth</a>&nbsp;subtype,&nbsp;<a href=\"https://www.d20pfsrd.com/bestiary/rules-for-monsters/creature-types#TOC-Ooze\">oozes</a>, or&nbsp;<a href=\"https://www.d20pfsrd.com/bestiary/rules-for-monsters/creature-types#TOC-Construct\">constructs</a>&nbsp;made of stone or metal, for 1 minute. You can use this ability once per day at 9th level, twice per day at 17th, and three times per day at 20th.</p>",
      "chat": "",
      "unidentified": ""
    },
    "tags": [],
    "activation": {
      "cost": 1,
      "type": "standard"
    },
    "unchainedAction": {
      "activation": {
        "cost": 2,
        "type": "action"
      }
    },
    "duration": {
      "value": "1",
      "units": "minute"
    },
    "target": {
      "value": "One weapon of 50 pieces of ammunition"
    },
    "range": {
      "value": null,
      "units": "touch",
      "maxIncrements": 1,
      "minValue": null,
      "minUnits": "",
      "long": null
    },
    "uses": {
      "value": 0,
      "max": 0,
      "per": "day",
      "autoDeductCharges": true,
      "autoDeductChargesCost": "1",
      "maxFormula": ""
    },
    "measureTemplate": {
      "type": "",
      "size": "0",
      "overrideColor": false,
      "customColor": "",
      "overrideTexture": false,
      "customTexture": ""
    },
    "attackName": "",
    "actionType": "",
    "attackBonus": "",
    "critConfirmBonus": "",
    "damage": {
      "parts": [],
      "critParts": [],
      "nonCritParts": []
    },
    "attackParts": [],
    "formula": "",
    "ability": {
      "attack": null,
      "damage": null,
      "damageMult": 1,
      "critRange": 20,
      "critMult": 2
    },
    "save": {
      "dc": 0,
      "type": "",
      "description": ""
    },
    "effectNotes": "",
    "attackNotes": "",
    "soundEffect": "",
    "changes": [],
    "changeFlags": {
      "loseDexToAC": false,
      "noStr": false,
      "noDex": false,
      "oneInt": false,
      "oneWis": false,
      "oneCha": false,
      "noEncumbrance": false,
      "mediumArmorFullSpeed": false,
      "heavyArmorFullSpeed": false
    },
    "contextNotes": [],
    "links": {
      "children": [],
      "charges": []
    },
    "tag": "",
    "useCustomTag": false,
    "armorProf": {
      "value": [],
      "custom": ""
    },
    "weaponProf": {
      "value": [],
      "custom": ""
    },
    "featType": "classFeat",
    "associations": {
      "classes": [
        [
          "Sorcerer"
        ]
      ]
    },
    "showInQuickbar": false,
    "nonlethal": false,
    "abilityType": "sp",
    "crOffset": "",
    "attack": {
      "parts": []
    }
  },
  "flags": {},
  "img": "systems/pf1/icons/skills/yellow_05.jpg",
  "effects": []
}