{
  "_id": "XUzdB3wSzV63RQHZ",
  "name": "Destined Bloodrager Bloodline",
  "permission": {
    "default": 0
  },
  "type": "feat",
  "data": {
    "description": {
      "value": "<p><em>Your bloodline is destined for great things. When you bloodrage, you exude a greatness that makes all but the most legendary creatures seem lesser.</em><br><br><strong>Bonus Feats:</strong></p>\n<ul>\n<li>@Compendium[pf1.feats.O0e0UCim27GPKFuW]{Diehard}</li>\n<li>@Compendium[pf1.feats.ehqx8txNRGMaNOPt]{Endurance}</li>\n<li>@Compendium[pf1.feats.Uuiu3p982omhMEPj]{Improved Initiative}</li>\n<li>@Compendium[pf1.feats.O0jbkTJcIji9BNiF]{Intimidating Prowess}</li>\n<li>@Compendium[pf1.feats.R3a1OV18RwDJftvq]{Leadership}</li>\n<li>@Compendium[pf1.feats.0bZf3SDkvVOe2ujH]{Lightning Reflexes}</li>\n<li>@Compendium[pf1.feats.n250dFlbykAIAg5Z]{Weapon Focus}</li>\n</ul>\n<p><strong>Bonus Spells:&nbsp;</strong></p>\n<ul>\n<li>@Compendium[pf1.spells.sz7j540uypmqqvti]{Shield}&nbsp;(7th),&nbsp;</li>\n<li>@Compendium[pf1.spells.18kryvj2dfuymk9d]{Blur}&nbsp;(10th),&nbsp;</li>\n<li>@Compendium[pf1.spells.1vh2ewwvzvxunoxk]{Protection from Energy}&nbsp;(13th),&nbsp;</li>\n<li>@Compendium[pf1.spells.lvzq2mwkqmozolpl]{Freedom of Movement}&nbsp;(16th)</li>\n</ul>",
      "chat": "",
      "unidentified": ""
    },
    "tags": [],
    "activation": {
      "cost": 1,
      "type": ""
    },
    "unchainedAction": {
      "activation": {
        "cost": 1,
        "type": ""
      }
    },
    "duration": {
      "value": null,
      "units": ""
    },
    "target": {
      "value": ""
    },
    "range": {
      "value": null,
      "units": "",
      "maxIncrements": 1,
      "minValue": null,
      "minUnits": "",
      "long": null
    },
    "uses": {
      "value": 0,
      "max": 0,
      "per": null,
      "autoDeductCharges": true,
      "autoDeductChargesCost": "1"
    },
    "measureTemplate": {
      "type": "",
      "size": "",
      "overrideColor": false,
      "customColor": "",
      "overrideTexture": false,
      "customTexture": ""
    },
    "attackName": "",
    "actionType": "",
    "attackBonus": "",
    "critConfirmBonus": "",
    "damage": {
      "parts": [],
      "critParts": [],
      "nonCritParts": []
    },
    "attackParts": [],
    "formula": "",
    "ability": {
      "attack": null,
      "damage": null,
      "damageMult": 1,
      "critRange": 20,
      "critMult": 2
    },
    "save": {
      "dc": 0,
      "type": "",
      "description": ""
    },
    "effectNotes": "",
    "attackNotes": "",
    "soundEffect": "",
    "changes": [],
    "changeFlags": {
      "loseDexToAC": false,
      "noStr": false,
      "noDex": false,
      "oneInt": false,
      "oneWis": false,
      "oneCha": false,
      "noEncumbrance": false,
      "mediumArmorFullSpeed": false,
      "heavyArmorFullSpeed": false
    },
    "contextNotes": [],
    "links": {
      "children": [],
      "charges": []
    },
    "tag": "",
    "useCustomTag": false,
    "armorProf": {
      "value": [],
      "custom": ""
    },
    "weaponProf": {
      "value": [],
      "custom": ""
    },
    "featType": "classFeat",
    "associations": {
      "classes": [
        [
          "Bloodrager"
        ]
      ]
    },
    "showInQuickbar": false,
    "nonlethal": false,
    "abilityType": "none",
    "crOffset": "",
    "attack": {
      "parts": []
    }
  },
  "flags": {},
  "img": "systems/pf1/icons/skills/red_13.jpg",
  "effects": []
}