{
  "_id": "MN71M8yJqF2ysDgm",
  "name": "Elephant Aspect",
  "permission": {
    "default": 0
  },
  "type": "feat",
  "data": {
    "description": {
      "value": "<p><em>The elephant is a symbol of both power and wisdom in Garund and Vudra. Shifters who take this aspect learn the value of applying their strength with precision. An elephant’s alternate attacks are gore (P) and slam (B).</em><br><br><strong>Minor Form:</strong> You gain a +4 enhancement bonus on bull rush and overrun combat maneuver checks.</p>\n<p>At 8th level, this bonus increases to +6, and at 15th level it increases to +8.<br><br><strong>Major Form:</strong> Your shape changes to that of a Large adolescent&nbsp;<a href=\"https://www.aonprd.com/MonsterDisplay.aspx?ItemName=Elephant\">elephant</a>&nbsp;(as an elephant, but with a space of 10 feet). While in this form, you gain low-light vision, scent, a gore attack (1d6 damage), and a slam attack (1d8 damage) with a 5-foot reach. You also gain a +2 racial bonus to Strength and to natural armor. While in this form, you can carry a Medium bipedal creature on your back, allowing you to act as the creature’s mount.</p>\n<p>At 8th level, you gain&nbsp;<a href=\"https://www.aonprd.com/UMR.aspx?ItemName=Trample\">trample</a>, as the universal monster rule, dealing your shifter claw damage.</p>\n<p>At 15th level, you gain @Compendium[pf1.feats.dn2KgHFQRbuoNRx0]{Improved Bull Rush}&nbsp;as a bonus feat, and your racial bonus to Strength and natural armor increases to +4.<br><br><strong>Alternate Natural Attacks: </strong>Gore (P), slam (B)</p>",
      "chat": "",
      "unidentified": ""
    },
    "tags": [],
    "activation": {
      "cost": 1,
      "type": ""
    },
    "unchainedAction": {
      "activation": {
        "cost": 1,
        "type": ""
      }
    },
    "duration": {
      "value": null,
      "units": ""
    },
    "target": {
      "value": ""
    },
    "range": {
      "value": null,
      "units": "",
      "maxIncrements": 1,
      "minValue": null,
      "minUnits": "",
      "long": null
    },
    "uses": {
      "value": 0,
      "max": 0,
      "per": null,
      "autoDeductCharges": true,
      "autoDeductChargesCost": "1"
    },
    "measureTemplate": {
      "type": "",
      "size": "",
      "overrideColor": false,
      "customColor": "",
      "overrideTexture": false,
      "customTexture": ""
    },
    "attackName": "",
    "actionType": "",
    "attackBonus": "",
    "critConfirmBonus": "",
    "damage": {
      "parts": [],
      "critParts": [],
      "nonCritParts": []
    },
    "attackParts": [],
    "formula": "",
    "ability": {
      "attack": null,
      "damage": null,
      "damageMult": 1,
      "critRange": 20,
      "critMult": 2
    },
    "save": {
      "dc": 0,
      "type": "",
      "description": ""
    },
    "effectNotes": "",
    "attackNotes": "",
    "soundEffect": "",
    "changes": [],
    "changeFlags": {
      "loseDexToAC": false,
      "noStr": false,
      "noDex": false,
      "oneInt": false,
      "oneWis": false,
      "oneCha": false,
      "noEncumbrance": false,
      "mediumArmorFullSpeed": false,
      "heavyArmorFullSpeed": false
    },
    "contextNotes": [],
    "links": {
      "children": [],
      "charges": []
    },
    "tag": "",
    "useCustomTag": false,
    "armorProf": {
      "value": [],
      "custom": ""
    },
    "weaponProf": {
      "value": [],
      "custom": ""
    },
    "featType": "classFeat",
    "associations": {
      "classes": [
        [
          "Shifter"
        ]
      ]
    },
    "showInQuickbar": false,
    "nonlethal": false,
    "abilityType": "none",
    "crOffset": "",
    "attack": {
      "parts": []
    }
  },
  "flags": {},
  "img": "systems/pf1/icons/skills/blue_29.jpg",
  "effects": []
}