{
  "_id": "4g9hYWjaXvj8nVwi",
  "name": "Horrific Glimpse",
  "permission": {
    "default": 0
  },
  "type": "feat",
  "data": {
    "description": {
      "value": "<p>Once per day, the shaman can gain the effects of @Compendium[pf1.spells.68ngvzmzvadhf6vs]{Contact Other Plane}&nbsp;after 1 hour of meditation. No components are required in order to use this ability, but the shaman does not get to select which plane she contacts. Instead, this version of the spell contacts an alien mind from somewhere in the Dark Tapestry, be it a hive mind of alien monstrosities, the disembodied sentience of a dead planet, or even the slumbering and insane mind of a Great Old One or Outer God. The shaman must succeed at a DC 16 Wisdom check rather than an Intelligence check to avoid a decrease in Intelligence or Charisma when using this ability. If she fails the check, her Intelligence and Charisma scores each fall to 8 for 5 weeks, as the alien minds thus contacted prove as destructive to mortal thoughts as direct contact with the most powerful of deities. The types of answers provided by the horrific glimpse, be they true answers, ignorance, lies, or random answers, are considered equal to those of a greater deity if the questions being asked concern the Material Plane, but they are equal to those of a demigod if the questions posed concern any other plane.<br><br>Also once per day (but only after first using this ability as per&nbsp;contact other plane), the shaman can reveal a fragment of this horrific vision to another creature, as per&nbsp;&gt;phantasmal killer, except that the target takes 1d4+1 points of Wisdom damage regardless of the results of any of its saving throws. The body of a creature slain by this effect is always hideously mutilated and savaged, making spells like&nbsp;speak with dead&nbsp;useless.</p>",
      "chat": "",
      "unidentified": ""
    },
    "tags": [],
    "activation": {
      "cost": 1,
      "type": "hour"
    },
    "unchainedAction": {
      "activation": {
        "cost": 1,
        "type": "hour"
      }
    },
    "duration": {
      "value": null,
      "units": ""
    },
    "target": {
      "value": ""
    },
    "range": {
      "value": null,
      "units": "",
      "maxIncrements": 1,
      "minValue": null,
      "minUnits": "",
      "long": null
    },
    "uses": {
      "value": 0,
      "max": 1,
      "per": "day",
      "autoDeductCharges": true,
      "autoDeductChargesCost": "1",
      "maxFormula": "1"
    },
    "measureTemplate": {
      "type": "",
      "size": "",
      "overrideColor": false,
      "customColor": "",
      "overrideTexture": false,
      "customTexture": ""
    },
    "attackName": "",
    "actionType": "",
    "attackBonus": "",
    "critConfirmBonus": "",
    "damage": {
      "parts": [],
      "critParts": [],
      "nonCritParts": []
    },
    "attackParts": [],
    "formula": "",
    "ability": {
      "attack": null,
      "damage": null,
      "damageMult": 1,
      "critRange": 20,
      "critMult": 2
    },
    "save": {
      "dc": 0,
      "type": "",
      "description": ""
    },
    "effectNotes": "",
    "attackNotes": "",
    "soundEffect": "",
    "changes": [],
    "changeFlags": {
      "loseDexToAC": false,
      "noStr": false,
      "noDex": false,
      "oneInt": false,
      "oneWis": false,
      "oneCha": false,
      "noEncumbrance": false,
      "mediumArmorFullSpeed": false,
      "heavyArmorFullSpeed": false
    },
    "contextNotes": [],
    "links": {
      "children": [],
      "charges": []
    },
    "tag": "",
    "useCustomTag": false,
    "armorProf": {
      "value": [],
      "custom": ""
    },
    "weaponProf": {
      "value": [],
      "custom": ""
    },
    "featType": "classFeat",
    "associations": {
      "classes": [
        [
          "Shaman"
        ]
      ]
    },
    "showInQuickbar": false,
    "nonlethal": false,
    "abilityType": "sp",
    "crOffset": "",
    "attack": {
      "parts": []
    }
  },
  "flags": {},
  "img": "systems/pf1/icons/skills/violet_20.jpg",
  "effects": []
}