{
  "_id": "1ddnC7domPF2vX2Z",
  "name": "Lunar Mystery",
  "permission": {
    "default": 0
  },
  "type": "feat",
  "data": {
    "description": {
      "value": "<p><strong>Class Skills: </strong>An oracle with the lunar mystery adds Acrobatics, Knowledge (Nature), Perception, and Survival to her list of class skills.<br><br><strong>Bonus Spells:&nbsp;</strong></p>\n<ul>\n<li>@Compendium[pf1.spells.dol5wzpsk7m6gxsc]{Fumbletongue} (2nd),&nbsp;</li>\n<li>@Compendium[pf1.spells.ech2cibcsmsms9s7]{Dust Of Twilight} (4th),&nbsp;</li>\n<li>@Compendium[pf1.spells.8u1xa5javcxc6szk]{Rage} (6th),&nbsp;</li>\n<li>@Compendium[pf1.spells.2mh7g81k30bv7b5m]{Moonstruck} (8th),&nbsp;</li>\n<li>@Compendium[pf1.spells.knjoprwzcm3jygwk]{Aspect of the Wolf} (10th),&nbsp;</li>\n<li>@Compendium[pf1.spells.cxp0vodhvuwnfmye]{Litany Of Madness} (12th),&nbsp;</li>\n<li>@Compendium[pf1.spells.8rf2ucrtzmxooyw6]{Lunar Veil} (14th),&nbsp;</li>\n<li>@Compendium[pf1.spells.1btrja5u0cz66cy8]{Blood Mist} (16th),&nbsp;</li>\n<li>@Compendium[pf1.spells.0mt9mso6wdhfafpo]{Polar Midnight} (18th).</li>\n</ul>",
      "chat": "",
      "unidentified": ""
    },
    "tags": [],
    "activation": {
      "cost": 1,
      "type": ""
    },
    "unchainedAction": {
      "activation": {
        "cost": 1,
        "type": ""
      }
    },
    "duration": {
      "value": null,
      "units": ""
    },
    "target": {
      "value": ""
    },
    "range": {
      "value": null,
      "units": "",
      "maxIncrements": 1,
      "minValue": null,
      "minUnits": "",
      "long": null
    },
    "uses": {
      "value": 0,
      "max": 0,
      "per": null,
      "autoDeductCharges": true,
      "autoDeductChargesCost": "1"
    },
    "measureTemplate": {
      "type": "",
      "size": "",
      "overrideColor": false,
      "customColor": "",
      "overrideTexture": false,
      "customTexture": ""
    },
    "attackName": "",
    "actionType": "",
    "attackBonus": "",
    "critConfirmBonus": "",
    "damage": {
      "parts": [],
      "critParts": [],
      "nonCritParts": []
    },
    "attackParts": [],
    "formula": "",
    "ability": {
      "attack": null,
      "damage": null,
      "damageMult": 1,
      "critRange": 20,
      "critMult": 2
    },
    "save": {
      "dc": 0,
      "type": "",
      "description": ""
    },
    "effectNotes": "",
    "attackNotes": "",
    "soundEffect": "",
    "changes": [],
    "changeFlags": {
      "loseDexToAC": false,
      "noStr": false,
      "noDex": false,
      "oneInt": false,
      "oneWis": false,
      "oneCha": false,
      "noEncumbrance": false,
      "mediumArmorFullSpeed": false,
      "heavyArmorFullSpeed": false
    },
    "contextNotes": [],
    "links": {
      "children": [],
      "charges": []
    },
    "tag": "",
    "useCustomTag": false,
    "armorProf": {
      "value": [],
      "custom": ""
    },
    "weaponProf": {
      "value": [],
      "custom": ""
    },
    "featType": "classFeat",
    "associations": {
      "classes": [
        [
          "Oracle"
        ]
      ]
    },
    "showInQuickbar": false,
    "nonlethal": false,
    "abilityType": "none",
    "crOffset": "",
    "attack": {
      "parts": []
    }
  },
  "flags": {},
  "img": "systems/pf1/icons/spells/light-magenta-2.jpg",
  "effects": []
}