{
  "_id": "rLpA4HZgBahLX917",
  "name": "Mountain Patron",
  "permission": {
    "default": 0
  },
  "type": "feat",
  "data": {
    "description": {
      "value": "<ul>\n<li>2nd — @Compendium[pf1.spells.879sdozw7ca7ci9k]{Stone Fist}</li>\n<li>4th — @Compendium[pf1.spells.gqtg9ruv8kkd0knf]{Stone Call}</li>\n<li>6th — @Compendium[pf1.spells.g1evszmk8wfgnsv5]{Stone Shape}</li>\n<li>8th — @Compendium[pf1.spells.hfyycpn0wdimx1n9]{Spike Stones}</li>\n<li>10th — @Compendium[pf1.spells.l83djt5019ujasjh]{Wall Of Stone}</li>\n<li>12th — @Compendium[pf1.spells.361rc74674l3zt9a]{Flesh to Stone}</li>\n<li>14th — @Compendium[pf1.spells.wgm8mm1za909pwch]{Stone Tell}</li>\n<li>16th — @Compendium[pf1.spells.oeemcnfjod9zd7my]{Repel Metal or Stone}</li>\n<li>18th — @Compendium[pf1.spells.o8jhvddxgunzx94i]{Clashing Rocks}</li>\n</ul>",
      "chat": "",
      "unidentified": ""
    },
    "tags": [],
    "activation": {
      "cost": 1,
      "type": ""
    },
    "unchainedAction": {
      "activation": {
        "cost": 1,
        "type": ""
      }
    },
    "duration": {
      "value": null,
      "units": ""
    },
    "target": {
      "value": ""
    },
    "range": {
      "value": null,
      "units": "",
      "maxIncrements": 1,
      "minValue": null,
      "minUnits": "",
      "long": null
    },
    "uses": {
      "value": 0,
      "max": 0,
      "per": null,
      "autoDeductCharges": true,
      "autoDeductChargesCost": "1"
    },
    "measureTemplate": {
      "type": "",
      "size": "",
      "overrideColor": false,
      "customColor": "",
      "overrideTexture": false,
      "customTexture": ""
    },
    "attackName": "",
    "actionType": "",
    "attackBonus": "",
    "critConfirmBonus": "",
    "damage": {
      "parts": [],
      "critParts": [],
      "nonCritParts": []
    },
    "attackParts": [],
    "formula": "",
    "ability": {
      "attack": null,
      "damage": null,
      "damageMult": 1,
      "critRange": 20,
      "critMult": 2
    },
    "save": {
      "dc": 0,
      "type": "",
      "description": ""
    },
    "effectNotes": "",
    "attackNotes": "",
    "soundEffect": "",
    "changes": [],
    "changeFlags": {
      "loseDexToAC": false,
      "noStr": false,
      "noDex": false,
      "oneInt": false,
      "oneWis": false,
      "oneCha": false,
      "noEncumbrance": false,
      "mediumArmorFullSpeed": false,
      "heavyArmorFullSpeed": false
    },
    "contextNotes": [],
    "links": {
      "children": [],
      "charges": []
    },
    "tag": "",
    "useCustomTag": false,
    "armorProf": {
      "value": [],
      "custom": ""
    },
    "weaponProf": {
      "value": [],
      "custom": ""
    },
    "featType": "classFeat",
    "associations": {
      "classes": [
        [
          "Witch"
        ]
      ]
    },
    "showInQuickbar": false,
    "nonlethal": false,
    "abilityType": "none",
    "crOffset": "",
    "attack": {
      "parts": []
    }
  },
  "flags": {},
  "img": "systems/pf1/icons/feats/improved-familiar.jpg",
  "effects": []
}