{
  "_id": "FQiwHjr9khaqLNSU",
  "name": "Superior Psychic Magic (UC) (4 pts)",
  "permission": {
    "default": 0
  },
  "type": "feat",
  "data": {
    "description": {
      "value": "<p><strong>Requirements: </strong>Aberrant subtype; advanced psychic magic evolution; summoner level 11th; Charisma 13.</p>\n<p>The eidolon has 7 points of psychic magic to spend each day. Select one spell from the following list:&nbsp;</p>\n<ul>\n<li>confusion,&nbsp;</li>\n<li>deeper darkness,&nbsp;</li>\n<li>displacement,&nbsp;</li>\n<li>jester’s jauntAPG,&nbsp;</li>\n<li>id insinuation IIOA, or&nbsp;</li>\n<li>mind thrust IIIOA.</li>\n</ul>\n<p>The eidolon can cast that spell as a psychic spell by spending 3 points of psychic energy. The caster level and save DC are the same as for basic psychic magic.</p>\n<p>This evolution can be selected more than once, selecting a different spell each time.</p>\n<p>The eidolon’s amount of psychic energy available to spend each day does not stack; it uses only the highest number of points granted by its most powerful psychic magic evolution.&nbsp;</p>\n<p>&nbsp;</p>",
      "chat": "",
      "unidentified": ""
    },
    "tags": [],
    "activation": {
      "cost": 1,
      "type": "special"
    },
    "unchainedAction": {
      "activation": {
        "cost": 1,
        "type": "special"
      }
    },
    "duration": {
      "value": null,
      "units": ""
    },
    "target": {
      "value": ""
    },
    "range": {
      "value": null,
      "units": "",
      "maxIncrements": 1,
      "minValue": null,
      "minUnits": "",
      "long": null
    },
    "uses": {
      "value": 0,
      "max": 7,
      "per": "day",
      "autoDeductCharges": true,
      "autoDeductChargesCost": "1",
      "maxFormula": "7"
    },
    "measureTemplate": {
      "type": "",
      "size": "",
      "overrideColor": false,
      "customColor": "",
      "overrideTexture": false,
      "customTexture": ""
    },
    "attackName": "",
    "actionType": "",
    "attackBonus": "",
    "critConfirmBonus": "",
    "damage": {
      "parts": [],
      "critParts": [],
      "nonCritParts": []
    },
    "attackParts": [],
    "formula": "",
    "ability": {
      "attack": null,
      "damage": null,
      "damageMult": 1,
      "critRange": 20,
      "critMult": 2
    },
    "save": {
      "dc": 0,
      "type": "",
      "description": ""
    },
    "effectNotes": "",
    "attackNotes": "",
    "soundEffect": "",
    "changes": [],
    "changeFlags": {
      "loseDexToAC": false,
      "noStr": false,
      "noDex": false,
      "oneInt": false,
      "oneWis": false,
      "oneCha": false,
      "noEncumbrance": false,
      "mediumArmorFullSpeed": false,
      "heavyArmorFullSpeed": false
    },
    "contextNotes": [],
    "links": {
      "children": [],
      "charges": []
    },
    "tag": "",
    "useCustomTag": false,
    "armorProf": {
      "value": [],
      "custom": ""
    },
    "weaponProf": {
      "value": [],
      "custom": ""
    },
    "featType": "classFeat",
    "associations": {
      "classes": [
        [
          "Eidolon (Unchained)"
        ]
      ]
    },
    "showInQuickbar": false,
    "nonlethal": false,
    "abilityType": "none",
    "crOffset": "",
    "attack": {
      "parts": []
    }
  },
  "flags": {},
  "img": "systems/pf1/icons/skills/blue_26.jpg",
  "effects": []
}