{
  "_id": "vTE94sQboMmdAakT",
  "name": "Vigilante Specialization",
  "permission": {
    "default": 0
  },
  "type": "feat",
  "data": {
    "description": {
      "value": "<p>At 1st level, a vigilante must choose to be either an avenger or a stalker.<br><br>An <strong>avenger</strong> gains a base attack bonus equal to his vigilante level instead of using those listed on Table 1–1. He adds this value to any other base attack bonus gained from other classes or racial Hit Dice as normal.<br><br>A <strong>stalker</strong> gains an ability called hidden strike, which allows him to deal an extra 1d8 points of precision damage on melee attacks (or ranged attacks from within 30 feet) against foes who are unaware of his presence, who consider him an ally, or who are made flat-footed by startling appearance (see page 17). This extra damage increases by 1d8 at 3rd level and every 2 vigilante levels thereafter. A stalker vigilante can also deal hidden strike damage to a target that he is flanking or that is denied its Dexterity bonus to AC, but in these cases, the damage dice are reduced to d4s. A stalker can deal hidden strike damage against targets with concealment (but not total concealment).<br><br>Once this choice is made, it can’t be changed. While many vigilante talents are usable by both specializations, some are unique to each specialization. A stalker vigilante can apply only one talent marked with an asterisk (*) to a given hidden strike, and only when that hidden strike is dealt against a foe that is unaware of the stalker vigilante’s presence (or who considers him an ally), unless otherwise noted.</p>",
      "chat": "",
      "unidentified": ""
    },
    "tags": [],
    "activation": {
      "cost": 1,
      "type": "passive"
    },
    "unchainedAction": {
      "activation": {
        "cost": 1,
        "type": "passive"
      }
    },
    "duration": {
      "value": null,
      "units": ""
    },
    "target": {
      "value": ""
    },
    "range": {
      "value": null,
      "units": "",
      "maxIncrements": 1,
      "minValue": null,
      "minUnits": "",
      "long": null
    },
    "uses": {
      "value": 0,
      "max": 0,
      "per": "",
      "autoDeductCharges": true,
      "autoDeductChargesCost": "1"
    },
    "measureTemplate": {
      "type": "",
      "size": "0",
      "overrideColor": false,
      "customColor": "",
      "overrideTexture": false,
      "customTexture": ""
    },
    "attackName": "",
    "actionType": "",
    "attackBonus": "",
    "critConfirmBonus": "",
    "damage": {
      "parts": [],
      "critParts": [],
      "nonCritParts": []
    },
    "attackParts": [],
    "formula": "",
    "ability": {
      "attack": null,
      "damage": null,
      "damageMult": 1,
      "critRange": 20,
      "critMult": 2
    },
    "save": {
      "dc": 0,
      "type": "",
      "description": ""
    },
    "effectNotes": "",
    "attackNotes": "",
    "soundEffect": "",
    "changes": [],
    "changeFlags": {
      "loseDexToAC": false,
      "noStr": false,
      "noDex": false,
      "oneInt": false,
      "oneWis": false,
      "oneCha": false,
      "noEncumbrance": false,
      "mediumArmorFullSpeed": false,
      "heavyArmorFullSpeed": false
    },
    "contextNotes": [],
    "links": {
      "children": [],
      "charges": []
    },
    "tag": "",
    "useCustomTag": false,
    "armorProf": {
      "value": [],
      "custom": ""
    },
    "weaponProf": {
      "value": [],
      "custom": ""
    },
    "featType": "classFeat",
    "associations": {
      "classes": [
        [
          "Vigilante"
        ]
      ]
    },
    "showInQuickbar": false,
    "nonlethal": false,
    "abilityType": "ex",
    "crOffset": "",
    "attack": {
      "parts": []
    }
  },
  "flags": {},
  "img": "systems/pf1/icons/skills/blue_35.jpg",
  "effects": []
}