{
  "_id": "0J5aAQobmQQIyqds",
  "name": "Vrykolakas",
  "permission": {
    "default": 0
  },
  "type": "npc",
  "data": {
    "abilities": {
      "str": {
        "total": 26,
        "mod": 8,
        "value": 26,
        "carryBonus": 0,
        "carryMultiplier": 1,
        "checkMod": 0,
        "damage": 0,
        "drain": 0,
        "penalty": 0,
        "userPenalty": 0,
        "base": 10,
        "baseMod": 0
      },
      "dex": {
        "total": 19,
        "mod": 4,
        "value": 19,
        "checkMod": 0,
        "damage": 0,
        "drain": 0,
        "penalty": 0,
        "userPenalty": 0,
        "base": 10,
        "baseMod": 0
      },
      "con": {
        "total": 0,
        "mod": -5,
        "value": 0,
        "checkMod": 0,
        "damage": 0,
        "drain": 0,
        "penalty": 0,
        "userPenalty": 0,
        "base": 10,
        "baseMod": 0
      },
      "int": {
        "total": 7,
        "mod": -2,
        "value": 7,
        "checkMod": 0,
        "damage": 0,
        "drain": 0,
        "penalty": 0,
        "userPenalty": 0,
        "base": 10,
        "baseMod": 0
      },
      "wis": {
        "total": 18,
        "mod": 4,
        "value": 18,
        "checkMod": 0,
        "damage": 0,
        "drain": 0,
        "penalty": 0,
        "userPenalty": 0,
        "base": 10,
        "baseMod": 0
      },
      "cha": {
        "total": 23,
        "mod": 6,
        "value": 23,
        "checkMod": 0,
        "damage": 0,
        "drain": 0,
        "penalty": 0,
        "userPenalty": 0,
        "base": 10,
        "baseMod": 0
      }
    },
    "resources": {},
    "attributes": {
      "encumbrance": {
        "level": 0,
        "levels": {
          "light": 306,
          "medium": 613,
          "heavy": 920,
          "carry": 1840,
          "drag": 4600
        },
        "carriedWeight": 0
      },
      "hpAbility": "cha",
      "cmbAbility": "str",
      "hd": {
        "total": 12,
        "max": {
          "_deprecated": true,
          "value": 0
        }
      },
      "naturalAC": 8,
      "ac": {
        "normal": {
          "value": 0,
          "total": 10
        },
        "touch": {
          "value": 0,
          "total": 10
        },
        "flatFooted": {
          "value": 0,
          "total": 10
        }
      },
      "bab": {
        "value": 9,
        "total": 9
      },
      "cmd": {
        "value": "17",
        "total": 10,
        "flatFootedTotal": 10
      },
      "cmb": {
        "value": 32,
        "total": 0
      },
      "sr": {
        "formula": 0,
        "total": 0
      },
      "saveNotes": "",
      "acNotes": "(+4 Dex, +1 dodge, +8 natural)",
      "cmdNotes": "",
      "srNotes": "",
      "attack": {
        "general": 0,
        "shared": 0,
        "melee": 0,
        "ranged": 0,
        "meleeAbility": "str",
        "rangedAbility": "dex"
      },
      "damage": {
        "general": 0,
        "weapon": 0,
        "spell": 0
      },
      "maxDexBonus": null,
      "mDex": {
        "armorBonus": 0,
        "shieldBonus": 0
      },
      "acp": {
        "gear": 0,
        "encumbrance": 0,
        "total": 0,
        "armorBonus": 0,
        "shieldBonus": 0,
        "attackPenalty": 0
      },
      "energyDrain": 0,
      "quadruped": false,
      "savingThrows": {
        "fort": {
          "total": 10,
          "ability": "cha"
        },
        "ref": {
          "total": 10,
          "ability": "dex"
        },
        "will": {
          "total": 12,
          "ability": "wis"
        }
      },
      "hp": {
        "value": 126,
        "max": 0,
        "temp": null,
        "nonlethal": null,
        "min": -100
      },
      "wounds": {
        "min": 0,
        "value": 46,
        "max": 46
      },
      "vigor": {
        "min": 0,
        "value": 54,
        "temp": 0,
        "max": 54
      },
      "woundThresholds": {
        "penalty": 0,
        "mod": 0,
        "level": 0,
        "override": -1
      },
      "init": {
        "value": 0,
        "bonus": 0,
        "total": 0,
        "ability": ""
      },
      "prof": 2,
      "speed": {
        "land": {
          "base": 40,
          "total": 40
        },
        "climb": {
          "base": 20,
          "total": 20
        },
        "swim": {
          "base": 0,
          "total": 0
        },
        "burrow": {
          "base": 0,
          "total": 0
        },
        "fly": {
          "base": 0,
          "total": 0,
          "maneuverability": "average"
        }
      },
      "conditions": {
        "bleed": false,
        "blind": false,
        "confused": false,
        "dazzled": false,
        "deaf": false,
        "entangled": false,
        "fatigued": false,
        "exhausted": false,
        "grappled": false,
        "helpless": false,
        "incorporeal": false,
        "invisible": false,
        "paralyzed": false,
        "pinned": false,
        "prone": false,
        "fear": false,
        "sickened": false,
        "staggered": false,
        "stunned": false
      },
      "spells": {
        "usedSpellbooks": [
          "spelllike"
        ],
        "spellbooks": {
          "primary": {
            "name": "Primary",
            "class": "",
            "cl": {
              "base": 0,
              "value": 0,
              "total": 0,
              "formula": ""
            },
            "concentration": 0,
            "concentrationFormula": "",
            "concentrationNotes": "",
            "clNotes": "",
            "ability": "int",
            "autoSpellLevels": true,
            "arcaneSpellFailure": true,
            "baseDCFormula": "10 + @sl + @ablMod",
            "spontaneous": false,
            "spellPoints": {
              "useSystem": false,
              "value": 0,
              "max": 0,
              "maxFormula": "",
              "restoreFormula": ""
            },
            "spellSlotAbilityBonusFormula": "",
            "domainSlotValue": 1,
            "spells": {
              "spell0": {
                "value": 0,
                "max": 0,
                "base": null
              },
              "spell1": {
                "value": 0,
                "max": 0,
                "base": null
              },
              "spell2": {
                "value": 0,
                "max": 0,
                "base": null
              },
              "spell3": {
                "value": 0,
                "max": 0,
                "base": null
              },
              "spell4": {
                "value": 0,
                "max": 0,
                "base": null
              },
              "spell5": {
                "value": 0,
                "max": 0,
                "base": null
              },
              "spell6": {
                "value": 0,
                "max": 0,
                "base": null
              },
              "spell7": {
                "value": 0,
                "max": 0,
                "base": null
              },
              "spell8": {
                "value": 0,
                "max": 0,
                "base": null
              },
              "spell9": {
                "value": 0,
                "max": 0,
                "base": null
              }
            }
          },
          "secondary": {
            "name": "Secondary",
            "class": "",
            "cl": {
              "base": 0,
              "value": 0,
              "total": 0,
              "formula": ""
            },
            "concentration": 0,
            "concentrationFormula": "",
            "concentrationNotes": "",
            "clNotes": "",
            "ability": "int",
            "autoSpellLevels": true,
            "arcaneSpellFailure": true,
            "baseDCFormula": "10 + @sl + @ablMod",
            "spontaneous": false,
            "spellPoints": {
              "useSystem": false,
              "value": 0,
              "max": 0,
              "maxFormula": "",
              "restoreFormula": ""
            },
            "spellSlotAbilityBonusFormula": "",
            "domainSlotValue": 1,
            "spells": {
              "spell0": {
                "value": 0,
                "max": 0,
                "base": null
              },
              "spell1": {
                "value": 0,
                "max": 0,
                "base": null
              },
              "spell2": {
                "value": 0,
                "max": 0,
                "base": null
              },
              "spell3": {
                "value": 0,
                "max": 0,
                "base": null
              },
              "spell4": {
                "value": 0,
                "max": 0,
                "base": null
              },
              "spell5": {
                "value": 0,
                "max": 0,
                "base": null
              },
              "spell6": {
                "value": 0,
                "max": 0,
                "base": null
              },
              "spell7": {
                "value": 0,
                "max": 0,
                "base": null
              },
              "spell8": {
                "value": 0,
                "max": 0,
                "base": null
              },
              "spell9": {
                "value": 0,
                "max": 0,
                "base": null
              }
            }
          },
          "tertiary": {
            "name": "Tertiary",
            "class": "",
            "cl": {
              "base": 0,
              "value": 0,
              "total": 0,
              "formula": ""
            },
            "concentration": 0,
            "concentrationFormula": "",
            "concentrationNotes": "",
            "clNotes": "",
            "ability": "int",
            "autoSpellLevels": true,
            "arcaneSpellFailure": true,
            "baseDCFormula": "10 + @sl + @ablMod",
            "spontaneous": false,
            "spellPoints": {
              "useSystem": false,
              "value": 0,
              "max": 0,
              "maxFormula": "",
              "restoreFormula": ""
            },
            "spellSlotAbilityBonusFormula": "",
            "domainSlotValue": 1,
            "spells": {
              "spell0": {
                "value": 0,
                "max": 0,
                "base": null
              },
              "spell1": {
                "value": 0,
                "max": 0,
                "base": null
              },
              "spell2": {
                "value": 0,
                "max": 0,
                "base": null
              },
              "spell3": {
                "value": 0,
                "max": 0,
                "base": null
              },
              "spell4": {
                "value": 0,
                "max": 0,
                "base": null
              },
              "spell5": {
                "value": 0,
                "max": 0,
                "base": null
              },
              "spell6": {
                "value": 0,
                "max": 0,
                "base": null
              },
              "spell7": {
                "value": 0,
                "max": 0,
                "base": null
              },
              "spell8": {
                "value": 0,
                "max": 0,
                "base": null
              },
              "spell9": {
                "value": 0,
                "max": 0,
                "base": null
              }
            }
          },
          "spelllike": {
            "name": "Spell-likes",
            "class": "",
            "cl": {
              "base": 0,
              "value": 10,
              "total": 10,
              "formula": "10"
            },
            "concentration": "+16",
            "concentrationFormula": "",
            "concentrationNotes": "",
            "clNotes": "",
            "ability": "cha",
            "autoSpellLevels": true,
            "arcaneSpellFailure": true,
            "baseDCFormula": "10 + @sl + @ablMod",
            "spontaneous": true,
            "spellPoints": {
              "useSystem": false,
              "value": 0,
              "max": 0,
              "maxFormula": "",
              "restoreFormula": ""
            },
            "spellSlotAbilityBonusFormula": "",
            "domainSlotValue": 1,
            "spells": {
              "spell0": {
                "value": 3,
                "max": 3,
                "base": "3"
              },
              "spell1": {
                "value": 0,
                "max": 0,
                "base": null
              },
              "spell2": {
                "value": 0,
                "max": 0,
                "base": null
              },
              "spell3": {
                "value": 0,
                "max": 0,
                "base": null
              },
              "spell4": {
                "value": 0,
                "max": 0,
                "base": null
              },
              "spell5": {
                "value": 0,
                "max": 0,
                "base": null
              },
              "spell6": {
                "value": 0,
                "max": 0,
                "base": null
              },
              "spell7": {
                "value": 0,
                "max": 0,
                "base": null
              },
              "spell8": {
                "value": 0,
                "max": 0,
                "base": null
              },
              "spell9": {
                "value": 0,
                "max": 0,
                "base": null
              }
            }
          }
        },
        "concentration": {
          "bonus": 0,
          "context": ""
        }
      },
      "spellcasting": {
        "_deprecated": true
      },
      "spelldc": {
        "_deprecated": true
      },
      "spellLevel": 0,
      "cmbNotes": "",
      "mods": {
        "skills": {}
      },
      "creatureType": "humanoid"
    },
    "details": {
      "level": {
        "value": 12,
        "min": 0,
        "max": 40
      },
      "mythicTier": 0,
      "bonusFeatFormula": "",
      "alignment": "ne",
      "biography": {
        "value": "",
        "public": ""
      },
      "notes": {
        "value": "",
        "public": ""
      },
      "bonusSkillRankFormula": "",
      "type": "",
      "environment": "",
      "cr": {
        "base": 10,
        "total": 10
      },
      "xp": {
        "value": "9600"
      }
    },
    "skills": {
      "acr": {
        "value": 0,
        "ability": "dex",
        "rt": false,
        "acp": true,
        "rank": 0,
        "mod": 4,
        "background": false,
        "notes": "",
        "cs": false,
        "changeBonus": 0
      },
      "apr": {
        "value": 0,
        "ability": "int",
        "rt": false,
        "acp": false,
        "rank": 0,
        "mod": -2,
        "background": true,
        "notes": "",
        "cs": false,
        "changeBonus": 0
      },
      "art": {
        "value": 0,
        "ability": "int",
        "rt": false,
        "acp": false,
        "rank": 0,
        "mod": -2,
        "background": true,
        "notes": "",
        "subSkills": {},
        "cs": false,
        "changeBonus": 0
      },
      "blf": {
        "value": 0,
        "ability": "cha",
        "rt": false,
        "acp": false,
        "rank": 0,
        "mod": 6,
        "background": false,
        "notes": "",
        "cs": false,
        "changeBonus": 0
      },
      "clm": {
        "value": 0,
        "ability": "str",
        "rt": false,
        "acp": true,
        "rank": 6,
        "mod": 25,
        "background": false,
        "notes": "",
        "cs": true,
        "changeBonus": 0
      },
      "crf": {
        "value": 0,
        "ability": "int",
        "rt": false,
        "acp": false,
        "rank": 0,
        "mod": -2,
        "background": true,
        "notes": "",
        "subSkills": {},
        "cs": false,
        "changeBonus": 0
      },
      "dip": {
        "value": 0,
        "ability": "cha",
        "rt": false,
        "acp": false,
        "rank": 0,
        "mod": 6,
        "background": false,
        "notes": "",
        "cs": false,
        "changeBonus": 0
      },
      "dev": {
        "value": 0,
        "ability": "dex",
        "rt": true,
        "acp": true,
        "rank": 0,
        "mod": 4,
        "background": false,
        "notes": "",
        "cs": false,
        "changeBonus": 0
      },
      "dis": {
        "value": 0,
        "ability": "cha",
        "rt": false,
        "acp": false,
        "rank": 6,
        "mod": 15,
        "background": false,
        "notes": "(+25 when disguised as former living self)",
        "cs": true,
        "changeBonus": 0
      },
      "esc": {
        "value": 0,
        "ability": "dex",
        "rt": false,
        "acp": true,
        "rank": 0,
        "mod": 4,
        "background": false,
        "notes": "",
        "cs": false,
        "changeBonus": 0
      },
      "fly": {
        "value": 0,
        "ability": "dex",
        "rt": false,
        "acp": true,
        "rank": 0,
        "mod": 4,
        "background": false,
        "notes": "",
        "cs": true,
        "changeBonus": 0
      },
      "han": {
        "value": 0,
        "ability": "cha",
        "rt": true,
        "acp": false,
        "rank": 0,
        "mod": 6,
        "background": true,
        "notes": "",
        "cs": false,
        "changeBonus": 0
      },
      "hea": {
        "value": 0,
        "ability": "wis",
        "rt": false,
        "acp": false,
        "rank": 0,
        "mod": 4,
        "background": false,
        "notes": "",
        "cs": false,
        "changeBonus": 0
      },
      "int": {
        "value": 0,
        "ability": "cha",
        "rt": false,
        "acp": false,
        "rank": 0,
        "mod": 6,
        "background": false,
        "notes": "",
        "cs": true,
        "changeBonus": 0
      },
      "kar": {
        "value": 0,
        "ability": "int",
        "rt": true,
        "acp": false,
        "rank": 0,
        "mod": -2,
        "background": false,
        "notes": "",
        "cs": true,
        "changeBonus": 0
      },
      "kdu": {
        "value": 0,
        "ability": "int",
        "rt": true,
        "acp": false,
        "rank": 0,
        "mod": -2,
        "background": false,
        "notes": "",
        "cs": false,
        "changeBonus": 0
      },
      "ken": {
        "value": 0,
        "ability": "int",
        "rt": true,
        "acp": false,
        "rank": 0,
        "mod": -2,
        "background": true,
        "notes": "",
        "cs": false,
        "changeBonus": 0
      },
      "kge": {
        "value": 0,
        "ability": "int",
        "rt": true,
        "acp": false,
        "rank": 0,
        "mod": -2,
        "background": true,
        "notes": "",
        "cs": false,
        "changeBonus": 0
      },
      "khi": {
        "value": 0,
        "ability": "int",
        "rt": true,
        "acp": false,
        "rank": 0,
        "mod": -2,
        "background": true,
        "notes": "",
        "cs": false,
        "changeBonus": 0
      },
      "klo": {
        "value": 0,
        "ability": "int",
        "rt": true,
        "acp": false,
        "rank": 0,
        "mod": -2,
        "background": false,
        "notes": "",
        "cs": false,
        "changeBonus": 0
      },
      "kna": {
        "value": 0,
        "ability": "int",
        "rt": true,
        "acp": false,
        "rank": 0,
        "mod": -2,
        "background": false,
        "notes": "",
        "cs": false,
        "changeBonus": 0
      },
      "kno": {
        "value": 0,
        "ability": "int",
        "rt": true,
        "acp": false,
        "rank": 0,
        "mod": -2,
        "background": true,
        "notes": "",
        "cs": false,
        "changeBonus": 0
      },
      "kpl": {
        "value": 0,
        "ability": "int",
        "rt": true,
        "acp": false,
        "rank": 0,
        "mod": -2,
        "background": false,
        "notes": "",
        "cs": false,
        "changeBonus": 0
      },
      "kre": {
        "value": 0,
        "ability": "int",
        "rt": true,
        "acp": false,
        "rank": 0,
        "mod": -2,
        "background": false,
        "notes": "",
        "cs": true,
        "changeBonus": 0
      },
      "lin": {
        "value": 0,
        "ability": "int",
        "rt": true,
        "acp": false,
        "rank": 0,
        "mod": -2,
        "background": true,
        "notes": "",
        "cs": false,
        "changeBonus": 0
      },
      "lor": {
        "value": 0,
        "ability": "int",
        "rt": true,
        "acp": false,
        "rank": 0,
        "mod": -2,
        "background": true,
        "notes": "",
        "subSkills": {},
        "cs": false,
        "changeBonus": 0
      },
      "per": {
        "value": 0,
        "ability": "wis",
        "rt": false,
        "acp": false,
        "rank": 6,
        "mod": 13,
        "background": false,
        "notes": "",
        "cs": true,
        "changeBonus": 0
      },
      "prf": {
        "value": 0,
        "ability": "cha",
        "rt": false,
        "acp": false,
        "rank": 0,
        "mod": 6,
        "background": true,
        "notes": "",
        "subSkills": {},
        "cs": false,
        "changeBonus": 0
      },
      "pro": {
        "value": 0,
        "ability": "wis",
        "rt": true,
        "acp": false,
        "rank": 0,
        "mod": 4,
        "background": true,
        "notes": "",
        "subSkills": {},
        "cs": false,
        "changeBonus": 0
      },
      "rid": {
        "value": 0,
        "ability": "dex",
        "rt": false,
        "acp": true,
        "rank": 0,
        "mod": 4,
        "background": false,
        "notes": "",
        "cs": false,
        "changeBonus": 0
      },
      "sen": {
        "value": 0,
        "ability": "wis",
        "rt": false,
        "acp": false,
        "rank": 0,
        "mod": 4,
        "background": false,
        "notes": "",
        "cs": true,
        "changeBonus": 0
      },
      "slt": {
        "value": 0,
        "ability": "dex",
        "rt": true,
        "acp": true,
        "rank": 0,
        "mod": 4,
        "background": true,
        "notes": "",
        "cs": false,
        "changeBonus": 0
      },
      "spl": {
        "value": 0,
        "ability": "int",
        "rt": true,
        "acp": false,
        "rank": 0,
        "mod": -2,
        "background": false,
        "notes": "",
        "cs": true,
        "changeBonus": 0
      },
      "ste": {
        "value": 0,
        "ability": "dex",
        "rt": false,
        "acp": true,
        "rank": 8,
        "mod": 15,
        "background": false,
        "notes": "",
        "cs": true,
        "changeBonus": 0
      },
      "sur": {
        "value": 0,
        "ability": "wis",
        "rt": false,
        "acp": false,
        "rank": 0,
        "mod": 4,
        "background": false,
        "notes": "",
        "cs": false,
        "changeBonus": 0
      },
      "swm": {
        "value": 0,
        "ability": "str",
        "rt": false,
        "acp": true,
        "rank": 0,
        "mod": 8,
        "background": false,
        "notes": "",
        "cs": false,
        "changeBonus": 0
      },
      "umd": {
        "value": 0,
        "ability": "cha",
        "rt": true,
        "acp": false,
        "rank": 0,
        "mod": 6,
        "background": false,
        "notes": "",
        "cs": false,
        "changeBonus": 0
      }
    },
    "customSkills": {},
    "traits": {
      "size": "med",
      "senses": "darkvision 60 ft.; Perception +13",
      "dr": "",
      "eres": "",
      "cres": "",
      "regen": "",
      "fastHealing": "",
      "languages": {
        "value": [
          "common"
        ],
        "custom": ""
      },
      "di": {
        "value": [
          "fire"
        ],
        "custom": ""
      },
      "dv": {
        "value": [
          "fire"
        ],
        "custom": ""
      },
      "ci": {
        "value": [],
        "custom": "undead traits  Weaknesses vulnerable to "
      },
      "perception": {
        "_deprecated": true
      },
      "stature": "tall"
    },
    "currency": {
      "pp": 0,
      "gp": 0,
      "sp": 0,
      "cp": 0
    },
    "altCurrency": {
      "pp": 0,
      "gp": 0,
      "sp": 0,
      "cp": 0
    },
    "classes": {}
  },
  "sort": 100001,
  "flags": {
    "pf1": {}
  },
  "img": "systems/pf1/icons/races/creature-types/undead.png",
  "token": {
    "flags": {
      "pf1": {
        "lowLightVision": false
      }
    },
    "name": "Vrykolakas",
    "displayName": 0,
    "img": "systems/pf1/icons/races/creature-types/undead.png",
    "tint": null,
    "width": 1,
    "height": 1,
    "scale": 1,
    "lockRotation": false,
    "rotation": 0,
    "vision": true,
    "dimSight": 0,
    "brightSight": 60,
    "dimLight": 0,
    "brightLight": 0,
    "sightAngle": 360,
    "lightAngle": 360,
    "lightAlpha": 1,
    "lightAnimation": {
      "speed": 5,
      "intensity": 5
    },
    "actorId": "0J5aAQobmQQIyqds",
    "actorLink": false,
    "disposition": -1,
    "displayBars": 0,
    "bar1": {
      "attribute": "attributes.hp"
    },
    "bar2": {},
    "randomImg": false
  },
  "items": [
    {
      "_id": "NqmTrZXFtygFsrBK",
      "name": "Aura: Pestilent Aura (5 Ft., Dc 22)",
      "type": "feat",
      "data": {
        "description": {
          "value": "<p>sbc | Automatically generated via statblock, check values as needed!</p>",
          "chat": "",
          "unidentified": ""
        },
        "tags": [],
        "activation": {
          "cost": 1,
          "type": "passive"
        },
        "unchainedAction": {
          "activation": {
            "cost": 1,
            "type": "passive"
          }
        },
        "duration": {
          "value": null,
          "units": "perm"
        },
        "target": {
          "value": ""
        },
        "range": {
          "value": "5",
          "units": "ft",
          "maxIncrements": 1,
          "minValue": null,
          "minUnits": "",
          "long": null
        },
        "uses": {
          "value": 0,
          "max": 0,
          "per": null,
          "autoDeductCharges": true,
          "autoDeductChargesCost": "1"
        },
        "measureTemplate": {
          "type": "circle",
          "size": "5",
          "overrideColor": false,
          "customColor": "",
          "overrideTexture": false,
          "customTexture": ""
        },
        "attackName": "",
        "actionType": "",
        "attackBonus": "",
        "critConfirmBonus": "",
        "damage": {
          "parts": [],
          "critParts": [],
          "nonCritParts": []
        },
        "attackParts": [],
        "formula": "",
        "ability": {
          "attack": "",
          "damage": "",
          "damageMult": 1,
          "critRange": 20,
          "critMult": 2
        },
        "save": {
          "dc": "22",
          "type": "",
          "description": ""
        },
        "effectNotes": "",
        "attackNotes": "",
        "soundEffect": "",
        "changes": [],
        "changeFlags": {
          "loseDexToAC": false,
          "noStr": false,
          "noDex": false,
          "oneInt": false,
          "oneWis": false,
          "oneCha": false,
          "noEncumbrance": false,
          "mediumArmorFullSpeed": false,
          "heavyArmorFullSpeed": false
        },
        "contextNotes": [],
        "links": {
          "children": [],
          "charges": []
        },
        "tag": "",
        "useCustomTag": false,
        "armorProf": {
          "value": [],
          "custom": ""
        },
        "weaponProf": {
          "value": [],
          "custom": ""
        },
        "featType": "misc",
        "associations": {
          "classes": []
        },
        "showInQuickbar": false,
        "nonlethal": false,
        "abilityType": "",
        "crOffset": "0",
        "attack": {
          "parts": []
        }
      },
      "sort": 1000000,
      "flags": {},
      "img": "icons/svg/mystery-man.svg",
      "effects": []
    },
    {
      "_id": "y4KM3EvGVbscXQYL",
      "name": "Aura: \n",
      "type": "feat",
      "data": {
        "description": {
          "value": "<p>sbc | Automatically generated via statblock, check values as needed!</p>",
          "chat": "",
          "unidentified": ""
        },
        "tags": [],
        "activation": {
          "cost": 1,
          "type": "passive"
        },
        "unchainedAction": {
          "activation": {
            "cost": 1,
            "type": "passive"
          }
        },
        "duration": {
          "value": null,
          "units": "perm"
        },
        "target": {
          "value": ""
        },
        "range": {
          "value": 0,
          "units": "ft",
          "maxIncrements": 1,
          "minValue": null,
          "minUnits": "",
          "long": null
        },
        "uses": {
          "value": 0,
          "max": 0,
          "per": null,
          "autoDeductCharges": true,
          "autoDeductChargesCost": "1"
        },
        "measureTemplate": {
          "type": "circle",
          "size": "0",
          "overrideColor": false,
          "customColor": "",
          "overrideTexture": false,
          "customTexture": ""
        },
        "attackName": "",
        "actionType": "",
        "attackBonus": "",
        "critConfirmBonus": "",
        "damage": {
          "parts": [],
          "critParts": [],
          "nonCritParts": []
        },
        "attackParts": [],
        "formula": "",
        "ability": {
          "attack": "",
          "damage": "",
          "damageMult": 1,
          "critRange": 20,
          "critMult": 2
        },
        "save": {
          "dc": "",
          "type": "",
          "description": ""
        },
        "effectNotes": "",
        "attackNotes": "",
        "soundEffect": "",
        "changes": [],
        "changeFlags": {
          "loseDexToAC": false,
          "noStr": false,
          "noDex": false,
          "oneInt": false,
          "oneWis": false,
          "oneCha": false,
          "noEncumbrance": false,
          "mediumArmorFullSpeed": false,
          "heavyArmorFullSpeed": false
        },
        "contextNotes": [],
        "links": {
          "children": [],
          "charges": []
        },
        "tag": "",
        "useCustomTag": false,
        "armorProf": {
          "value": [],
          "custom": ""
        },
        "weaponProf": {
          "value": [],
          "custom": ""
        },
        "featType": "misc",
        "associations": {
          "classes": []
        },
        "showInQuickbar": false,
        "nonlethal": false,
        "abilityType": "",
        "crOffset": "0",
        "attack": {
          "parts": []
        }
      },
      "sort": 1000000,
      "flags": {},
      "img": "icons/svg/mystery-man.svg",
      "effects": []
    },
    {
      "_id": "pvIX9Hu0Oi0CpqNm",
      "name": "Undead",
      "type": "class",
      "data": {
        "description": {
          "value": "<p>Undead are once-living creatures animated by spiritual or supernatural forces.</p>\n<h2><span id=\"Features\">Features</span></h2>\n<p>An undead creature has the following features.</p>\n<ul>\n<li>d8 Hit Die.</li>\n<li>Base attack bonus equal to 3/4 total Hit Dice (medium progression).</li>\n<li>Good&nbsp;<a href=\"https://www.d20pfsrd.com/gamemastering/combat#TOC-Will\" rel=\"nofollow\">Will</a>&nbsp;Saves.</li>\n<li>Skill points equal to 4 + Int modifier (minimum 1) per Hit Die. Many undead, however, are mindless and gain no skill points or feats. The following are class skills for undead: <a href=\"https://www.d20pfsrd.com/skills/climb\" rel=\"nofollow\">Climb</a>, <a href=\"https://www.d20pfsrd.com/skills/disguise\" rel=\"nofollow\">Disguise</a>, <a href=\"https://www.d20pfsrd.com/skills/fly\" rel=\"nofollow\">Fly</a>, <a href=\"https://www.d20pfsrd.com/skills/intimidate\" rel=\"nofollow\">Intimidate</a>, <a href=\"https://www.d20pfsrd.com/skills/knowledge\" rel=\"nofollow\">Knowledge</a> (arcane), <a href=\"https://www.d20pfsrd.com/skills/knowledge\" rel=\"nofollow\">Knowledge</a> (religion), <a href=\"https://www.d20pfsrd.com/skills/perception\" rel=\"nofollow\">Perception</a>, <a href=\"https://www.d20pfsrd.com/skills/sense-motive\" rel=\"nofollow\">Sense Motive</a>, <a href=\"https://www.d20pfsrd.com/skills/spellcraft\" rel=\"nofollow\">Spellcraft</a>, and <a href=\"https://www.d20pfsrd.com/skills/stealth\" rel=\"nofollow\">Stealth</a>.</li>\n</ul>\n<h2><span id=\"Traits\">Traits</span></h2>\n<p>An undead creature possesses the following traits (unless otherwise noted in a creature’s entry).</p>\n<ul>\n<li>No Constitution score. Undead use their&nbsp;<a href=\"https://www.d20pfsrd.com/basics-ability-scores/ability-scores/#Charisma_Cha\">Charisma</a>&nbsp;score in place of their Constitution score when calculating hit points,&nbsp;<a href=\"https://www.d20pfsrd.com/gamemastering/combat#TOC-Fortitude\" rel=\"nofollow\">Fortitude</a>&nbsp;saves, and any special ability that relies on Constitution (such as when calculating a breath weapon’s DC).</li>\n<li><a href=\"https://www.d20pfsrd.com/gamemastering/special-abilities#TOC-Darkvision\">Darkvision</a>&nbsp;60 feet.</li>\n<li>Immunity to all mind-affecting effects (charms, compulsions, morale effects, patterns, and phantasms).</li>\n<li>Immunity to death effects, disease, paralysis, poison, sleep effects, and stunning.</li>\n<li>Not subject to nonlethal damage,&nbsp;<a href=\"https://www.d20pfsrd.com/bestiary/rules-for-monsters/universal-monster-rules#TOC-Ability-Damage-and-Drain-Ex-or-Su-\" rel=\"nofollow\">ability drain</a>, or energy drain. Immune to&nbsp;<a href=\"https://www.d20pfsrd.com/bestiary/rules-for-monsters/universal-monster-rules#TOC-Ability-Damage-and-Drain-Ex-or-Su-\" rel=\"nofollow\">damage</a>&nbsp;to its physical ability scores (Constitution, Dexterity, and&nbsp;<a href=\"https://www.d20pfsrd.com/basics-ability-scores/ability-scores#TOC-Strength-Str-\">Strength</a>), as well as to exhaustion and fatigue effects.</li>\n<li>Cannot heal damage on its own if it has no&nbsp;<a href=\"https://www.d20pfsrd.com/basics-ability-scores/ability-scores#TOC-Intelligence-Int-\">Intelligence</a>&nbsp;score, although it can be healed. Negative energy (such as an&nbsp;inflict&nbsp;spell) can heal undead creatures. The fast healing special quality works regardless of the creature’s&nbsp;<a href=\"https://www.d20pfsrd.com/basics-ability-scores/ability-scores#TOC-Intelligence-Int-\">Intelligence</a>&nbsp;score.</li>\n<li>Immunity to any effect that requires a&nbsp;<a href=\"https://www.d20pfsrd.com/gamemastering/combat#TOC-Fortitude\" rel=\"nofollow\">Fortitude</a>&nbsp;save (unless the effect also works on objects or is harmless).</li>\n<li>Not at risk of death from massive damage, but is immediately destroyed when reduced to 0 hit points.</li>\n<li>Not affected by&nbsp;<a href=\"https://www.d20pfsrd.com/magic/all-spells/r/raise-dead\" rel=\"nofollow\">raise dead</a>&nbsp;and&nbsp;<a href=\"https://www.d20pfsrd.com/magic/all-spells/r/reincarnate\" rel=\"nofollow\">reincarnate</a>&nbsp;spells or abilities.&nbsp;Resurrection&nbsp;and&nbsp;<a href=\"https://www.d20pfsrd.com/magic/all-spells/t/true-resurrection\" rel=\"nofollow\">true resurrection</a>&nbsp;can affect undead creatures. These spells turn undead creatures back into the living creatures they were before becoming undead.</li>\n<li>Proficient with its natural weapons, all simple weapons, and any weapons mentioned in its entry.</li>\n<li>Proficient with whatever type of armor (light, medium, or heavy) it is described as wearing, as well as all lighter types. Undead not indicated as wearing armor are not proficient with armor. Undead are proficient with shields if they are proficient with any form of armor.</li>\n<li>Undead do not breathe, eat, or sleep.</li>\n</ul>",
          "chat": "",
          "unidentified": ""
        },
        "tags": [],
        "changes": [],
        "changeFlags": {
          "loseDexToAC": false,
          "noStr": false,
          "noDex": false,
          "oneInt": false,
          "oneWis": false,
          "oneCha": false,
          "noEncumbrance": false,
          "mediumArmorFullSpeed": false,
          "heavyArmorFullSpeed": false
        },
        "links": {
          "children": []
        },
        "tag": "undead",
        "useCustomTag": false,
        "armorProf": {
          "value": [],
          "custom": ""
        },
        "weaponProf": {
          "value": [],
          "custom": ""
        },
        "classType": "racial",
        "levels": 1,
        "level": 12,
        "hd": 8,
        "hp": 54,
        "bab": "med",
        "skillsPerLevel": 4,
        "savingThrows": {
          "fort": {
            "value": "low"
          },
          "ref": {
            "value": "low"
          },
          "will": {
            "value": "high"
          }
        },
        "fc": {
          "hp": {
            "value": 0
          },
          "skill": {
            "value": 0
          },
          "alt": {
            "value": 0
          }
        },
        "classSkills": {
          "acr": false,
          "apr": false,
          "art": false,
          "blf": false,
          "clm": true,
          "crf": false,
          "dip": false,
          "dev": false,
          "dis": true,
          "esc": false,
          "fly": true,
          "han": false,
          "hea": false,
          "int": true,
          "kar": true,
          "kdu": false,
          "ken": false,
          "kge": false,
          "khi": false,
          "klo": false,
          "kna": false,
          "kno": false,
          "kpl": false,
          "kre": true,
          "lin": false,
          "lor": false,
          "per": true,
          "prf": false,
          "pro": false,
          "rid": false,
          "sen": true,
          "slt": false,
          "spl": true,
          "ste": true,
          "sur": false,
          "swm": false,
          "umd": false
        },
        "damage": {
          "parts": []
        },
        "range": {
          "maxIncrements": 1
        }
      },
      "sort": 100000,
      "flags": {},
      "img": "systems/pf1/icons/skills/affliction_07.jpg",
      "effects": []
    },
    {
      "_id": "e4xnmnFlHVeiUpWE",
      "name": "Defensive Ability: channel resistance +4  Immune undead traits  Weaknesses vulnerable to fire",
      "type": "feat",
      "data": {
        "description": {
          "value": "",
          "chat": "",
          "unidentified": ""
        },
        "tags": [],
        "activation": {
          "cost": 1,
          "type": ""
        },
        "unchainedAction": {
          "activation": {
            "cost": 1,
            "type": ""
          }
        },
        "duration": {
          "value": null,
          "units": ""
        },
        "target": {
          "value": ""
        },
        "range": {
          "value": null,
          "units": "",
          "maxIncrements": 1,
          "minValue": null,
          "minUnits": "",
          "long": null
        },
        "uses": {
          "value": 0,
          "max": 0,
          "per": null,
          "autoDeductCharges": true,
          "autoDeductChargesCost": "1"
        },
        "measureTemplate": {
          "type": "",
          "size": "0",
          "overrideColor": false,
          "customColor": "",
          "overrideTexture": false,
          "customTexture": ""
        },
        "attackName": "",
        "actionType": "",
        "attackBonus": "",
        "critConfirmBonus": "",
        "damage": {
          "parts": [],
          "critParts": [],
          "nonCritParts": []
        },
        "attackParts": [],
        "formula": "",
        "ability": {
          "attack": "",
          "damage": "",
          "damageMult": 1,
          "critRange": 20,
          "critMult": 2
        },
        "save": {
          "dc": "",
          "type": "",
          "description": ""
        },
        "effectNotes": "",
        "attackNotes": "",
        "soundEffect": "",
        "changes": [],
        "changeFlags": {
          "loseDexToAC": false,
          "noStr": false,
          "noDex": false,
          "oneInt": false,
          "oneWis": false,
          "oneCha": false,
          "noEncumbrance": false,
          "mediumArmorFullSpeed": false,
          "heavyArmorFullSpeed": false
        },
        "contextNotes": [],
        "links": {
          "children": [],
          "charges": []
        },
        "tag": "",
        "useCustomTag": false,
        "armorProf": {
          "value": [],
          "custom": ""
        },
        "weaponProf": {
          "value": [],
          "custom": ""
        },
        "featType": "misc",
        "associations": {
          "classes": []
        },
        "showInQuickbar": false,
        "nonlethal": false,
        "abilityType": "",
        "crOffset": "0",
        "attack": {
          "parts": []
        }
      },
      "sort": 1000000,
      "flags": {},
      "img": "icons/svg/mystery-man.svg",
      "effects": []
    },
    {
      "_id": "CkEHTWJmtQb4xb1l",
      "name": "bite",
      "type": "attack",
      "data": {
        "description": {
          "value": "",
          "chat": "",
          "unidentified": ""
        },
        "tags": [],
        "activation": {
          "cost": 1,
          "type": "attack"
        },
        "unchainedAction": {
          "activation": {
            "cost": 1,
            "type": "action"
          }
        },
        "duration": {
          "value": null,
          "units": "inst"
        },
        "target": {
          "value": ""
        },
        "range": {
          "value": null,
          "units": "",
          "maxIncrements": 1,
          "minValue": null,
          "minUnits": "",
          "long": null
        },
        "uses": {
          "value": 0,
          "max": 0,
          "per": "",
          "autoDeductCharges": false,
          "autoDeductChargesCost": "1"
        },
        "measureTemplate": {
          "type": "",
          "size": "0",
          "overrideColor": false,
          "customColor": "",
          "overrideTexture": false,
          "customTexture": ""
        },
        "attackName": "",
        "actionType": "mwak",
        "attackBonus": "0",
        "critConfirmBonus": "",
        "damage": {
          "parts": [
            [
              "sizeRoll(1, 6, @size, 4) + 0",
              "B, P and S"
            ]
          ],
          "critParts": [],
          "nonCritParts": []
        },
        "attackParts": [],
        "formula": "",
        "ability": {
          "attack": "str",
          "damage": "str",
          "damageMult": 1,
          "critRange": 20,
          "critMult": 2
        },
        "save": {
          "dc": "0",
          "type": "",
          "description": ""
        },
        "effectNotes": "energy drain",
        "attackNotes": "Reach: 5 ft.\nbite +17 (1d6+8 plus energy drain)",
        "soundEffect": "",
        "links": {
          "children": [],
          "charges": []
        },
        "tag": "",
        "useCustomTag": false,
        "attackType": "natural",
        "masterwork": false,
        "nonlethal": false,
        "enh": null,
        "proficient": true,
        "primaryAttack": true,
        "showInQuickbar": true,
        "broken": false,
        "held": "normal",
        "conditionals": [],
        "attack": {
          "parts": []
        }
      },
      "sort": 200000,
      "flags": {},
      "img": "systems/pf1/icons/items/inventory/monster-head.jpg",
      "effects": []
    },
    {
      "_id": "IKcbXFoIYISqC1V8",
      "name": "Special Attack: Energy Drain",
      "type": "attack",
      "data": {
        "description": {
          "value": "",
          "chat": "",
          "unidentified": ""
        },
        "tags": [],
        "activation": {
          "cost": 1,
          "type": "standard"
        },
        "unchainedAction": {
          "activation": {
            "cost": 2,
            "type": "action"
          }
        },
        "duration": {
          "value": null,
          "units": "inst"
        },
        "target": {
          "value": ""
        },
        "range": {
          "value": null,
          "units": "",
          "maxIncrements": 1,
          "minValue": null,
          "minUnits": "",
          "long": null
        },
        "uses": {
          "value": 0,
          "max": 0,
          "per": "",
          "autoDeductCharges": false,
          "autoDeductChargesCost": "1"
        },
        "measureTemplate": {
          "type": "",
          "size": "0",
          "overrideColor": false,
          "customColor": "",
          "overrideTexture": false,
          "customTexture": ""
        },
        "attackName": "",
        "actionType": "other",
        "attackBonus": "-17",
        "critConfirmBonus": "",
        "damage": {
          "parts": [
            [
              0,
              ""
            ]
          ],
          "critParts": [],
          "nonCritParts": []
        },
        "attackParts": [],
        "formula": "",
        "ability": {
          "attack": "str",
          "damage": "str",
          "damageMult": 1,
          "critRange": 20,
          "critMult": 2
        },
        "save": {
          "dc": "22",
          "type": "ref",
          "description": ""
        },
        "effectNotes": "",
        "attackNotes": "",
        "soundEffect": "",
        "links": {
          "children": [],
          "charges": []
        },
        "tag": "",
        "useCustomTag": false,
        "attackType": "weapon",
        "masterwork": false,
        "nonlethal": false,
        "enh": null,
        "proficient": true,
        "primaryAttack": true,
        "showInQuickbar": true,
        "broken": false,
        "held": "normal",
        "conditionals": [],
        "attack": {
          "parts": []
        }
      },
      "sort": 100000,
      "flags": {},
      "img": "icons/svg/mystery-man.svg",
      "effects": []
    },
    {
      "_id": "gt7HuOdNd3EmfB6n",
      "name": "Special Attack: Rend (2 Claws)",
      "type": "attack",
      "data": {
        "description": {
          "value": "",
          "chat": "",
          "unidentified": ""
        },
        "tags": [],
        "activation": {
          "cost": 1,
          "type": "standard"
        },
        "unchainedAction": {
          "activation": {
            "cost": 2,
            "type": "action"
          }
        },
        "duration": {
          "value": null,
          "units": "inst"
        },
        "target": {
          "value": ""
        },
        "range": {
          "value": null,
          "units": "",
          "maxIncrements": 1,
          "minValue": null,
          "minUnits": "",
          "long": null
        },
        "uses": {
          "value": 0,
          "max": 0,
          "per": "",
          "autoDeductCharges": false,
          "autoDeductChargesCost": "1"
        },
        "measureTemplate": {
          "type": "",
          "size": "0",
          "overrideColor": false,
          "customColor": "",
          "overrideTexture": false,
          "customTexture": ""
        },
        "attackName": "",
        "actionType": "mwak",
        "attackBonus": "-17",
        "critConfirmBonus": "",
        "damage": {
          "parts": [
            [
              "1d6+12",
              ""
            ]
          ],
          "critParts": [],
          "nonCritParts": []
        },
        "attackParts": [
          [
            "0",
            "Attack"
          ]
        ],
        "formula": "",
        "ability": {
          "attack": "str",
          "damage": "str",
          "damageMult": 1,
          "critRange": 20,
          "critMult": 2
        },
        "save": {
          "dc": "",
          "type": "",
          "description": ""
        },
        "effectNotes": "",
        "attackNotes": "",
        "soundEffect": "",
        "links": {
          "children": [],
          "charges": []
        },
        "tag": "",
        "useCustomTag": false,
        "attackType": "weapon",
        "masterwork": false,
        "nonlethal": false,
        "enh": null,
        "proficient": true,
        "primaryAttack": true,
        "showInQuickbar": true,
        "broken": false,
        "held": "normal",
        "conditionals": [],
        "attack": {
          "parts": []
        }
      },
      "sort": 100000,
      "flags": {},
      "img": "icons/svg/mystery-man.svg",
      "effects": []
    },
    {
      "_id": "Tzajba50VXsxmQhm",
      "name": "claws",
      "type": "attack",
      "data": {
        "description": {
          "value": "",
          "chat": "",
          "unidentified": ""
        },
        "tags": [],
        "activation": {
          "cost": 1,
          "type": "attack"
        },
        "unchainedAction": {
          "activation": {
            "cost": 1,
            "type": "action"
          }
        },
        "duration": {
          "value": null,
          "units": "inst"
        },
        "target": {
          "value": ""
        },
        "range": {
          "value": null,
          "units": "",
          "maxIncrements": 1,
          "minValue": null,
          "minUnits": "",
          "long": null
        },
        "uses": {
          "value": 0,
          "max": 0,
          "per": "",
          "autoDeductCharges": false,
          "autoDeductChargesCost": "1"
        },
        "measureTemplate": {
          "type": "",
          "size": "0",
          "overrideColor": false,
          "customColor": "",
          "overrideTexture": false,
          "customTexture": ""
        },
        "attackName": "",
        "actionType": "mwak",
        "attackBonus": "1",
        "critConfirmBonus": "",
        "damage": {
          "parts": [
            [
              "sizeRoll(1, 8, @size, 4) + 0",
              ""
            ]
          ],
          "critParts": [],
          "nonCritParts": []
        },
        "attackParts": [
          [
            "0",
            "Additional Attack: 1"
          ]
        ],
        "formula": "",
        "ability": {
          "attack": "str",
          "damage": "str",
          "damageMult": 1,
          "critRange": 20,
          "critMult": 2
        },
        "save": {
          "dc": "0",
          "type": "",
          "description": ""
        },
        "effectNotes": "",
        "attackNotes": "Reach: 5 ft.\n2 claws +18 (1d8+8)",
        "soundEffect": "",
        "links": {
          "children": [],
          "charges": []
        },
        "tag": "",
        "useCustomTag": false,
        "attackType": "natural",
        "masterwork": false,
        "nonlethal": false,
        "enh": null,
        "proficient": true,
        "primaryAttack": true,
        "showInQuickbar": true,
        "broken": false,
        "held": "normal",
        "conditionals": [],
        "attack": {
          "parts": []
        }
      },
      "sort": 100000,
      "flags": {},
      "img": "systems/pf1/icons/items/inventory/monster-paw-bear.jpg",
      "effects": []
    },
    {
      "_id": "DR8IoZI0jk7WaBhp",
      "name": "Dodge",
      "type": "feat",
      "data": {
        "description": {
          "value": "",
          "chat": "",
          "unidentified": ""
        },
        "tags": [],
        "activation": {
          "cost": 1,
          "type": ""
        },
        "unchainedAction": {
          "activation": {
            "cost": 1,
            "type": ""
          }
        },
        "duration": {
          "value": null,
          "units": ""
        },
        "target": {
          "value": ""
        },
        "range": {
          "value": null,
          "units": "",
          "maxIncrements": 1,
          "minValue": null,
          "minUnits": "",
          "long": null
        },
        "uses": {
          "value": 0,
          "max": 0,
          "per": null,
          "autoDeductCharges": true,
          "autoDeductChargesCost": "1"
        },
        "measureTemplate": {
          "type": "",
          "size": "0",
          "overrideColor": false,
          "customColor": "",
          "overrideTexture": false,
          "customTexture": ""
        },
        "attackName": "",
        "actionType": null,
        "attackBonus": "",
        "critConfirmBonus": "",
        "damage": {
          "parts": [],
          "critParts": [],
          "nonCritParts": []
        },
        "attackParts": [],
        "formula": "",
        "ability": {
          "attack": null,
          "damage": null,
          "damageMult": 1,
          "critRange": 20,
          "critMult": 2
        },
        "save": {
          "dc": 0,
          "type": "",
          "description": ""
        },
        "effectNotes": "",
        "attackNotes": "",
        "soundEffect": "",
        "changes": [],
        "changeFlags": {
          "loseDexToAC": false,
          "noStr": false,
          "noDex": false,
          "oneInt": false,
          "oneWis": false,
          "oneCha": false,
          "noEncumbrance": false,
          "mediumArmorFullSpeed": false,
          "heavyArmorFullSpeed": false
        },
        "contextNotes": [],
        "links": {
          "children": [],
          "charges": []
        },
        "tag": "",
        "useCustomTag": false,
        "armorProf": {
          "value": [],
          "custom": ""
        },
        "weaponProf": {
          "value": [],
          "custom": ""
        },
        "featType": "feat",
        "associations": {
          "classes": []
        },
        "showInQuickbar": false,
        "nonlethal": false,
        "abilityType": "none",
        "crOffset": "",
        "attack": {
          "parts": []
        }
      },
      "sort": 100000,
      "flags": {},
      "img": "icons/svg/mystery-man.svg",
      "effects": []
    },
    {
      "_id": "YTnLXVrNGvuZNuxD",
      "name": "Improved Initiative",
      "type": "feat",
      "data": {
        "description": {
          "value": "",
          "chat": "",
          "unidentified": ""
        },
        "tags": [],
        "activation": {
          "cost": 1,
          "type": ""
        },
        "unchainedAction": {
          "activation": {
            "cost": 1,
            "type": ""
          }
        },
        "duration": {
          "value": null,
          "units": ""
        },
        "target": {
          "value": ""
        },
        "range": {
          "value": null,
          "units": "",
          "maxIncrements": 1,
          "minValue": null,
          "minUnits": "",
          "long": null
        },
        "uses": {
          "value": 0,
          "max": 0,
          "per": null,
          "autoDeductCharges": true,
          "autoDeductChargesCost": "1"
        },
        "measureTemplate": {
          "type": "",
          "size": "0",
          "overrideColor": false,
          "customColor": "",
          "overrideTexture": false,
          "customTexture": ""
        },
        "attackName": "",
        "actionType": null,
        "attackBonus": "",
        "critConfirmBonus": "",
        "damage": {
          "parts": [],
          "critParts": [],
          "nonCritParts": []
        },
        "attackParts": [],
        "formula": "",
        "ability": {
          "attack": null,
          "damage": null,
          "damageMult": 1,
          "critRange": 20,
          "critMult": 2
        },
        "save": {
          "dc": 0,
          "type": "",
          "description": ""
        },
        "effectNotes": "",
        "attackNotes": "",
        "soundEffect": "",
        "changes": [],
        "changeFlags": {
          "loseDexToAC": false,
          "noStr": false,
          "noDex": false,
          "oneInt": false,
          "oneWis": false,
          "oneCha": false,
          "noEncumbrance": false,
          "mediumArmorFullSpeed": false,
          "heavyArmorFullSpeed": false
        },
        "contextNotes": [],
        "links": {
          "children": [],
          "charges": []
        },
        "tag": "",
        "useCustomTag": false,
        "armorProf": {
          "value": [],
          "custom": ""
        },
        "weaponProf": {
          "value": [],
          "custom": ""
        },
        "featType": "feat",
        "associations": {
          "classes": []
        },
        "showInQuickbar": false,
        "nonlethal": false,
        "abilityType": "none",
        "crOffset": "",
        "attack": {
          "parts": []
        }
      },
      "sort": 100000,
      "flags": {},
      "img": "icons/svg/mystery-man.svg",
      "effects": []
    },
    {
      "_id": "YriH1yCcDXjX9HfV",
      "name": "Lightning Reflexes",
      "type": "feat",
      "data": {
        "description": {
          "value": "",
          "chat": "",
          "unidentified": ""
        },
        "tags": [],
        "activation": {
          "cost": 1,
          "type": ""
        },
        "unchainedAction": {
          "activation": {
            "cost": 1,
            "type": ""
          }
        },
        "duration": {
          "value": null,
          "units": ""
        },
        "target": {
          "value": ""
        },
        "range": {
          "value": null,
          "units": "",
          "maxIncrements": 1,
          "minValue": null,
          "minUnits": "",
          "long": null
        },
        "uses": {
          "value": 0,
          "max": 0,
          "per": null,
          "autoDeductCharges": true,
          "autoDeductChargesCost": "1"
        },
        "measureTemplate": {
          "type": "",
          "size": "0",
          "overrideColor": false,
          "customColor": "",
          "overrideTexture": false,
          "customTexture": ""
        },
        "attackName": "",
        "actionType": null,
        "attackBonus": "",
        "critConfirmBonus": "",
        "damage": {
          "parts": [],
          "critParts": [],
          "nonCritParts": []
        },
        "attackParts": [],
        "formula": "",
        "ability": {
          "attack": null,
          "damage": null,
          "damageMult": 1,
          "critRange": 20,
          "critMult": 2
        },
        "save": {
          "dc": 0,
          "type": "",
          "description": ""
        },
        "effectNotes": "",
        "attackNotes": "",
        "soundEffect": "",
        "changes": [],
        "changeFlags": {
          "loseDexToAC": false,
          "noStr": false,
          "noDex": false,
          "oneInt": false,
          "oneWis": false,
          "oneCha": false,
          "noEncumbrance": false,
          "mediumArmorFullSpeed": false,
          "heavyArmorFullSpeed": false
        },
        "contextNotes": [],
        "links": {
          "children": [],
          "charges": []
        },
        "tag": "",
        "useCustomTag": false,
        "armorProf": {
          "value": [],
          "custom": ""
        },
        "weaponProf": {
          "value": [],
          "custom": ""
        },
        "featType": "feat",
        "associations": {
          "classes": []
        },
        "showInQuickbar": false,
        "nonlethal": false,
        "abilityType": "none",
        "crOffset": "",
        "attack": {
          "parts": []
        }
      },
      "sort": 100000,
      "flags": {},
      "img": "icons/svg/mystery-man.svg",
      "effects": []
    },
    {
      "_id": "DK3CFzotJQrcs88s",
      "name": "Mobility",
      "type": "feat",
      "data": {
        "description": {
          "value": "",
          "chat": "",
          "unidentified": ""
        },
        "tags": [],
        "activation": {
          "cost": 1,
          "type": ""
        },
        "unchainedAction": {
          "activation": {
            "cost": 1,
            "type": ""
          }
        },
        "duration": {
          "value": null,
          "units": ""
        },
        "target": {
          "value": ""
        },
        "range": {
          "value": null,
          "units": "",
          "maxIncrements": 1,
          "minValue": null,
          "minUnits": "",
          "long": null
        },
        "uses": {
          "value": 0,
          "max": 0,
          "per": null,
          "autoDeductCharges": true,
          "autoDeductChargesCost": "1"
        },
        "measureTemplate": {
          "type": "",
          "size": "0",
          "overrideColor": false,
          "customColor": "",
          "overrideTexture": false,
          "customTexture": ""
        },
        "attackName": "",
        "actionType": null,
        "attackBonus": "",
        "critConfirmBonus": "",
        "damage": {
          "parts": [],
          "critParts": [],
          "nonCritParts": []
        },
        "attackParts": [],
        "formula": "",
        "ability": {
          "attack": null,
          "damage": null,
          "damageMult": 1,
          "critRange": 20,
          "critMult": 2
        },
        "save": {
          "dc": 0,
          "type": "",
          "description": ""
        },
        "effectNotes": "",
        "attackNotes": "",
        "soundEffect": "",
        "changes": [],
        "changeFlags": {
          "loseDexToAC": false,
          "noStr": false,
          "noDex": false,
          "oneInt": false,
          "oneWis": false,
          "oneCha": false,
          "noEncumbrance": false,
          "mediumArmorFullSpeed": false,
          "heavyArmorFullSpeed": false
        },
        "contextNotes": [],
        "links": {
          "children": [],
          "charges": []
        },
        "tag": "",
        "useCustomTag": false,
        "armorProf": {
          "value": [],
          "custom": ""
        },
        "weaponProf": {
          "value": [],
          "custom": ""
        },
        "featType": "feat",
        "associations": {
          "classes": []
        },
        "showInQuickbar": false,
        "nonlethal": false,
        "abilityType": "none",
        "crOffset": "",
        "attack": {
          "parts": []
        }
      },
      "sort": 100000,
      "flags": {},
      "img": "icons/svg/mystery-man.svg",
      "effects": []
    },
    {
      "_id": "c35UaXiuTdXv0Mco",
      "name": "Stealthy",
      "type": "feat",
      "data": {
        "description": {
          "value": "",
          "chat": "",
          "unidentified": ""
        },
        "tags": [],
        "activation": {
          "cost": 1,
          "type": ""
        },
        "unchainedAction": {
          "activation": {
            "cost": 1,
            "type": ""
          }
        },
        "duration": {
          "value": null,
          "units": ""
        },
        "target": {
          "value": ""
        },
        "range": {
          "value": null,
          "units": "",
          "maxIncrements": 1,
          "minValue": null,
          "minUnits": "",
          "long": null
        },
        "uses": {
          "value": 0,
          "max": 0,
          "per": null,
          "autoDeductCharges": true,
          "autoDeductChargesCost": "1"
        },
        "measureTemplate": {
          "type": "",
          "size": "0",
          "overrideColor": false,
          "customColor": "",
          "overrideTexture": false,
          "customTexture": ""
        },
        "attackName": "",
        "actionType": null,
        "attackBonus": "",
        "critConfirmBonus": "",
        "damage": {
          "parts": [],
          "critParts": [],
          "nonCritParts": []
        },
        "attackParts": [],
        "formula": "",
        "ability": {
          "attack": null,
          "damage": null,
          "damageMult": 1,
          "critRange": 20,
          "critMult": 2
        },
        "save": {
          "dc": 0,
          "type": "",
          "description": ""
        },
        "effectNotes": "",
        "attackNotes": "",
        "soundEffect": "",
        "changes": [],
        "changeFlags": {
          "loseDexToAC": false,
          "noStr": false,
          "noDex": false,
          "oneInt": false,
          "oneWis": false,
          "oneCha": false,
          "noEncumbrance": false,
          "mediumArmorFullSpeed": false,
          "heavyArmorFullSpeed": false
        },
        "contextNotes": [],
        "links": {
          "children": [],
          "charges": []
        },
        "tag": "",
        "useCustomTag": false,
        "armorProf": {
          "value": [],
          "custom": ""
        },
        "weaponProf": {
          "value": [],
          "custom": ""
        },
        "featType": "feat",
        "associations": {
          "classes": []
        },
        "showInQuickbar": false,
        "nonlethal": false,
        "abilityType": "none",
        "crOffset": "",
        "attack": {
          "parts": []
        }
      },
      "sort": 100000,
      "flags": {},
      "img": "icons/svg/mystery-man.svg",
      "effects": []
    },
    {
      "_id": "SOhiezaLhcIciYY6",
      "name": "Weapon Focus (claw) ",
      "type": "feat",
      "data": {
        "description": {
          "value": "",
          "chat": "",
          "unidentified": ""
        },
        "tags": [],
        "activation": {
          "cost": 1,
          "type": ""
        },
        "unchainedAction": {
          "activation": {
            "cost": 1,
            "type": ""
          }
        },
        "duration": {
          "value": null,
          "units": ""
        },
        "target": {
          "value": ""
        },
        "range": {
          "value": null,
          "units": "",
          "maxIncrements": 1,
          "minValue": null,
          "minUnits": "",
          "long": null
        },
        "uses": {
          "value": 0,
          "max": 0,
          "per": null,
          "autoDeductCharges": true,
          "autoDeductChargesCost": "1"
        },
        "measureTemplate": {
          "type": "",
          "size": "0",
          "overrideColor": false,
          "customColor": "",
          "overrideTexture": false,
          "customTexture": ""
        },
        "attackName": "",
        "actionType": null,
        "attackBonus": "",
        "critConfirmBonus": "",
        "damage": {
          "parts": [],
          "critParts": [],
          "nonCritParts": []
        },
        "attackParts": [],
        "formula": "",
        "ability": {
          "attack": null,
          "damage": null,
          "damageMult": 1,
          "critRange": 20,
          "critMult": 2
        },
        "save": {
          "dc": 0,
          "type": "",
          "description": ""
        },
        "effectNotes": "",
        "attackNotes": "",
        "soundEffect": "",
        "changes": [],
        "changeFlags": {
          "loseDexToAC": false,
          "noStr": false,
          "noDex": false,
          "oneInt": false,
          "oneWis": false,
          "oneCha": false,
          "noEncumbrance": false,
          "mediumArmorFullSpeed": false,
          "heavyArmorFullSpeed": false
        },
        "contextNotes": [],
        "links": {
          "children": [],
          "charges": []
        },
        "tag": "",
        "useCustomTag": false,
        "armorProf": {
          "value": [],
          "custom": ""
        },
        "weaponProf": {
          "value": [],
          "custom": ""
        },
        "featType": "feat",
        "associations": {
          "classes": []
        },
        "showInQuickbar": false,
        "nonlethal": false,
        "abilityType": "none",
        "crOffset": "",
        "attack": {
          "parts": []
        }
      },
      "sort": 100000,
      "flags": {},
      "img": "icons/svg/mystery-man.svg",
      "effects": []
    },
    {
      "_id": "yslZfIIWQQZUZlVH",
      "name": "SQ: Change Shape (as Its Previously Living Humanoid Form; Alter Self)",
      "type": "feat",
      "data": {
        "description": {
          "value": "",
          "chat": "",
          "unidentified": ""
        },
        "tags": [],
        "activation": {
          "cost": 1,
          "type": ""
        },
        "unchainedAction": {
          "activation": {
            "cost": 1,
            "type": ""
          }
        },
        "duration": {
          "value": null,
          "units": ""
        },
        "target": {
          "value": ""
        },
        "range": {
          "value": null,
          "units": "",
          "maxIncrements": 1,
          "minValue": null,
          "minUnits": "",
          "long": null
        },
        "uses": {
          "value": 0,
          "max": 0,
          "per": null,
          "autoDeductCharges": true,
          "autoDeductChargesCost": "1"
        },
        "measureTemplate": {
          "type": "",
          "size": "0",
          "overrideColor": false,
          "customColor": "",
          "overrideTexture": false,
          "customTexture": ""
        },
        "attackName": "",
        "actionType": "",
        "attackBonus": "",
        "critConfirmBonus": "",
        "damage": {
          "parts": [],
          "critParts": [],
          "nonCritParts": []
        },
        "attackParts": [],
        "formula": "",
        "ability": {
          "attack": "",
          "damage": "",
          "damageMult": 1,
          "critRange": 20,
          "critMult": 2
        },
        "save": {
          "dc": "",
          "type": "",
          "description": ""
        },
        "effectNotes": "",
        "attackNotes": "",
        "soundEffect": "",
        "changes": [],
        "changeFlags": {
          "loseDexToAC": false,
          "noStr": false,
          "noDex": false,
          "oneInt": false,
          "oneWis": false,
          "oneCha": false,
          "noEncumbrance": false,
          "mediumArmorFullSpeed": false,
          "heavyArmorFullSpeed": false
        },
        "contextNotes": [],
        "links": {
          "children": [],
          "charges": []
        },
        "tag": "",
        "useCustomTag": false,
        "armorProf": {
          "value": [],
          "custom": ""
        },
        "weaponProf": {
          "value": [],
          "custom": ""
        },
        "featType": "misc",
        "associations": {
          "classes": []
        },
        "showInQuickbar": false,
        "nonlethal": false,
        "abilityType": "",
        "crOffset": "0",
        "attack": {
          "parts": []
        }
      },
      "sort": 1000000,
      "flags": {},
      "img": "icons/svg/mystery-man.svg",
      "effects": []
    },
    {
      "_id": "TFqVKZjKu6hzEkrL",
      "name": "SQ: Feral Possession",
      "type": "feat",
      "data": {
        "description": {
          "value": "",
          "chat": "",
          "unidentified": ""
        },
        "tags": [],
        "activation": {
          "cost": 1,
          "type": ""
        },
        "unchainedAction": {
          "activation": {
            "cost": 1,
            "type": ""
          }
        },
        "duration": {
          "value": null,
          "units": ""
        },
        "target": {
          "value": ""
        },
        "range": {
          "value": null,
          "units": "",
          "maxIncrements": 1,
          "minValue": null,
          "minUnits": "",
          "long": null
        },
        "uses": {
          "value": 0,
          "max": 0,
          "per": null,
          "autoDeductCharges": true,
          "autoDeductChargesCost": "1"
        },
        "measureTemplate": {
          "type": "",
          "size": "0",
          "overrideColor": false,
          "customColor": "",
          "overrideTexture": false,
          "customTexture": ""
        },
        "attackName": "",
        "actionType": "",
        "attackBonus": "",
        "critConfirmBonus": "",
        "damage": {
          "parts": [],
          "critParts": [],
          "nonCritParts": []
        },
        "attackParts": [],
        "formula": "",
        "ability": {
          "attack": "",
          "damage": "",
          "damageMult": 1,
          "critRange": 20,
          "critMult": 2
        },
        "save": {
          "dc": "",
          "type": "",
          "description": ""
        },
        "effectNotes": "",
        "attackNotes": "",
        "soundEffect": "",
        "changes": [],
        "changeFlags": {
          "loseDexToAC": false,
          "noStr": false,
          "noDex": false,
          "oneInt": false,
          "oneWis": false,
          "oneCha": false,
          "noEncumbrance": false,
          "mediumArmorFullSpeed": false,
          "heavyArmorFullSpeed": false
        },
        "contextNotes": [],
        "links": {
          "children": [],
          "charges": []
        },
        "tag": "",
        "useCustomTag": false,
        "armorProf": {
          "value": [],
          "custom": ""
        },
        "weaponProf": {
          "value": [],
          "custom": ""
        },
        "featType": "misc",
        "associations": {
          "classes": []
        },
        "showInQuickbar": false,
        "nonlethal": false,
        "abilityType": "",
        "crOffset": "0",
        "attack": {
          "parts": []
        }
      },
      "sort": 1000000,
      "flags": {},
      "img": "icons/svg/mystery-man.svg",
      "effects": []
    },
    {
      "_id": "D5BbjrHwRY3zivDj",
      "name": "sbc | Conversion Changes",
      "type": "buff",
      "data": {
        "description": {
          "value": "<h2>Actor created with Lavaeolous' StatBlock Converter</h2>\n<p>This Buff contains data that could not be represented in other ways. It is advised to re-check the stats in this when adding new features, such as Feats (e.g. Improved Initiative).</p>",
          "chat": "",
          "unidentified": ""
        },
        "tags": [],
        "changes": [
          {
            "_id": "u377ihux",
            "formula": "4",
            "operator": "+",
            "target": "misc",
            "subTarget": "init",
            "modifier": "untyped",
            "priority": 1,
            "value": 0
          },
          {
            "_id": "avt4ck8m",
            "formula": "1",
            "operator": "+",
            "target": "ac",
            "subTarget": "ac",
            "modifier": "dodge",
            "priority": 1,
            "value": 0
          },
          {
            "_id": "53vjivqs",
            "formula": "0",
            "operator": "+",
            "target": "savingThrows",
            "subTarget": "fort",
            "modifier": "untyped",
            "priority": 1,
            "value": 0
          },
          {
            "_id": "mx0xx8or",
            "formula": "2",
            "operator": "+",
            "target": "savingThrows",
            "subTarget": "ref",
            "modifier": "untyped",
            "priority": 1,
            "value": 0
          },
          {
            "_id": "t7f0qrkn",
            "formula": "0",
            "operator": "+",
            "target": "savingThrows",
            "subTarget": "will",
            "modifier": "untyped",
            "priority": 1,
            "value": 0
          }
        ],
        "changeFlags": {
          "loseDexToAC": false,
          "noStr": false,
          "noDex": false,
          "oneInt": false,
          "oneWis": false,
          "oneCha": false,
          "noEncumbrance": false,
          "mediumArmorFullSpeed": false,
          "heavyArmorFullSpeed": false
        },
        "contextNotes": [],
        "links": {
          "children": []
        },
        "tag": "",
        "useCustomTag": false,
        "buffType": "perm",
        "active": true,
        "level": "",
        "hideFromToken": true,
        "damage": {
          "parts": []
        },
        "range": {
          "maxIncrements": 1
        }
      },
      "sort": 100001,
      "flags": {},
      "img": "systems/pf1/icons/skills/yellow_36.jpg",
      "effects": []
    },
    {
      "_id": "pg7dbmuuaksxhp3v",
      "name": "charm animal",
      "type": "spell",
      "data": {
        "description": {
          "value": "<div class=\"spell-description\">\n  <p>\n    <strong>School</strong>&nbsp;enchantment&nbsp;(charm)&nbsp;[mind-affecting];\n    <strong>Level</strong>&nbsp;druid 1, hunter 1, psychic 1, ranger 1, shaman 1;\n    \n    \n    \n    <strong>Bloodline</strong>&nbsp;Pestilence 1;\n  </p>\n  <p>\n    <strong>Casting Time</strong>&nbsp;1 standard action<br>\n    <strong>Components</strong>&nbsp;V, S<br>\n  </p>\n  <p>\n    <strong>Range</strong>&nbsp;close (25 ft. + 5 ft./2 levels)<br>\n    \n    <strong>Targets</strong>&nbsp;one animal<br>\n    \n    <strong>Duration</strong>&nbsp;1 hour/level<br>\n    <strong>Saving Throw</strong>&nbsp;Will negates;&nbsp;<strong>Spell Resistance</strong>&nbsp;yes<br>\n  </p>\n  <h2>Description</h2>\n  <p>This spell functions like <i>charm person</i>, except that it affects a creature of the animal type.</p>\n</div>\n",
          "chat": "",
          "unidentified": ""
        },
        "tags": [],
        "activation": {
          "cost": 1,
          "type": "standard"
        },
        "unchainedAction": {
          "activation": {
            "cost": 2,
            "type": "action"
          }
        },
        "duration": {
          "value": null,
          "units": ""
        },
        "target": {
          "value": "one animal"
        },
        "range": {
          "value": null,
          "units": "close",
          "maxIncrements": 1,
          "minValue": null,
          "minUnits": "",
          "long": null
        },
        "uses": {
          "value": null,
          "max": null,
          "per": null,
          "autoDeductCharges": true,
          "autoDeductChargesCost": "1"
        },
        "measureTemplate": {
          "type": "",
          "size": "0",
          "overrideColor": false,
          "customColor": "",
          "overrideTexture": false,
          "customTexture": ""
        },
        "attackName": "",
        "actionType": "spellsave",
        "attackBonus": "",
        "critConfirmBonus": "",
        "damage": {
          "parts": [],
          "critParts": [],
          "nonCritParts": []
        },
        "attackParts": [],
        "formula": "",
        "ability": {
          "attack": "",
          "damage": "",
          "damageMult": 1,
          "critRange": 20,
          "critMult": 2
        },
        "save": {
          "dc": "0",
          "type": "will",
          "description": "Will negates"
        },
        "effectNotes": "",
        "attackNotes": "",
        "soundEffect": "",
        "links": {
          "children": []
        },
        "learnedAt": {
          "class": [
            [
              "druid",
              1
            ],
            [
              "ranger",
              1
            ],
            [
              "shaman",
              1
            ],
            [
              "psychic",
              1
            ],
            [
              "hunter",
              1
            ]
          ],
          "domain": [],
          "subDomain": [],
          "elementalSchool": [],
          "bloodline": [
            [
              "Pestilence",
              1
            ]
          ]
        },
        "level": "0",
        "clOffset": 0,
        "slOffset": 0,
        "school": "enc",
        "subschool": "charm",
        "types": "mind-affecting",
        "nonlethal": false,
        "conditionals": [],
        "components": {
          "value": "",
          "verbal": true,
          "somatic": true,
          "material": false,
          "focus": false,
          "divineFocus": 0
        },
        "castTime": "",
        "materials": {
          "value": "",
          "focus": "",
          "gpValue": 0
        },
        "spellbook": "spelllike",
        "preparation": {
          "preparedAmount": 3,
          "maxAmount": 3,
          "autoDeductCharges": true,
          "spontaneousPrepared": true,
          "mode": "prepared"
        },
        "atWill": false,
        "sr": true,
        "shortDescription": "<p>This spell functions like <i>charm person</i>, except that it affects a creature of the animal type.</p>",
        "spellDuration": "1 hour/level",
        "spellEffect": "",
        "spellArea": "",
        "showInQuickbar": false,
        "spellPoints": {
          "cost": "1 + @sl"
        },
        "domain": false,
        "slotCost": 1,
        "attack": {
          "parts": []
        }
      },
      "sort": 1100000,
      "flags": {},
      "img": "systems/pf1/icons/misc/magic-swirl.png",
      "effects": []
    },
    {
      "_id": "be88e90guqbi1q1z",
      "name": "fear",
      "type": "spell",
      "data": {
        "description": {
          "value": "<div class=\"spell-description\">\n  <p>\n    <strong>School</strong>&nbsp;necromancy&nbsp;[fear, mind-affecting, emotion];\n    <strong>Level</strong>&nbsp;antipaladin 4, bard 3, bloodrager 4, inquisitor 4, medium 4, mesmerist 3, occultist 4, psychic 4, shaman 4, sorcerer/wizard 4, spiritualist 4, witch 4;\n    \n    <strong>Subdomain</strong>&nbsp;Fear 4;\n    \n    <strong>Bloodline</strong>&nbsp;Draconic 4, Ghoul 4;\n  </p>\n  <p>\n    <strong>Casting Time</strong>&nbsp;1 standard action<br>\n    <strong>Components</strong>&nbsp;V, S, M (the heart of a hen or a white feather)<br>\n  </p>\n  <p>\n    <strong>Range</strong>&nbsp;30 feet<br>\n    <strong>Area</strong>&nbsp;cone-shaped burst<br>\n    \n    \n    <strong>Duration</strong>&nbsp;1 round/level or 1 round; see text<br>\n    <strong>Saving Throw</strong>&nbsp;Will partial;&nbsp;<strong>Spell Resistance</strong>&nbsp;yes<br>\n  </p>\n  <h2>Description</h2>\n  <p>An invisible cone of terror causes each living creature in the area to become panicked unless it succeeds on a Will save. If cornered, a panicked creature begins cowering. If the Will save succeeds, the creature is shaken for 1 round.</p>\n</div>\n",
          "chat": "",
          "unidentified": ""
        },
        "tags": [],
        "activation": {
          "cost": 1,
          "type": "standard"
        },
        "unchainedAction": {
          "activation": {
            "cost": 2,
            "type": "action"
          }
        },
        "duration": {
          "value": null,
          "units": ""
        },
        "target": {
          "value": ""
        },
        "range": {
          "value": 30,
          "units": "ft",
          "maxIncrements": 1,
          "minValue": null,
          "minUnits": ""
        },
        "uses": {
          "value": null,
          "max": null,
          "per": null,
          "autoDeductCharges": true,
          "autoDeductChargesCost": "1"
        },
        "measureTemplate": {
          "type": "",
          "size": "0",
          "overrideColor": false,
          "customColor": "",
          "overrideTexture": false,
          "customTexture": ""
        },
        "attackName": "",
        "actionType": "spellsave",
        "attackBonus": "",
        "critConfirmBonus": "",
        "damage": {
          "parts": [],
          "critParts": [],
          "nonCritParts": []
        },
        "attackParts": [],
        "formula": "",
        "ability": {
          "attack": "",
          "damage": "",
          "damageMult": 1,
          "critRange": 20,
          "critMult": 2
        },
        "save": {
          "dc": "0",
          "type": "will",
          "description": "Will partial"
        },
        "effectNotes": "",
        "attackNotes": "",
        "soundEffect": "",
        "links": {
          "children": []
        },
        "learnedAt": {
          "class": [
            [
              "sorcerer/wizard",
              4
            ],
            [
              "bard",
              3
            ],
            [
              "witch",
              4
            ],
            [
              "inquisitor",
              4
            ],
            [
              "antipaladin",
              4
            ],
            [
              "bloodrager",
              4
            ],
            [
              "shaman",
              4
            ],
            [
              "psychic",
              4
            ],
            [
              "medium",
              4
            ],
            [
              "mesmerist",
              3
            ],
            [
              "occultist",
              4
            ],
            [
              "spiritualist",
              4
            ]
          ],
          "domain": [],
          "subDomain": [
            [
              "Fear",
              4
            ]
          ],
          "elementalSchool": [],
          "bloodline": [
            [
              "Draconic",
              4
            ],
            [
              "Ghoul",
              4
            ]
          ]
        },
        "level": "0",
        "clOffset": 0,
        "slOffset": 0,
        "school": "nec",
        "subschool": "",
        "types": "fear, mind-affecting, emotion",
        "nonlethal": false,
        "conditionals": [],
        "components": {
          "value": "",
          "verbal": true,
          "somatic": true,
          "material": true,
          "focus": false,
          "divineFocus": 0
        },
        "castTime": "",
        "materials": {
          "value": "the heart of a hen or a white feather",
          "focus": "",
          "gpValue": 0
        },
        "spellbook": "spelllike",
        "preparation": {
          "preparedAmount": 3,
          "maxAmount": 3,
          "autoDeductCharges": true,
          "spontaneousPrepared": true,
          "mode": "prepared"
        },
        "atWill": false,
        "sr": true,
        "shortDescription": "<p>An invisible cone of terror causes each living creature in the area to become panicked unless it succeeds on a Will save. If cornered, a panicked creature begins cowering. If the Will save succeeds, the creature is shaken for 1 round.</p>",
        "spellDuration": "1 round/level or 1 round; see text",
        "spellEffect": "",
        "spellArea": "cone-shaped burst",
        "showInQuickbar": false,
        "spellPoints": {
          "cost": "1 + @sl"
        },
        "domain": false,
        "slotCost": 1,
        "attack": {
          "parts": []
        }
      },
      "sort": 1200000,
      "flags": {},
      "img": "systems/pf1/icons/misc/magic-swirl.png",
      "effects": []
    },
    {
      "_id": "3efy1ico48ccrzni",
      "name": "vampiric touch",
      "type": "spell",
      "data": {
        "description": {
          "value": "<div class=\"spell-description\">\n  <p>\n    <strong>School</strong>&nbsp;necromancy;\n    <strong>Level</strong>&nbsp;antipaladin 3, bloodrager 3, magus 3, medium 3, mesmerist 3, psychic 3, sorcerer/wizard 3, spiritualist 3, witch 3;\n    \n    <strong>Subdomain</strong>&nbsp;Blood 3, Daemon 3;\n    \n    <strong>Bloodline</strong>&nbsp;Daemon 3, Ghoul 3, Undead 3;\n  </p>\n  <p>\n    <strong>Casting Time</strong>&nbsp;1 standard action<br>\n    <strong>Components</strong>&nbsp;V, S<br>\n  </p>\n  <p>\n    <strong>Range</strong>&nbsp;touch<br>\n    \n    <strong>Targets</strong>&nbsp;living creature touched<br>\n    \n    <strong>Duration</strong>&nbsp;instantaneous/1 hour; see text<br>\n    <strong>Saving Throw</strong>&nbsp;none;&nbsp;<strong>Spell Resistance</strong>&nbsp;yes<br>\n  </p>\n  <h2>Description</h2>\n  <p>You must succeed on a melee touch attack. Your touch deals 1d6 points of damage per two caster levels (maximum 10d6). You gain temporary hit points equal to the damage you deal. You can't gain more than the subject's current hit points + the subject's Constitution score (which is enough to kill the subject). The temporary hit points disappear 1 hour later.</p>\n</div>\n",
          "chat": "",
          "unidentified": ""
        },
        "tags": [],
        "activation": {
          "cost": 1,
          "type": "standard"
        },
        "unchainedAction": {
          "activation": {
            "cost": 2,
            "type": "action"
          }
        },
        "duration": {
          "value": null,
          "units": ""
        },
        "target": {
          "value": "living creature touched"
        },
        "range": {
          "value": null,
          "units": "touch",
          "maxIncrements": 1,
          "minValue": null,
          "minUnits": "",
          "long": null
        },
        "uses": {
          "value": null,
          "max": null,
          "per": null,
          "autoDeductCharges": true,
          "autoDeductChargesCost": "1"
        },
        "measureTemplate": {
          "type": "",
          "size": "0",
          "overrideColor": false,
          "customColor": "",
          "overrideTexture": false,
          "customTexture": ""
        },
        "attackName": "",
        "actionType": "msak",
        "attackBonus": "",
        "critConfirmBonus": "",
        "damage": {
          "parts": [],
          "critParts": [],
          "nonCritParts": []
        },
        "attackParts": [],
        "formula": "",
        "ability": {
          "attack": "str",
          "damage": "",
          "damageMult": 1,
          "critRange": 20,
          "critMult": 2
        },
        "save": {
          "dc": "0",
          "type": "",
          "description": ""
        },
        "effectNotes": "",
        "attackNotes": "",
        "soundEffect": "",
        "links": {
          "children": []
        },
        "learnedAt": {
          "class": [
            [
              "sorcerer/wizard",
              3
            ],
            [
              "witch",
              3
            ],
            [
              "antipaladin",
              3
            ],
            [
              "magus",
              3
            ],
            [
              "bloodrager",
              3
            ],
            [
              "psychic",
              3
            ],
            [
              "medium",
              3
            ],
            [
              "mesmerist",
              3
            ],
            [
              "spiritualist",
              3
            ]
          ],
          "domain": [],
          "subDomain": [
            [
              "Blood",
              3
            ],
            [
              "Daemon",
              3
            ]
          ],
          "elementalSchool": [],
          "bloodline": [
            [
              "Undead",
              3
            ],
            [
              "Daemon",
              3
            ],
            [
              "Ghoul",
              3
            ]
          ]
        },
        "level": "0",
        "clOffset": 0,
        "slOffset": 0,
        "school": "nec",
        "subschool": "",
        "types": "",
        "nonlethal": false,
        "conditionals": [],
        "components": {
          "value": "",
          "verbal": true,
          "somatic": true,
          "material": false,
          "focus": false,
          "divineFocus": 0
        },
        "castTime": "",
        "materials": {
          "value": "",
          "focus": "",
          "gpValue": 0
        },
        "spellbook": "spelllike",
        "preparation": {
          "preparedAmount": 3,
          "maxAmount": 3,
          "autoDeductCharges": true,
          "spontaneousPrepared": true,
          "mode": "prepared"
        },
        "atWill": false,
        "sr": true,
        "shortDescription": "<p>You must succeed on a melee touch attack. Your touch deals 1d6 points of damage per two caster levels (maximum 10d6). You gain temporary hit points equal to the damage you deal. You can't gain more than the subject's current hit points + the subject's Constitution score (which is enough to kill the subject). The temporary hit points disappear 1 hour later.</p>",
        "spellDuration": "instantaneous/1 hour; see text",
        "spellEffect": "",
        "spellArea": "",
        "showInQuickbar": false,
        "spellPoints": {
          "cost": "1 + @sl"
        },
        "domain": false,
        "slotCost": 1,
        "attack": {
          "parts": []
        }
      },
      "sort": 1300000,
      "flags": {},
      "img": "systems/pf1/icons/misc/magic-swirl.png",
      "effects": []
    }
  ],
  "effects": []
}