{
  "_id": "nxb9l3g2ernrquvv",
  "name": "Anti-Summoning Shield",
  "permission": {
    "default": 0
  },
  "type": "spell",
  "data": {
    "description": {
      "value": "<div class=\"spell-description\">\n  <p>\n    <strong>School</strong>&nbsp;abjuration;\n    <strong>Level</strong>&nbsp;bard 2, inquisitor 3, sorcerer/wizard 2, summoner 2, unchained Summoner 2;\n    \n    \n    \n    \n  </p>\n  <p>\n    <strong>Casting Time</strong>&nbsp;1 standard action<br>\n    <strong>Components</strong>&nbsp;V<br>\n  </p>\n  <p>\n    <strong>Range</strong>&nbsp;medium (100 ft. + 10 ft./level)<br>\n    <strong>Area</strong>&nbsp;50-ft.-radius<br>\n    \n    \n    <strong>Duration</strong>&nbsp;1 minute/level (D)<br>\n    <strong>Saving Throw</strong>&nbsp;Will negates;&nbsp;<strong>Spell Resistance</strong>&nbsp;yes<br>\n  </p>\n  <h2>Description</h2>\n  <p>Within the area of effect, this spell impedes the use of spells of the summoning subschool and other effects that summon creatures. Any such spells, spell-like abilities, or similar summoning effects used within the area have a percent chance of failure equals 5% x your caster level, to a maximum 75% chance of failure. If the summoning effect already has a percent chance of failure (as is often the case with the summon spell-like ability of outsiders), these percentages stack. This spell does not affect summoners attempting to summon their eidolon, but it does affect summoners casting other summoning spells.</p>\n</div>\n",
      "chat": "",
      "unidentified": ""
    },
    "tags": [],
    "activation": {
      "cost": 1,
      "type": "standard"
    },
    "unchainedAction": {
      "activation": {
        "cost": 2,
        "type": "action"
      }
    },
    "duration": {
      "value": null,
      "units": ""
    },
    "target": {
      "value": ""
    },
    "range": {
      "value": null,
      "units": "medium",
      "maxIncrements": 1,
      "minValue": null,
      "minUnits": ""
    },
    "uses": {
      "value": 0,
      "max": 0,
      "per": "",
      "autoDeductCharges": true,
      "autoDeductChargesCost": "1"
    },
    "measureTemplate": {
      "type": "",
      "size": "0",
      "overrideColor": false,
      "customColor": "",
      "overrideTexture": false,
      "customTexture": ""
    },
    "attackName": "",
    "actionType": "spellsave",
    "attackBonus": "",
    "critConfirmBonus": "",
    "damage": {
      "parts": [],
      "critParts": [],
      "nonCritParts": []
    },
    "attackParts": [],
    "formula": "",
    "ability": {
      "attack": "",
      "damage": "",
      "damageMult": 1,
      "critRange": 20,
      "critMult": 2
    },
    "save": {
      "dc": "0",
      "type": "will",
      "description": "Will negates"
    },
    "effectNotes": "",
    "attackNotes": "",
    "soundEffect": "",
    "links": {
      "children": []
    },
    "learnedAt": {
      "class": [
        [
          "sorcerer/wizard",
          2
        ],
        [
          "bard",
          2
        ],
        [
          "summoner",
          2
        ],
        [
          "inquisitor",
          3
        ],
        [
          "unchained Summoner",
          2
        ]
      ],
      "domain": [],
      "subDomain": [],
      "elementalSchool": [],
      "bloodline": []
    },
    "level": 2,
    "clOffset": 0,
    "slOffset": 0,
    "school": "abj",
    "subschool": "",
    "types": "",
    "nonlethal": false,
    "conditionals": [],
    "components": {
      "value": "",
      "verbal": true,
      "somatic": false,
      "material": false,
      "focus": false,
      "divineFocus": 0
    },
    "castTime": "",
    "materials": {
      "value": "",
      "focus": "",
      "gpValue": 0
    },
    "spellbook": "primary",
    "preparation": {
      "preparedAmount": 0,
      "maxAmount": 0,
      "autoDeductCharges": true,
      "spontaneousPrepared": true,
      "mode": "prepared"
    },
    "atWill": false,
    "sr": true,
    "shortDescription": "<p>Within the area of effect, this spell impedes the use of spells of the summoning subschool and other effects that summon creatures. Any such spells, spell-like abilities, or similar summoning effects used within the area have a percent chance of failure equals 5% x your caster level, to a maximum 75% chance of failure. If the summoning effect already has a percent chance of failure (as is often the case with the summon spell-like ability of outsiders), these percentages stack. This spell does not affect summoners attempting to summon their eidolon, but it does affect summoners casting other summoning spells.</p>",
    "spellDuration": "1 minute/level (D)",
    "spellEffect": "",
    "spellArea": "50-ft.-radius",
    "showInQuickbar": false,
    "spellPoints": {
      "cost": "1 + @sl"
    },
    "domain": false,
    "slotCost": 1
  },
  "flags": {},
  "img": "systems/pf1/icons/misc/magic-swirl.png",
  "effects": []
}