{
  "_id": "3r2yhd1pd5v59bir",
  "name": "Aroden's Spellbane",
  "permission": {
    "default": 0
  },
  "type": "spell",
  "data": {
    "description": {
      "value": "<div class=\"spell-description\">\n  <p>\n    <strong>School</strong>&nbsp;abjuration;\n    <strong>Level</strong>&nbsp;sorcerer/wizard 9;\n    \n    \n    \n    \n  </p>\n  <p>\n    <strong>Casting Time</strong>&nbsp;1 standard action<br>\n    <strong>Components</strong>&nbsp;V, S, F (cold iron scepter worth at least 1,000 gp)<br>\n  </p>\n  <p>\n    <strong>Range</strong>&nbsp;10 feet<br>\n    <strong>Area</strong>&nbsp;10-ft.-radius emanation, centered on you<br>\n    \n    \n    <strong>Duration</strong>&nbsp;1 hour/level (D)<br>\n    <strong>Saving Throw</strong>&nbsp;none;&nbsp;<strong>Spell Resistance</strong>&nbsp;no<br>\n  </p>\n  <h2>Description</h2>\n  <p>One of many spells originally created by the Last Azlanti before he became a god, Aroden's <i>spellbane</i> creates an area within which spells selected by you simply do not function.</p><p>Select one spell per five caster levels at the time of casting.</p><p>The spells selected cannot be changed after the spell is cast. Aroden's <i>spellbane</i> otherwise functions like <i>antimagic field</i>, except its emanation only prevents the functioning of the selected spells. Only the exact spells mentioned are affected-a <i>spellbane</i> set to prevent the casting of summon nature's ally II would not prevent castings of summon nature's ally I or summon nature's ally III. If you move into an area where a previously cast spell you have selected as a banned spell is in effect, that spell is affected as if by <i>antimagic field</i>. If the spell affects a summoned creature that has spell resistance, you must make a caster level check against the creature's spell resistance to make it wink out.</p><p>Aroden's <i>spellbane</i> can even negate an <i>antimagic field</i>, another Aroden's <i>spellbane</i>, or any spell that specifies immunity to <i>antimagic field</i> (such as <i>Wall of Force</i>, <i><i>prismatic</i> sphere</i>, and <i>prismatic</i> wall). Multiple <i>spellbane</i> effects can overlap.</p><p>Their effects stack, preventing the functioning of every spell targeted by any of the multiple <i>spellbane</i> emanations. Spell effects created by artifacts or deities cannot be suppressed by Aroden's <i>spellbane</i>.</p>\n</div>\n",
      "chat": "",
      "unidentified": ""
    },
    "tags": [],
    "activation": {
      "cost": 1,
      "type": "standard"
    },
    "unchainedAction": {
      "activation": {
        "cost": 2,
        "type": "action"
      }
    },
    "duration": {
      "value": null,
      "units": ""
    },
    "target": {
      "value": ""
    },
    "range": {
      "value": 10,
      "units": "ft",
      "maxIncrements": 1,
      "minValue": null,
      "minUnits": ""
    },
    "uses": {
      "value": 0,
      "max": 0,
      "per": "",
      "autoDeductCharges": true,
      "autoDeductChargesCost": "1"
    },
    "measureTemplate": {
      "type": "",
      "size": "0",
      "overrideColor": false,
      "customColor": "",
      "overrideTexture": false,
      "customTexture": ""
    },
    "attackName": "",
    "actionType": "",
    "attackBonus": "",
    "critConfirmBonus": "",
    "damage": {
      "parts": [],
      "critParts": [],
      "nonCritParts": []
    },
    "attackParts": [],
    "formula": "",
    "ability": {
      "attack": "",
      "damage": "",
      "damageMult": 1,
      "critRange": 20,
      "critMult": 2
    },
    "save": {
      "dc": "0",
      "type": "",
      "description": ""
    },
    "effectNotes": "",
    "attackNotes": "",
    "soundEffect": "",
    "links": {
      "children": []
    },
    "learnedAt": {
      "class": [
        [
          "sorcerer/wizard",
          9
        ]
      ],
      "domain": [],
      "subDomain": [],
      "elementalSchool": [],
      "bloodline": []
    },
    "level": 9,
    "clOffset": 0,
    "slOffset": 0,
    "school": "abj",
    "subschool": "",
    "types": "",
    "nonlethal": false,
    "conditionals": [],
    "components": {
      "value": "",
      "verbal": true,
      "somatic": true,
      "material": false,
      "focus": true,
      "divineFocus": 0
    },
    "castTime": "",
    "materials": {
      "value": "",
      "focus": "cold iron scepter worth at least 1,000 gp",
      "gpValue": 0
    },
    "spellbook": "primary",
    "preparation": {
      "preparedAmount": 0,
      "maxAmount": 0,
      "autoDeductCharges": true,
      "spontaneousPrepared": true,
      "mode": "prepared"
    },
    "atWill": false,
    "sr": false,
    "shortDescription": "<p>One of many spells originally created by the Last Azlanti before he became a god, Aroden's <i>spellbane</i> creates an area within which spells selected by you simply do not function.</p><p>Select one spell per five caster levels at the time of casting.</p><p>The spells selected cannot be changed after the spell is cast. Aroden's <i>spellbane</i> otherwise functions like <i>antimagic field</i>, except its emanation only prevents the functioning of the selected spells. Only the exact spells mentioned are affected-a <i>spellbane</i> set to prevent the casting of summon nature's ally II would not prevent castings of summon nature's ally I or summon nature's ally III. If you move into an area where a previously cast spell you have selected as a banned spell is in effect, that spell is affected as if by <i>antimagic field</i>. If the spell affects a summoned creature that has spell resistance, you must make a caster level check against the creature's spell resistance to make it wink out.</p><p>Aroden's <i>spellbane</i> can even negate an <i>antimagic field</i>, another Aroden's <i>spellbane</i>, or any spell that specifies immunity to <i>antimagic field</i> (such as <i>Wall of Force</i>, <i><i>prismatic</i> sphere</i>, and <i>prismatic</i> wall). Multiple <i>spellbane</i> effects can overlap.</p><p>Their effects stack, preventing the functioning of every spell targeted by any of the multiple <i>spellbane</i> emanations. Spell effects created by artifacts or deities cannot be suppressed by Aroden's <i>spellbane</i>.</p>",
    "spellDuration": "1 hour/level (D)",
    "spellEffect": "",
    "spellArea": "10-ft.-radius emanation, centered on you",
    "showInQuickbar": false,
    "spellPoints": {
      "cost": "1 + @sl"
    },
    "domain": false,
    "slotCost": 1
  },
  "flags": {},
  "img": "systems/pf1/icons/misc/magic-swirl.png",
  "effects": []
}