{
  "_id": "o8jhvddxgunzx94i",
  "name": "Clashing Rocks",
  "permission": {
    "default": 0
  },
  "type": "spell",
  "data": {
    "description": {
      "value": "<div class=\"spell-description\">\n  <p>\n    <strong>School</strong>&nbsp;conjuration&nbsp;(creation)&nbsp;[earth];\n    <strong>Level</strong>&nbsp;druid 9, sorcerer/wizard 9;\n    <strong>Domain</strong>&nbsp;Ruins 9;\n    \n    \n    \n  </p>\n  <p>\n    <strong>Casting Time</strong>&nbsp;1 standard action<br>\n    <strong>Components</strong>&nbsp;V, S<br>\n  </p>\n  <p>\n    <strong>Range</strong>&nbsp;long (400 ft. + 40 ft./level)<br>\n    \n    \n    <strong>Effect</strong>&nbsp;see text<br>\n    <strong>Duration</strong>&nbsp;instantaneous<br>\n    <strong>Saving Throw</strong>&nbsp;Reflex partial, see text;&nbsp;<strong>Spell Resistance</strong>&nbsp;no<br>\n  </p>\n  <h2>Description</h2>\n  <p>You create two Colossal-sized masses of rock, dirt, and stone and slam them together against a single creature between them. The <i>clashing rocks</i> appear up to 30 feet away from the target on opposite sides and rush toward it with a mighty grinding crash. You must make a ranged touch attack to hit the target with the rocks. The <i>clashing rocks</i> ignore concealment and cover, and if there is a solid barrier between the target and either of the <i>clashing rocks</i>, the spell has a +28 bonus on the Strength check to burst through the barrier and continue unimpeded to the target. A creature struck by the <i>clashing rocks</i> takes 20d6 points of bludgeoning damage and is knocked prone. If the target fails a Reflex saving throw, it is also buried under the resulting rubble as if by a cave-in (see <i>Pathfinder RPG Core Rulebook</i> 415).</p><p>If the <i>clashing rocks</i> miss the target, the target still takes 10d6 points of bludgeoning damage from falling rocks and is knocked prone. A successful Reflex save reduces this damage to half and the target remains standing. Creatures other than the target that occupy the spaces where the <i>clashing rocks</i> appear or within their path (30 feet wide, 30 feet high, and up to 60 feet long) must also make Reflex saves or take 10d6 points of bludgeoning damage and be knocked prone (save for half and remain standing). A creature can only take damage once from the <i>clashing rocks</i>, no matter how many times the <i>clashing rocks</i> pass over a target creature.</p>\n</div>\n",
      "chat": "",
      "unidentified": ""
    },
    "tags": [],
    "activation": {
      "cost": 1,
      "type": "standard"
    },
    "unchainedAction": {
      "activation": {
        "cost": 2,
        "type": "action"
      }
    },
    "duration": {
      "value": null,
      "units": ""
    },
    "target": {
      "value": ""
    },
    "range": {
      "value": null,
      "units": "long",
      "maxIncrements": 1,
      "minValue": null,
      "minUnits": ""
    },
    "uses": {
      "value": 0,
      "max": 0,
      "per": "",
      "autoDeductCharges": true,
      "autoDeductChargesCost": "1"
    },
    "measureTemplate": {
      "type": "",
      "size": "0",
      "overrideColor": false,
      "customColor": "",
      "overrideTexture": false,
      "customTexture": ""
    },
    "attackName": "",
    "actionType": "spellsave",
    "attackBonus": "",
    "critConfirmBonus": "",
    "damage": {
      "parts": [],
      "critParts": [],
      "nonCritParts": []
    },
    "attackParts": [],
    "formula": "",
    "ability": {
      "attack": "",
      "damage": "",
      "damageMult": 1,
      "critRange": 20,
      "critMult": 2
    },
    "save": {
      "dc": "0",
      "type": "ref",
      "description": "Reflex partial, see text"
    },
    "effectNotes": "",
    "attackNotes": "",
    "soundEffect": "",
    "links": {
      "children": []
    },
    "learnedAt": {
      "class": [
        [
          "sorcerer/wizard",
          9
        ],
        [
          "druid",
          9
        ]
      ],
      "domain": [
        [
          "Ruins",
          9
        ]
      ],
      "subDomain": [],
      "elementalSchool": [],
      "bloodline": []
    },
    "level": 9,
    "clOffset": 0,
    "slOffset": 0,
    "school": "con",
    "subschool": "creation",
    "types": "earth",
    "nonlethal": false,
    "conditionals": [],
    "components": {
      "value": "",
      "verbal": true,
      "somatic": true,
      "material": false,
      "focus": false,
      "divineFocus": 0
    },
    "castTime": "",
    "materials": {
      "value": "",
      "focus": "",
      "gpValue": 0
    },
    "spellbook": "primary",
    "preparation": {
      "preparedAmount": 0,
      "maxAmount": 0,
      "autoDeductCharges": true,
      "spontaneousPrepared": true,
      "mode": "prepared"
    },
    "atWill": false,
    "sr": false,
    "shortDescription": "<p>You create two Colossal-sized masses of rock, dirt, and stone and slam them together against a single creature between them. The <i>clashing rocks</i> appear up to 30 feet away from the target on opposite sides and rush toward it with a mighty grinding crash. You must make a ranged touch attack to hit the target with the rocks. The <i>clashing rocks</i> ignore concealment and cover, and if there is a solid barrier between the target and either of the <i>clashing rocks</i>, the spell has a +28 bonus on the Strength check to burst through the barrier and continue unimpeded to the target. A creature struck by the <i>clashing rocks</i> takes 20d6 points of bludgeoning damage and is knocked prone. If the target fails a Reflex saving throw, it is also buried under the resulting rubble as if by a cave-in (see <i>Pathfinder RPG Core Rulebook</i> 415).</p><p>If the <i>clashing rocks</i> miss the target, the target still takes 10d6 points of bludgeoning damage from falling rocks and is knocked prone. A successful Reflex save reduces this damage to half and the target remains standing. Creatures other than the target that occupy the spaces where the <i>clashing rocks</i> appear or within their path (30 feet wide, 30 feet high, and up to 60 feet long) must also make Reflex saves or take 10d6 points of bludgeoning damage and be knocked prone (save for half and remain standing). A creature can only take damage once from the <i>clashing rocks</i>, no matter how many times the <i>clashing rocks</i> pass over a target creature.</p>",
    "spellDuration": "instantaneous",
    "spellEffect": "see text",
    "spellArea": "",
    "showInQuickbar": false,
    "spellPoints": {
      "cost": "1 + @sl"
    },
    "domain": false,
    "slotCost": 1
  },
  "flags": {},
  "img": "systems/pf1/icons/misc/magic-swirl.png",
  "effects": []
}