{
  "_id": "zpav8ywcqwkcuojw",
  "name": "Consecrate",
  "permission": {
    "default": 0
  },
  "type": "spell",
  "data": {
    "description": {
      "value": "<div class=\"spell-description\">\n  <p>\n    <strong>School</strong>&nbsp;evocation&nbsp;[good];\n    <strong>Level</strong>&nbsp;cleric/oracle 2, inquisitor 2;\n    \n    \n    \n    \n  </p>\n  <p>\n    <strong>Casting Time</strong>&nbsp;1 standard action<br>\n    <strong>Components</strong>&nbsp;V, S, M (a vial of holy water and 25 gp worth of silver dust), DF<br>\n  </p>\n  <p>\n    <strong>Range</strong>&nbsp;close (25 ft. + 5 ft./2 levels)<br>\n    <strong>Area</strong>&nbsp;20-ft.-radius emanation<br>\n    \n    \n    <strong>Duration</strong>&nbsp;2 hours/level<br>\n      <strong>Saving Throw</strong>&nbsp;none;&nbsp;\n      <strong>Spell Resistance</strong>&nbsp;no<br>\n  </p>\n  <h2>Description</h2>\n  <p>This spell blesses an area with positive energy. The DC to resist positive channeled energy within this area gains a +3 sacred bonus. Every undead creature entering a <i>consecrate</i>d area suffers minor disruption, suffering a -1 penalty on attack rolls, damage rolls, and saves. Undead cannot be created within or summoned into a <i>consecrate</i>d area. If the <i>consecrate</i>d area contains an altar, shrine, or other permanent fixture dedicated to your deity, pantheon, or aligned higher power, the modifiers given above are doubled (+6 sacred bonus to positive channeled energy DCs, -2 penalties for undead in the area).</p><p>You cannot <i>consecrate</i> an area with a similar fixture of a deity other than your own patron. Instead, the <i>consecrate</i> spell curses the area, cutting off its connection with the associated deity or power.</p><p>This secondary function, if used, does not also grant the bonuses and penalties relating to undead, as given above.</p><p><i>Consecrate</i> counters and dispels <i>desecrate</i>.</p>\n</div>\n",
      "chat": "",
      "unidentified": ""
    },
    "tags": [],
    "activation": {
      "cost": 1,
      "type": "standard"
    },
    "unchainedAction": {
      "activation": {
        "cost": 2,
        "type": "action"
      }
    },
    "duration": {
      "value": null,
      "units": ""
    },
    "target": {
      "value": ""
    },
    "range": {
      "value": null,
      "units": "close",
      "maxIncrements": 1,
      "minValue": null,
      "minUnits": ""
    },
    "uses": {
      "value": 0,
      "max": 0,
      "per": "",
      "autoDeductCharges": true,
      "autoDeductChargesCost": "1"
    },
    "measureTemplate": {
      "type": "",
      "size": "0",
      "overrideColor": false,
      "customColor": "",
      "overrideTexture": false,
      "customTexture": ""
    },
    "attackName": "",
    "actionType": "",
    "attackBonus": "",
    "critConfirmBonus": "",
    "damage": {
      "parts": [],
      "critParts": [],
      "nonCritParts": []
    },
    "attackParts": [],
    "formula": "",
    "ability": {
      "attack": "",
      "damage": "",
      "damageMult": 1,
      "critRange": 20,
      "critMult": 2
    },
    "save": {
      "dc": "0",
      "type": "",
      "description": ""
    },
    "effectNotes": "",
    "attackNotes": "",
    "soundEffect": "",
    "links": {
      "children": []
    },
    "learnedAt": {
      "class": [
        [
          "cleric/oracle",
          2
        ],
        [
          "inquisitor",
          2
        ]
      ],
      "domain": [],
      "subDomain": [],
      "elementalSchool": [],
      "bloodline": []
    },
    "level": 2,
    "clOffset": 0,
    "slOffset": 0,
    "school": "evo",
    "subschool": "",
    "types": "good",
    "nonlethal": false,
    "conditionals": [],
    "components": {
      "value": "",
      "verbal": true,
      "somatic": true,
      "material": true,
      "focus": false,
      "divineFocus": 1
    },
    "castTime": "",
    "materials": {
      "value": "a vial of holy water and 25 gp worth of silver dust",
      "focus": "",
      "gpValue": 50
    },
    "spellbook": "",
    "preparation": {
      "preparedAmount": 0,
      "maxAmount": 0,
      "autoDeductCharges": false,
      "spontaneousPrepared": false,
      "mode": "prepared"
    },
    "atWill": false,
    "sr": false,
    "shortDescription": "<p>This spell blesses an area with positive energy. The DC to resist positive channeled energy within this area gains a +3 sacred bonus. Every undead creature entering a <i>consecrate</i>d area suffers minor disruption, suffering a -1 penalty on attack rolls, damage rolls, and saves. Undead cannot be created within or summoned into a <i>consecrate</i>d area. If the <i>consecrate</i>d area contains an altar, shrine, or other permanent fixture dedicated to your deity, pantheon, or aligned higher power, the modifiers given above are doubled (+6 sacred bonus to positive channeled energy DCs, -2 penalties for undead in the area).</p><p>You cannot <i>consecrate</i> an area with a similar fixture of a deity other than your own patron. Instead, the <i>consecrate</i> spell curses the area, cutting off its connection with the associated deity or power.</p><p>This secondary function, if used, does not also grant the bonuses and penalties relating to undead, as given above.</p><p><i>Consecrate</i> counters and dispels <i>desecrate</i>.</p>",
    "spellDuration": "2 hours/level",
    "spellEffect": "",
    "spellArea": "20-ft.-radius emanation",
    "showInQuickbar": false,
    "spellPoints": {
      "cost": ""
    },
    "domain": false,
    "slotCost": 1
  },
  "flags": {},
  "img": "systems/pf1/icons/misc/magic-swirl.png",
  "effects": []
}