{
  "_id": "sqgioyg3erklerw8",
  "name": "Covetous Aura",
  "permission": {
    "default": 0
  },
  "type": "spell",
  "data": {
    "description": {
      "value": "<div class=\"spell-description\">\n  <p>\n    <strong>School</strong>&nbsp;abjuration;\n    <strong>Level</strong>&nbsp;bard 5, sorcerer/wizard 5;\n    \n    \n    \n    \n  </p>\n  <p>\n    <strong>Casting Time</strong>&nbsp;1 standard action<br>\n    <strong>Components</strong>&nbsp;V, S<br>\n  </p>\n  <p>\n    <strong>Range</strong>&nbsp;personal<br>\n    <strong>Area</strong>&nbsp;25-ft.-radius emanation centered on you<br>\n    \n    \n    <strong>Duration</strong>&nbsp;1 round/level or until discharged<br>\n    \n  </p>\n  <h2>Description</h2>\n  <p>Anytime a harmless (so noted by a spell's saving throw description) spell of 3rd level or lower is cast within a <i>covetous</i> aura's area of effect, you may choose to immediately gain the benefit of that spell as if it had also targeted you. The intended target still gains the effect of the spell. You gain the benefits of this duplicated spell only if the caster is in range of the <i>covetous</i> aura. You are considered the caster of the additional spell effect. If the effect allows for multiple targets other than yourself, you cannot use the stolen spell effect to target other creatures-a <i>covetous</i> aura only aids you. Once you choose to gain the benefit of another spell, the <i>covetous</i> aura immediately ends. Rumors hold that this unusual spell was invented thousands of years ago by Runelord Belimarius, who was constantly jealous of other spellcasters' abilities.</p>\n</div>\n",
      "chat": "",
      "unidentified": ""
    },
    "tags": [],
    "activation": {
      "cost": 1,
      "type": "standard"
    },
    "unchainedAction": {
      "activation": {
        "cost": 2,
        "type": "action"
      }
    },
    "duration": {
      "value": null,
      "units": ""
    },
    "target": {
      "value": ""
    },
    "range": {
      "value": null,
      "units": "personal",
      "maxIncrements": 1,
      "minValue": null,
      "minUnits": ""
    },
    "uses": {
      "value": 0,
      "max": 0,
      "per": "",
      "autoDeductCharges": true,
      "autoDeductChargesCost": "1"
    },
    "measureTemplate": {
      "type": "",
      "size": "0",
      "overrideColor": false,
      "customColor": "",
      "overrideTexture": false,
      "customTexture": ""
    },
    "attackName": "",
    "actionType": "",
    "attackBonus": "",
    "critConfirmBonus": "",
    "damage": {
      "parts": [],
      "critParts": [],
      "nonCritParts": []
    },
    "attackParts": [],
    "formula": "",
    "ability": {
      "attack": "",
      "damage": "",
      "damageMult": 1,
      "critRange": 20,
      "critMult": 2
    },
    "save": {
      "dc": "0",
      "type": "",
      "description": ""
    },
    "effectNotes": "",
    "attackNotes": "",
    "soundEffect": "",
    "links": {
      "children": []
    },
    "learnedAt": {
      "class": [
        [
          "sorcerer/wizard",
          5
        ],
        [
          "bard",
          5
        ]
      ],
      "domain": [],
      "subDomain": [],
      "elementalSchool": [],
      "bloodline": []
    },
    "level": 5,
    "clOffset": 0,
    "slOffset": 0,
    "school": "abj",
    "subschool": "",
    "types": "",
    "nonlethal": false,
    "conditionals": [],
    "components": {
      "value": "",
      "verbal": true,
      "somatic": true,
      "material": false,
      "focus": false,
      "divineFocus": 0
    },
    "castTime": "",
    "materials": {
      "value": "",
      "focus": "",
      "gpValue": 0
    },
    "spellbook": "primary",
    "preparation": {
      "preparedAmount": 0,
      "maxAmount": 0,
      "autoDeductCharges": true,
      "spontaneousPrepared": true,
      "mode": "prepared"
    },
    "atWill": false,
    "sr": false,
    "shortDescription": "<p>Anytime a harmless (so noted by a spell's saving throw description) spell of 3rd level or lower is cast within a <i>covetous</i> aura's area of effect, you may choose to immediately gain the benefit of that spell as if it had also targeted you. The intended target still gains the effect of the spell. You gain the benefits of this duplicated spell only if the caster is in range of the <i>covetous</i> aura. You are considered the caster of the additional spell effect. If the effect allows for multiple targets other than yourself, you cannot use the stolen spell effect to target other creatures-a <i>covetous</i> aura only aids you. Once you choose to gain the benefit of another spell, the <i>covetous</i> aura immediately ends. Rumors hold that this unusual spell was invented thousands of years ago by Runelord Belimarius, who was constantly jealous of other spellcasters' abilities.</p>",
    "spellDuration": "1 round/level or until discharged",
    "spellEffect": "",
    "spellArea": "25-ft.-radius emanation centered on you",
    "showInQuickbar": false,
    "spellPoints": {
      "cost": "1 + @sl"
    },
    "domain": false,
    "slotCost": 1
  },
  "flags": {},
  "img": "systems/pf1/icons/misc/magic-swirl.png",
  "effects": []
}