{
  "_id": "j209j280fyqccq61",
  "name": "Create Greater Undead",
  "permission": {
    "default": 0
  },
  "type": "spell",
  "data": {
    "description": {
      "value": "<div class=\"spell-description\">\n  <p>\n    <strong>School</strong>&nbsp;necromancy&nbsp;[evil];\n    <strong>Level</strong>&nbsp;cleric/oracle 8, shaman 8, sorcerer/wizard 8;\n    <strong>Domain</strong>&nbsp;Death 8;\n    \n    \n    \n  </p>\n  <p>\n    <strong>Casting Time</strong>&nbsp;1 hour<br>\n    <strong>Components</strong>&nbsp;V, S, M (a clay pot filled with grave dirt and an onyx gem worth at least 50 gp per HD of the undead to be created)<br>\n  </p>\n  <p>\n    <strong>Range</strong>&nbsp;close (25 ft. + 5 ft./2 levels)<br>\n    \n    <strong>Targets</strong>&nbsp;one corpse<br>\n    \n    <strong>Duration</strong>&nbsp;instantaneous<br>\n      <strong>Saving Throw</strong>&nbsp;none;&nbsp;\n      <strong>Spell Resistance</strong>&nbsp;no<br>\n  </p>\n  <h2>Description</h2>\n  <p>This spell functions like @Compendium[pf1.spells.c1e7f0ct04k270wy]{create undead}, except that you can create more powerful and intelligent sorts of undead: shadows, wraiths, spectres, and devourers. The type or types of undead created is based on caster level, as shown below.</p>\n<table>\n<tbody>\n<tr>\n<th>Caster Level</th>\n<th>Undead Created</th>\n</tr>\n<tr>\n<td>15th or lower</td>\n<td>Shadow</td>\n</tr>\n<tr>\n<td>16th-17th</td>\n<td>Wraith</td>\n</tr>\n<tr>\n<td>18th-19th</td>\n<td>Spectre</td>\n</tr>\n<tr>\n<td>20th or higher</td>\n<td>Devourer</td>\n</tr>\n</tbody>\n</table>\n</div>\n",
      "chat": "",
      "unidentified": ""
    },
    "tags": [],
    "activation": {
      "cost": 1,
      "type": "hour"
    },
    "unchainedAction": {
      "activation": {
        "cost": 1,
        "type": "hour"
      }
    },
    "duration": {
      "value": null,
      "units": ""
    },
    "target": {
      "value": "one corpse"
    },
    "range": {
      "value": null,
      "units": "close",
      "maxIncrements": 1,
      "minValue": null,
      "minUnits": ""
    },
    "uses": {
      "value": 0,
      "max": 0,
      "per": "",
      "autoDeductCharges": true,
      "autoDeductChargesCost": "1"
    },
    "measureTemplate": {
      "type": "",
      "size": "0",
      "overrideColor": false,
      "customColor": "",
      "overrideTexture": false,
      "customTexture": ""
    },
    "attackName": "",
    "actionType": "",
    "attackBonus": "",
    "critConfirmBonus": "",
    "damage": {
      "parts": [],
      "critParts": [],
      "nonCritParts": []
    },
    "attackParts": [],
    "formula": "",
    "ability": {
      "attack": "",
      "damage": "",
      "damageMult": 1,
      "critRange": 20,
      "critMult": 2
    },
    "save": {
      "dc": "0",
      "type": "",
      "description": ""
    },
    "effectNotes": "",
    "attackNotes": "",
    "soundEffect": "",
    "links": {
      "children": []
    },
    "learnedAt": {
      "class": [
        [
          "sorcerer/wizard",
          8
        ],
        [
          "cleric/oracle",
          8
        ],
        [
          "shaman",
          8
        ]
      ],
      "domain": [
        [
          "Death",
          8
        ]
      ],
      "subDomain": [],
      "elementalSchool": [],
      "bloodline": []
    },
    "level": 8,
    "clOffset": 0,
    "slOffset": 0,
    "school": "nec",
    "subschool": "",
    "types": "evil",
    "nonlethal": false,
    "conditionals": [],
    "components": {
      "value": "",
      "verbal": true,
      "somatic": true,
      "material": true,
      "focus": false,
      "divineFocus": 0
    },
    "castTime": "",
    "materials": {
      "value": "a clay pot filled with grave dirt and an onyx gem worth at least 50 gp per HD of the undead to be created",
      "focus": "",
      "gpValue": 0
    },
    "spellbook": "",
    "preparation": {
      "preparedAmount": 0,
      "maxAmount": 0,
      "autoDeductCharges": true,
      "spontaneousPrepared": true,
      "mode": "prepared"
    },
    "atWill": false,
    "sr": false,
    "shortDescription": "<p>This spell functions like @Compendium[pf1.spells.c1e7f0ct04k270wy]{create undead}, except that you can create more powerful and intelligent sorts of undead: shadows, wraiths, spectres, and devourers. The type or types of undead created is based on caster level, as shown below.</p>\n<table>\n<tbody>\n<tr>\n<th>Caster Level</th>\n<th>Undead Created</th>\n</tr>\n<tr>\n<td>15th or lower</td>\n<td>Shadow</td>\n</tr>\n<tr>\n<td>16th-17th</td>\n<td>Wraith</td>\n</tr>\n<tr>\n<td>18th-19th</td>\n<td>Spectre</td>\n</tr>\n<tr>\n<td>20th or higher</td>\n<td>Devourer</td>\n</tr>\n</tbody>\n</table>",
    "spellDuration": "instantaneous",
    "spellEffect": "",
    "spellArea": "",
    "showInQuickbar": false,
    "spellPoints": {
      "cost": "1 + @sl"
    },
    "domain": false,
    "slotCost": 1,
    "identifiedName": "Create Greater Undead"
  },
  "flags": {},
  "img": "systems/pf1/icons/misc/magic-swirl.png",
  "effects": []
}