{
  "_id": "j6ndnjrlq5atyom6",
  "name": "Curse of Befouled Fortune",
  "permission": {
    "default": 0
  },
  "type": "spell",
  "data": {
    "description": {
      "value": "<div class=\"spell-description\">\n  <p>\n    <strong>School</strong>&nbsp;necromancy&nbsp;[curse];\n    <strong>Level</strong>&nbsp;antipaladin 3, bloodrager 4, cleric/oracle 3, shaman 3, sorcerer/wizard 4, spiritualist 3, witch 3;\n    \n    \n    \n    \n  </p>\n  <p>\n    <strong>Casting Time</strong>&nbsp;1 standard action<br>\n    <strong>Components</strong>&nbsp;V, S<br>\n  </p>\n  <p>\n    <strong>Range</strong>&nbsp;touch<br>\n    \n    <strong>Targets</strong>&nbsp;creature touched<br>\n    \n    <strong>Duration</strong>&nbsp;permanent<br>\n    <strong>Saving Throw</strong>&nbsp;Will negates;&nbsp;<strong>Spell Resistance</strong>&nbsp;yes<br>\n  </p>\n  <h2>Description</h2>\n  <p>You curse the target, making it incredibly unlucky. While affected by <i>Curse of Befouled Fortune</i>, the target can't receive luck bonuses or benefit from effects that grant it the ability to roll multiple times and take the higher result (like the swashbuckler's charmed life ability). The target also can't choose a die result, such as taking 10 or 20 in lieu of rolling (as per the bard's lore master ability). Finally, the first time each turn the target would succeed at an attack, saving throw, or skill check, it must roll twice and use the worse of the two results.  This curse cannot be dispelled, but it can be removed with a <i>break enchantment</i>, <i>limited <i>wish</i></i>, <i>miracle</i>, <i>remove curse</i>, or <i>wish</i> spell.</p>\n</div>\n",
      "chat": "",
      "unidentified": ""
    },
    "tags": [],
    "activation": {
      "cost": 1,
      "type": "standard"
    },
    "unchainedAction": {
      "activation": {
        "cost": 2,
        "type": "action"
      }
    },
    "duration": {
      "value": null,
      "units": ""
    },
    "target": {
      "value": "creature touched"
    },
    "range": {
      "value": null,
      "units": "touch",
      "maxIncrements": 1,
      "minValue": null,
      "minUnits": ""
    },
    "uses": {
      "value": 0,
      "max": 0,
      "per": "",
      "autoDeductCharges": true,
      "autoDeductChargesCost": "1"
    },
    "measureTemplate": {
      "type": "",
      "size": "0",
      "overrideColor": false,
      "customColor": "",
      "overrideTexture": false,
      "customTexture": ""
    },
    "attackName": "",
    "actionType": "spellsave",
    "attackBonus": "",
    "critConfirmBonus": "",
    "damage": {
      "parts": [],
      "critParts": [],
      "nonCritParts": []
    },
    "attackParts": [],
    "formula": "",
    "ability": {
      "attack": "",
      "damage": "",
      "damageMult": 1,
      "critRange": 20,
      "critMult": 2
    },
    "save": {
      "dc": "0",
      "type": "will",
      "description": "Will negates"
    },
    "effectNotes": "",
    "attackNotes": "",
    "soundEffect": "",
    "links": {
      "children": []
    },
    "learnedAt": {
      "class": [
        [
          "sorcerer/wizard",
          4
        ],
        [
          "cleric/oracle",
          3
        ],
        [
          "witch",
          3
        ],
        [
          "antipaladin",
          3
        ],
        [
          "bloodrager",
          4
        ],
        [
          "shaman",
          3
        ],
        [
          "spiritualist",
          3
        ]
      ],
      "domain": [],
      "subDomain": [],
      "elementalSchool": [],
      "bloodline": []
    },
    "level": 4,
    "clOffset": 0,
    "slOffset": 0,
    "school": "nec",
    "subschool": "",
    "types": "curse",
    "nonlethal": false,
    "conditionals": [],
    "components": {
      "value": "",
      "verbal": true,
      "somatic": true,
      "material": false,
      "focus": false,
      "divineFocus": 0
    },
    "castTime": "",
    "materials": {
      "value": "",
      "focus": "",
      "gpValue": 0
    },
    "spellbook": "primary",
    "preparation": {
      "preparedAmount": 0,
      "maxAmount": 0,
      "autoDeductCharges": true,
      "spontaneousPrepared": true,
      "mode": "prepared"
    },
    "atWill": false,
    "sr": true,
    "shortDescription": "<p>You curse the target, making it incredibly unlucky. While affected by <i>Curse of Befouled Fortune</i>, the target can't receive luck bonuses or benefit from effects that grant it the ability to roll multiple times and take the higher result (like the swashbuckler's charmed life ability). The target also can't choose a die result, such as taking 10 or 20 in lieu of rolling (as per the bard's lore master ability). Finally, the first time each turn the target would succeed at an attack, saving throw, or skill check, it must roll twice and use the worse of the two results.  This curse cannot be dispelled, but it can be removed with a <i>break enchantment</i>, <i>limited <i>wish</i></i>, <i>miracle</i>, <i>remove curse</i>, or <i>wish</i> spell.</p>",
    "spellDuration": "permanent",
    "spellEffect": "",
    "spellArea": "",
    "showInQuickbar": false,
    "spellPoints": {
      "cost": "1 + @sl"
    },
    "domain": false,
    "slotCost": 1
  },
  "flags": {},
  "img": "systems/pf1/icons/misc/magic-swirl.png",
  "effects": []
}