{
  "_id": "21r9ptvsjo99o3yw",
  "name": "Demand",
  "permission": {
    "default": 0
  },
  "type": "spell",
  "data": {
    "description": {
      "value": "<div class=\"spell-description\">\n  <p>\n    <strong>School</strong>&nbsp;enchantment&nbsp;(compulsion)&nbsp;[mind-affecting];\n    <strong>Level</strong>&nbsp;mesmerist 6, psychic 8, sorcerer/wizard 8, witch 8;\n    <strong>Domain</strong>&nbsp;Charm 8, Nobility 8;\n    <strong>Subdomain</strong>&nbsp;Torture 8;\n    \n    \n  </p>\n  <p>\n    <strong>Casting Time</strong>&nbsp;10 minutes<br>\n    <strong>Components</strong>&nbsp;V, S, M/DF (fine copper wire)<br>\n  </p>\n  <p>\n    \n    \n    <strong>Targets</strong>&nbsp;one creature<br>\n    \n    <strong>Duration</strong>&nbsp;1 round; see text<br>\n    <strong>Saving Throw</strong>&nbsp;Will partial;&nbsp;<strong>Spell Resistance</strong>&nbsp;yes<br>\n  </p>\n  <h2>Description</h2>\n  <p>This spell functions like <i>sending</i>, but the message can also contain a <i>suggestion</i> (see the <i>suggestion</i> spell), which the subject does its best to carry out. A successful Will save negates the <i>suggestion</i> effect but not the contact itself. The <i>demand</i>, if received, is understood even if the subject's Intelligence score is as low as 1. If the message is impossible or meaningless according to the circumstances that exist for the subject at the time the <i>demand</i> is issued, the message is understood but the <i>suggestion</i> is ineffective.</p><p>The <i>demand's</i> message to the creature must be 25 words or less, including the <i>suggestion</i>. The creature can also give a short reply immediately.</p>\n</div>\n",
      "chat": "",
      "unidentified": ""
    },
    "tags": [],
    "activation": {
      "cost": 10,
      "type": "minute"
    },
    "unchainedAction": {
      "activation": {
        "cost": 10,
        "type": "minute"
      }
    },
    "duration": {
      "value": null,
      "units": ""
    },
    "target": {
      "value": "one creature"
    },
    "range": {
      "value": null,
      "units": "",
      "maxIncrements": 1,
      "minValue": null,
      "minUnits": ""
    },
    "uses": {
      "value": 0,
      "max": 0,
      "per": "",
      "autoDeductCharges": true,
      "autoDeductChargesCost": "1"
    },
    "measureTemplate": {
      "type": "",
      "size": "0",
      "overrideColor": false,
      "customColor": "",
      "overrideTexture": false,
      "customTexture": ""
    },
    "attackName": "",
    "actionType": "spellsave",
    "attackBonus": "",
    "critConfirmBonus": "",
    "damage": {
      "parts": [],
      "critParts": [],
      "nonCritParts": []
    },
    "attackParts": [],
    "formula": "",
    "ability": {
      "attack": "",
      "damage": "",
      "damageMult": 1,
      "critRange": 20,
      "critMult": 2
    },
    "save": {
      "dc": "0",
      "type": "will",
      "description": "Will partial"
    },
    "effectNotes": "",
    "attackNotes": "",
    "soundEffect": "",
    "links": {
      "children": []
    },
    "learnedAt": {
      "class": [
        [
          "sorcerer/wizard",
          8
        ],
        [
          "witch",
          8
        ],
        [
          "psychic",
          8
        ],
        [
          "mesmerist",
          6
        ]
      ],
      "domain": [
        [
          "Charm",
          8
        ],
        [
          "Nobility",
          8
        ]
      ],
      "subDomain": [
        [
          "Torture",
          8
        ]
      ],
      "elementalSchool": [],
      "bloodline": []
    },
    "level": 8,
    "clOffset": 0,
    "slOffset": 0,
    "school": "enc",
    "subschool": "compulsion",
    "types": "mind-affecting",
    "nonlethal": false,
    "conditionals": [],
    "components": {
      "value": "",
      "verbal": true,
      "somatic": true,
      "material": true,
      "focus": false,
      "divineFocus": 2
    },
    "castTime": "",
    "materials": {
      "value": "fine copper wire",
      "focus": "",
      "gpValue": 0
    },
    "spellbook": "primary",
    "preparation": {
      "preparedAmount": 0,
      "maxAmount": 0,
      "autoDeductCharges": true,
      "spontaneousPrepared": true,
      "mode": "prepared"
    },
    "atWill": false,
    "sr": true,
    "shortDescription": "<p>This spell functions like <i>sending</i>, but the message can also contain a <i>suggestion</i> (see the <i>suggestion</i> spell), which the subject does its best to carry out. A successful Will save negates the <i>suggestion</i> effect but not the contact itself. The <i>demand</i>, if received, is understood even if the subject's Intelligence score is as low as 1. If the message is impossible or meaningless according to the circumstances that exist for the subject at the time the <i>demand</i> is issued, the message is understood but the <i>suggestion</i> is ineffective.</p><p>The <i>demand's</i> message to the creature must be 25 words or less, including the <i>suggestion</i>. The creature can also give a short reply immediately.</p>",
    "spellDuration": "1 round; see text",
    "spellEffect": "",
    "spellArea": "",
    "showInQuickbar": false,
    "spellPoints": {
      "cost": "1 + @sl"
    },
    "domain": false,
    "slotCost": 1
  },
  "flags": {},
  "img": "systems/pf1/icons/misc/magic-swirl.png",
  "effects": []
}