{
  "_id": "55msrqr7s83d02s8",
  "name": "Devil Snare",
  "permission": {
    "default": 0
  },
  "type": "spell",
  "data": {
    "description": {
      "value": "<div class=\"spell-description\">\n  <p>\n    <strong>School</strong>&nbsp;abjuration&nbsp;[good];\n    <strong>Level</strong>&nbsp;cleric/oracle 4, sorcerer/wizard 5;\n    \n    \n    \n    \n  </p>\n  <p>\n    <strong>Casting Time</strong>&nbsp;1 full-round action<br>\n    <strong>Components</strong>&nbsp;V, S, M (a pouch of silvered powder worth 25 gp)<br>\n  </p>\n  <p>\n    <strong>Range</strong>&nbsp;touch<br>\n    \n    \n    <strong>Effect</strong>&nbsp;10-ft.-radius circle<br>\n    <strong>Duration</strong>&nbsp;1 round/level<br>\n      <strong>Saving Throw</strong>&nbsp;Will negates; see text;&nbsp;\n      <strong>Spell Resistance</strong>&nbsp;yes<br>\n  </p>\n  <h2>Description</h2>\n  <p>Your touch creates an invisible circle on a flat surface. Any outsider passing through this circle must succeed at a Will save or be caught within. Once trapped, a creature must succeed at a Will save as a standard action to physically exit the confines of the circle, teleport, or use any form of extra<i>dimensional</i> travel (as per <i>dimensional</i> anchor). Contained outsiders can still attack adjacent creatures outside of the circle, or target others with ranged attacks, spells, and spell-like abilities. Despite the spell's name, <i>devil snare</i> captures outsiders of any type, not only devils.  As a standard action, you can dismiss the circle, expelling any outsiders still trapped within to their planes of origin (as per dismissal). An outsider can resist this effect with a successful Will save, enabling it to remain after the spell is dismissed.</p>\n</div>\n",
      "chat": "",
      "unidentified": ""
    },
    "tags": [],
    "activation": {
      "cost": 1,
      "type": "full"
    },
    "unchainedAction": {
      "activation": {
        "cost": 3,
        "type": "action"
      }
    },
    "duration": {
      "value": null,
      "units": ""
    },
    "target": {
      "value": ""
    },
    "range": {
      "value": null,
      "units": "touch",
      "maxIncrements": 1,
      "minValue": null,
      "minUnits": ""
    },
    "uses": {
      "value": 0,
      "max": 0,
      "per": "",
      "autoDeductCharges": true,
      "autoDeductChargesCost": "1"
    },
    "measureTemplate": {
      "type": "",
      "size": "0",
      "overrideColor": false,
      "customColor": "",
      "overrideTexture": false,
      "customTexture": ""
    },
    "attackName": "",
    "actionType": "spellsave",
    "attackBonus": "",
    "critConfirmBonus": "",
    "damage": {
      "parts": [],
      "critParts": [],
      "nonCritParts": []
    },
    "attackParts": [],
    "formula": "",
    "ability": {
      "attack": "",
      "damage": "",
      "damageMult": 1,
      "critRange": 20,
      "critMult": 2
    },
    "save": {
      "dc": "0",
      "type": "will",
      "description": "Will negates; see text"
    },
    "effectNotes": "",
    "attackNotes": "",
    "soundEffect": "",
    "links": {
      "children": []
    },
    "learnedAt": {
      "class": [
        [
          "sorcerer/wizard",
          5
        ],
        [
          "cleric/oracle",
          4
        ]
      ],
      "domain": [],
      "subDomain": [],
      "elementalSchool": [],
      "bloodline": []
    },
    "level": 5,
    "clOffset": 0,
    "slOffset": 0,
    "school": "abj",
    "subschool": "",
    "types": "good",
    "nonlethal": false,
    "conditionals": [],
    "components": {
      "value": "",
      "verbal": true,
      "somatic": true,
      "material": true,
      "focus": false,
      "divineFocus": 0
    },
    "castTime": "",
    "materials": {
      "value": "a pouch of silvered powder worth 25 gp",
      "focus": "",
      "gpValue": 25
    },
    "spellbook": "",
    "preparation": {
      "preparedAmount": 0,
      "maxAmount": 0,
      "autoDeductCharges": false,
      "spontaneousPrepared": false,
      "mode": "prepared"
    },
    "atWill": false,
    "sr": true,
    "shortDescription": "<p>Your touch creates an invisible circle on a flat surface. Any outsider passing through this circle must succeed at a Will save or be caught within. Once trapped, a creature must succeed at a Will save as a standard action to physically exit the confines of the circle, teleport, or use any form of extra<i>dimensional</i> travel (as per <i>dimensional</i> anchor). Contained outsiders can still attack adjacent creatures outside of the circle, or target others with ranged attacks, spells, and spell-like abilities. Despite the spell's name, <i>devil snare</i> captures outsiders of any type, not only devils.  As a standard action, you can dismiss the circle, expelling any outsiders still trapped within to their planes of origin (as per dismissal). An outsider can resist this effect with a successful Will save, enabling it to remain after the spell is dismissed.</p>",
    "spellDuration": "1 round/level",
    "spellEffect": "10-ft.-radius circle",
    "spellArea": "",
    "showInQuickbar": false,
    "spellPoints": {
      "cost": ""
    },
    "domain": false,
    "slotCost": 1
  },
  "flags": {},
  "img": "systems/pf1/icons/misc/magic-swirl.png",
  "effects": []
}