{
  "_id": "zi1fpl4essgw5bbc",
  "name": "Divine Vessel",
  "permission": {
    "default": 0
  },
  "type": "spell",
  "data": {
    "description": {
      "value": "<div class=\"spell-description\">\n  <p>\n    <strong>School</strong>&nbsp;transmutation&nbsp;[chaotic, evil, good, or lawful];\n    \n    \n    \n    \n    \n  </p>\n  <p>\n    <strong>Casting Time</strong>&nbsp;1 standard action<br>\n    <strong>Components</strong>&nbsp;V, S<br>\n  </p>\n  <p>\n    <strong>Range</strong>&nbsp;personal<br>\n    \n    <strong>Targets</strong>&nbsp;you<br>\n    \n    <strong>Duration</strong>&nbsp;1 round/level (D)<br>\n    \n  </p>\n  <h2>Description</h2>\n  <p>You accept otherworldly energies into your body and transform.</p><p>Your size increases by one category, your height doubles, and your weight increases by a factor of eight. Your features shift into those of a cold and alien being of logic, a creature of primal chaos, an angelic presence, or a fiendish monster, as chosen by you. You gain a +6 size bonus to Strength and Constitution, a +3 natural armor bonus, darkvision 60 ft., and SR of 12 + your caster level. These modifiers replace the normal modifiers for increasing your size. The size modifier for AC, attacks, CMB, and CMD changes as appropriate for your new size category.</p><p>This spell doesn't change your base speed. Determine space and reach as appropriate for your new size.</p><p>If insufficient room is available for the desired growth, you attain the maximum possible size and may make a Strength check (using your increased Strength) to burst any enclosures in the process (see page 175 of the <i>Core Rulebook</i> for rules on breaking objects). If you fail, you are constrained without harm by the materials enclosing you-the spell cannot crush you by increasing your size.</p><p>All equipment you wear or carry is similarly enlarged by this spell. Melee weapons deal more damage. Other magical properties are not affected by this spell. Any enlarged item that leaves your possession (including a projectile or thrown weapon) instantly returns to its normal size. This means that thrown and projectile weapons deal their normal damage.</p><p>Magical effects that increase size do not stack.</p><p>You gain additional abilities as noted below.</p><p><b>Anarchic</b> aspect: You gain the following abilities: an additional +2 bonus to Constitution, DR 10/lawful, resist acid 10, electricity 10, and sonic 10, a +4 bonus on saves against poison, blindsense 30 feet, and a fly speed of 60 feet (good maneuverability). You gain a bite attack dealing 2d6 points of damage. Your natural weapons and any weapons you wield are considered chaotic-aligned for the purpose of overcoming damage resistance.</p><p><b>Axiomatic</b> aspect: You gain the following abilities: an additional +2 bonus to Strength, DR 10/chaotic, resist cold 10, electricity 10, and fire 10, a +4 bonus on saves against poison, low-light vision, and a fly speed of 60 feet (good maneuverability). You gain 2 slam attacks dealing 1d6 points of damage each. Your natural weapons and any weapons you wield are considered lawful-aligned for the purpose of overcoming damage resistance.</p><p><b>Celestial</b> aspect: You gain the following abilities: a +2 bonus to Dexterity, DR 10/evil, resist acid 10, cold 10, and electricity 10, a +4 bonus on saves against poison, low-light vision, and a fly speed of 60 feet (good maneuverability). You gain 2 slam attacks dealing 1d6 points of damage each. Your natural weapons and any weapons you wield are considered goodaligned for the purpose of overcoming damage resistance.</p><p><b>Fiendish</b> aspect: You gain the following abilities: an additional +2 bonus to Strength, DR 10/good, resist acid 10, cold 10, and fire 10, a +4 bonus on saves against poison, see in darkness, and a fly speed of 60 feet (good maneuverability).</p><p>You gain 2 claw attacks dealing 1d6 points of damage each. Your natural weapons and any weapons you wield are considered evil-aligned for the purpose of overcoming damage resistance.</p><p>When used to assume an anarchic, axiomatic, celestial, or fiendish aspect, this spell is a chaotic, lawful, good, or evil spell respectively.</p>\n</div>\n",
      "chat": "",
      "unidentified": ""
    },
    "tags": [],
    "activation": {
      "cost": 1,
      "type": "standard"
    },
    "unchainedAction": {
      "activation": {
        "cost": 2,
        "type": "action"
      }
    },
    "duration": {
      "value": null,
      "units": ""
    },
    "target": {
      "value": "you"
    },
    "range": {
      "value": null,
      "units": "personal",
      "maxIncrements": 1,
      "minValue": null,
      "minUnits": ""
    },
    "uses": {
      "value": 0,
      "max": 0,
      "per": "",
      "autoDeductCharges": true,
      "autoDeductChargesCost": "1"
    },
    "measureTemplate": {
      "type": "",
      "size": "0",
      "overrideColor": false,
      "customColor": "",
      "overrideTexture": false,
      "customTexture": ""
    },
    "attackName": "",
    "actionType": "",
    "attackBonus": "",
    "critConfirmBonus": "",
    "damage": {
      "parts": [],
      "critParts": [],
      "nonCritParts": []
    },
    "attackParts": [],
    "formula": "",
    "ability": {
      "attack": "",
      "damage": "",
      "damageMult": 1,
      "critRange": 20,
      "critMult": 2
    },
    "save": {
      "dc": "0",
      "type": "",
      "description": ""
    },
    "effectNotes": "",
    "attackNotes": "",
    "soundEffect": "",
    "links": {
      "children": []
    },
    "learnedAt": {
      "class": [],
      "domain": [],
      "subDomain": [],
      "elementalSchool": [],
      "bloodline": []
    },
    "level": 8,
    "clOffset": 0,
    "slOffset": 0,
    "school": "trs",
    "subschool": "",
    "types": "chaotic, evil, good, or lawful",
    "nonlethal": false,
    "conditionals": [],
    "components": {
      "value": "",
      "verbal": true,
      "somatic": true,
      "material": false,
      "focus": false,
      "divineFocus": 0
    },
    "castTime": "",
    "materials": {
      "value": "",
      "focus": "",
      "gpValue": 0
    },
    "spellbook": "primary",
    "preparation": {
      "preparedAmount": 0,
      "maxAmount": 0,
      "autoDeductCharges": true,
      "spontaneousPrepared": true,
      "mode": "prepared"
    },
    "atWill": false,
    "sr": false,
    "shortDescription": "<p>You accept otherworldly energies into your body and transform.</p><p>Your size increases by one category, your height doubles, and your weight increases by a factor of eight. Your features shift into those of a cold and alien being of logic, a creature of primal chaos, an angelic presence, or a fiendish monster, as chosen by you. You gain a +6 size bonus to Strength and Constitution, a +3 natural armor bonus, darkvision 60 ft., and SR of 12 + your caster level. These modifiers replace the normal modifiers for increasing your size. The size modifier for AC, attacks, CMB, and CMD changes as appropriate for your new size category.</p><p>This spell doesn't change your base speed. Determine space and reach as appropriate for your new size.</p><p>If insufficient room is available for the desired growth, you attain the maximum possible size and may make a Strength check (using your increased Strength) to burst any enclosures in the process (see page 175 of the <i>Core Rulebook</i> for rules on breaking objects). If you fail, you are constrained without harm by the materials enclosing you-the spell cannot crush you by increasing your size.</p><p>All equipment you wear or carry is similarly enlarged by this spell. Melee weapons deal more damage. Other magical properties are not affected by this spell. Any enlarged item that leaves your possession (including a projectile or thrown weapon) instantly returns to its normal size. This means that thrown and projectile weapons deal their normal damage.</p><p>Magical effects that increase size do not stack.</p><p>You gain additional abilities as noted below.</p><p><b>Anarchic</b> aspect: You gain the following abilities: an additional +2 bonus to Constitution, DR 10/lawful, resist acid 10, electricity 10, and sonic 10, a +4 bonus on saves against poison, blindsense 30 feet, and a fly speed of 60 feet (good maneuverability). You gain a bite attack dealing 2d6 points of damage. Your natural weapons and any weapons you wield are considered chaotic-aligned for the purpose of overcoming damage resistance.</p><p><b>Axiomatic</b> aspect: You gain the following abilities: an additional +2 bonus to Strength, DR 10/chaotic, resist cold 10, electricity 10, and fire 10, a +4 bonus on saves against poison, low-light vision, and a fly speed of 60 feet (good maneuverability). You gain 2 slam attacks dealing 1d6 points of damage each. Your natural weapons and any weapons you wield are considered lawful-aligned for the purpose of overcoming damage resistance.</p><p><b>Celestial</b> aspect: You gain the following abilities: a +2 bonus to Dexterity, DR 10/evil, resist acid 10, cold 10, and electricity 10, a +4 bonus on saves against poison, low-light vision, and a fly speed of 60 feet (good maneuverability). You gain 2 slam attacks dealing 1d6 points of damage each. Your natural weapons and any weapons you wield are considered goodaligned for the purpose of overcoming damage resistance.</p><p><b>Fiendish</b> aspect: You gain the following abilities: an additional +2 bonus to Strength, DR 10/good, resist acid 10, cold 10, and fire 10, a +4 bonus on saves against poison, see in darkness, and a fly speed of 60 feet (good maneuverability).</p><p>You gain 2 claw attacks dealing 1d6 points of damage each. Your natural weapons and any weapons you wield are considered evil-aligned for the purpose of overcoming damage resistance.</p><p>When used to assume an anarchic, axiomatic, celestial, or fiendish aspect, this spell is a chaotic, lawful, good, or evil spell respectively.</p>",
    "spellDuration": "1 round/level (D)",
    "spellEffect": "",
    "spellArea": "",
    "showInQuickbar": false,
    "spellPoints": {
      "cost": "1 + @sl"
    },
    "domain": false,
    "slotCost": 1
  },
  "flags": {},
  "img": "systems/pf1/icons/misc/magic-swirl.png",
  "effects": []
}