{
  "_id": "qvpzcjm5lmtn389j",
  "name": "Erase",
  "permission": {
    "default": 0
  },
  "type": "spell",
  "data": {
    "description": {
      "value": "<div class=\"spell-description\">\n  <p>\n    <strong>School</strong>&nbsp;transmutation;\n    <strong>Level</strong>&nbsp;bard 1, occultist 1, psychic 1, sorcerer/wizard 1;\n    <strong>Domain</strong>&nbsp;Rune 1;\n    \n    \n    \n  </p>\n  <p>\n    <strong>Casting Time</strong>&nbsp;1 standard action<br>\n    <strong>Components</strong>&nbsp;V, S<br>\n  </p>\n  <p>\n    <strong>Range</strong>&nbsp;close (25 ft. + 5 ft./2 levels)<br>\n    \n    <strong>Targets</strong>&nbsp;one scroll or two pages<br>\n    \n    <strong>Duration</strong>&nbsp;instantaneous<br>\n    <strong>Saving Throw</strong>&nbsp;see text;&nbsp;<strong>Spell Resistance</strong>&nbsp;no<br>\n  </p>\n  <h2>Description</h2>\n  <p><i>Erase</i> removes writings of either magical or mundane nature from a scroll or from one or two pages of paper, parchment, or similar surfaces. With this spell, you can remove <i><i>explosive runes</i>,</i> a <i><i>Glyph of Warding</i>, a <i>sepia snake sigil</i>,</i> or an <i>arcane mark</i>, but not <i>illusory script</i> or a <i>symbol</i> spell. Nonmagical writing is automatically erased if you touch it and no one else is holding it. Otherwise, the chance of erasing nonmagical writing is 90%. Magic writing must be touched to be erased, and you also must succeed on a caster level check (1d20 + caster level) against DC 15. A natural 1 is always a failure on this check. If you fail to erase <i><i>explosive runes</i>,</i> a <i>Glyph of Warding</i>, or a <i>sepia snake sigil</i>, you accidentally activate that writing instead.</p>\n</div>\n",
      "chat": "",
      "unidentified": ""
    },
    "tags": [],
    "activation": {
      "cost": 1,
      "type": "standard"
    },
    "unchainedAction": {
      "activation": {
        "cost": 2,
        "type": "action"
      }
    },
    "duration": {
      "value": null,
      "units": ""
    },
    "target": {
      "value": "one scroll or two pages"
    },
    "range": {
      "value": null,
      "units": "close",
      "maxIncrements": 1,
      "minValue": null,
      "minUnits": ""
    },
    "uses": {
      "value": 0,
      "max": 0,
      "per": "",
      "autoDeductCharges": true,
      "autoDeductChargesCost": "1"
    },
    "measureTemplate": {
      "type": "",
      "size": "0",
      "overrideColor": false,
      "customColor": "",
      "overrideTexture": false,
      "customTexture": ""
    },
    "attackName": "",
    "actionType": "spellsave",
    "attackBonus": "",
    "critConfirmBonus": "",
    "damage": {
      "parts": [],
      "critParts": [],
      "nonCritParts": []
    },
    "attackParts": [],
    "formula": "",
    "ability": {
      "attack": "",
      "damage": "",
      "damageMult": 1,
      "critRange": 20,
      "critMult": 2
    },
    "save": {
      "dc": "0",
      "type": "",
      "description": "see text"
    },
    "effectNotes": "",
    "attackNotes": "",
    "soundEffect": "",
    "links": {
      "children": []
    },
    "learnedAt": {
      "class": [
        [
          "sorcerer/wizard",
          1
        ],
        [
          "bard",
          1
        ],
        [
          "psychic",
          1
        ],
        [
          "occultist",
          1
        ]
      ],
      "domain": [
        [
          "Rune",
          1
        ]
      ],
      "subDomain": [],
      "elementalSchool": [],
      "bloodline": []
    },
    "level": 1,
    "clOffset": 0,
    "slOffset": 0,
    "school": "trs",
    "subschool": "",
    "types": "",
    "nonlethal": false,
    "conditionals": [],
    "components": {
      "value": "",
      "verbal": true,
      "somatic": true,
      "material": false,
      "focus": false,
      "divineFocus": 0
    },
    "castTime": "",
    "materials": {
      "value": "",
      "focus": "",
      "gpValue": 0
    },
    "spellbook": "primary",
    "preparation": {
      "preparedAmount": 0,
      "maxAmount": 0,
      "autoDeductCharges": true,
      "spontaneousPrepared": true,
      "mode": "prepared"
    },
    "atWill": false,
    "sr": false,
    "shortDescription": "<p><i>Erase</i> removes writings of either magical or mundane nature from a scroll or from one or two pages of paper, parchment, or similar surfaces. With this spell, you can remove <i><i>explosive runes</i>,</i> a <i><i>Glyph of Warding</i>, a <i>sepia snake sigil</i>,</i> or an <i>arcane mark</i>, but not <i>illusory script</i> or a <i>symbol</i> spell. Nonmagical writing is automatically erased if you touch it and no one else is holding it. Otherwise, the chance of erasing nonmagical writing is 90%. Magic writing must be touched to be erased, and you also must succeed on a caster level check (1d20 + caster level) against DC 15. A natural 1 is always a failure on this check. If you fail to erase <i><i>explosive runes</i>,</i> a <i>Glyph of Warding</i>, or a <i>sepia snake sigil</i>, you accidentally activate that writing instead.</p>",
    "spellDuration": "instantaneous",
    "spellEffect": "",
    "spellArea": "",
    "showInQuickbar": false,
    "spellPoints": {
      "cost": "1 + @sl"
    },
    "domain": false,
    "slotCost": 1
  },
  "flags": {},
  "img": "systems/pf1/icons/misc/magic-swirl.png",
  "effects": []
}