{
  "_id": "17iuomx6dc1h5cfx",
  "name": "Fire Trail",
  "permission": {
    "default": 0
  },
  "type": "spell",
  "data": {
    "description": {
      "value": "<div class=\"spell-description\">\n  <p>\n    <strong>School</strong>&nbsp;transmutation&nbsp;[fire];\n    <strong>Level</strong>&nbsp;alchemist 3, bloodrager 3, magus 3, sorcerer/wizard 3;\n    \n    \n    \n    \n  </p>\n  <p>\n    <strong>Casting Time</strong>&nbsp;1 standard action<br>\n    <strong>Components</strong>&nbsp;V, S<br>\n  </p>\n  <p>\n    <strong>Range</strong>&nbsp;personal<br>\n    \n    \n    <strong>Effect</strong>&nbsp;trail of flame that follows the caster&#x27;s movements; see text<br>\n    <strong>Duration</strong>&nbsp;1 round/level<br>\n    \n  </p>\n  <h2>Description</h2>\n  <p>When you cast this spell, flammable liquid oozes from your pores, dripping onto the ground and spontaneously combusting. The flame does not harm you. During this spell's duration, each time you leave your space, you create a trail of fire that burns within the spaces you move through for 1 round before it burns out. You can leave up to 60 feet of flame trail each round, assuming you are Small or Medium. If you are larger than Medium, the maximum trail length is reduced based on your size. If you are Large, you can leave a trail up to 30 feet long (and 10 feet wide), and if you are Huge, you can leave a trail up to 15 feet long (and 15 feet wide); even larger casters can only leave a trail up to 10 feet long (and as wide as your space) each round. You choose where to leave a flame trail.  Creatures that start their turn adjacent to the flame trail take 1d6 points of fire damage. Creatures that start their turn within the flame trail or that enter an area of flame take a number of points of fire damage equal to 1d6 + 1 per caster level (maximum +10). If a creature moves into an area of the flame trail multiple times in a round, it takes this damage each time it enters the area of the flame trail. Flammable objects in or adjacent to the fire trail catch fire.</p>\n</div>\n",
      "chat": "",
      "unidentified": ""
    },
    "tags": [],
    "activation": {
      "cost": 1,
      "type": "standard"
    },
    "unchainedAction": {
      "activation": {
        "cost": 2,
        "type": "action"
      }
    },
    "duration": {
      "value": null,
      "units": ""
    },
    "target": {
      "value": ""
    },
    "range": {
      "value": null,
      "units": "personal",
      "maxIncrements": 1,
      "minValue": null,
      "minUnits": ""
    },
    "uses": {
      "value": 0,
      "max": 0,
      "per": "",
      "autoDeductCharges": true,
      "autoDeductChargesCost": "1"
    },
    "measureTemplate": {
      "type": "",
      "size": "0",
      "overrideColor": false,
      "customColor": "",
      "overrideTexture": false,
      "customTexture": ""
    },
    "attackName": "",
    "actionType": "other",
    "attackBonus": "",
    "critConfirmBonus": "",
    "damage": {
      "parts": [],
      "critParts": [],
      "nonCritParts": []
    },
    "attackParts": [],
    "formula": "",
    "ability": {
      "attack": "",
      "damage": "",
      "damageMult": 1,
      "critRange": 20,
      "critMult": 2
    },
    "save": {
      "dc": "0",
      "type": "",
      "description": ""
    },
    "effectNotes": "",
    "attackNotes": "",
    "soundEffect": "",
    "links": {
      "children": []
    },
    "learnedAt": {
      "class": [
        [
          "sorcerer/wizard",
          3
        ],
        [
          "alchemist",
          3
        ],
        [
          "magus",
          3
        ],
        [
          "bloodrager",
          3
        ]
      ],
      "domain": [],
      "subDomain": [],
      "elementalSchool": [],
      "bloodline": []
    },
    "level": 3,
    "clOffset": 0,
    "slOffset": 0,
    "school": "trs",
    "subschool": "",
    "types": "fire",
    "nonlethal": false,
    "conditionals": [],
    "components": {
      "value": "",
      "verbal": true,
      "somatic": true,
      "material": false,
      "focus": false,
      "divineFocus": 0
    },
    "castTime": "",
    "materials": {
      "value": "",
      "focus": "",
      "gpValue": 0
    },
    "spellbook": "primary",
    "preparation": {
      "preparedAmount": 0,
      "maxAmount": 0,
      "autoDeductCharges": true,
      "spontaneousPrepared": true,
      "mode": "prepared"
    },
    "atWill": false,
    "sr": true,
    "shortDescription": "<p>When you cast this spell, flammable liquid oozes from your pores, dripping onto the ground and spontaneously combusting. The flame does not harm you. During this spell's duration, each time you leave your space, you create a trail of fire that burns within the spaces you move through for 1 round before it burns out. You can leave up to 60 feet of flame trail each round, assuming you are Small or Medium. If you are larger than Medium, the maximum trail length is reduced based on your size. If you are Large, you can leave a trail up to 30 feet long (and 10 feet wide), and if you are Huge, you can leave a trail up to 15 feet long (and 15 feet wide); even larger casters can only leave a trail up to 10 feet long (and as wide as your space) each round. You choose where to leave a flame trail.  Creatures that start their turn adjacent to the flame trail take 1d6 points of fire damage. Creatures that start their turn within the flame trail or that enter an area of flame take a number of points of fire damage equal to 1d6 + 1 per caster level (maximum +10). If a creature moves into an area of the flame trail multiple times in a round, it takes this damage each time it enters the area of the flame trail. Flammable objects in or adjacent to the fire trail catch fire.</p>",
    "spellDuration": "1 round/level",
    "spellEffect": "trail of flame that follows the caster's movements; see text",
    "spellArea": "",
    "showInQuickbar": false,
    "spellPoints": {
      "cost": "1 + @sl"
    },
    "domain": false,
    "slotCost": 1
  },
  "flags": {},
  "img": "systems/pf1/icons/misc/magic-swirl.png",
  "effects": []
}