{
  "_id": "iqcjiyi9leldfzxt",
  "name": "Form of the Dragon I",
  "permission": {
    "default": 0
  },
  "type": "spell",
  "data": {
    "description": {
      "value": "<div class=\"spell-description\">\n  <p>\n    <strong>School</strong>&nbsp;transmutation&nbsp;(polymorph);\n    <strong>Level</strong>&nbsp;alchemist 6, magus 6, sorcerer/wizard 6;\n    \n    <strong>Subdomain</strong>&nbsp;Dragon 6;\n    \n    <strong>Bloodline</strong>&nbsp;Draconic 6;\n  </p>\n  <p>\n    <strong>Casting Time</strong>&nbsp;1 standard action<br>\n    <strong>Components</strong>&nbsp;V, S, M (a scale of the dragon type you plan to assume)<br>\n  </p>\n  <p>\n    <strong>Range</strong>&nbsp;personal<br>\n    \n    <strong>Targets</strong>&nbsp;you<br>\n    \n    <strong>Duration</strong>&nbsp;1 min./level<br>\n    \n  </p>\n  <h2>Description</h2>\n  <p>You become a Medium chromatic or metallic dragon (see the <i>Pathfinder RPG Bestiary</i>). You gain a +4 size bonus to Strength, a +2 size bonus to Constitution, a +4 natural armor bonus, fly 60 feet (poor), darkvision 60 feet, a breath weapon, and resistance to one element. You also gain one bite (1d8), two claws (1d6), and two wing attacks (1d4). Your breath weapon and resistance depend on the type of dragon. You can only use the breath weapon once per casting of this spell. All breath weapons deal 6d8 points of damage and allow a Reflex save for half damage. In addition, some of the dragon types grant additional abilities, as noted below.</p><p><br><i>Black dragon</i>: 60-foot line of acid, resist acid 20, swim 60 feet <br><i>Blue dragon</i>: 60-foot line of electricity, resist electricity 20, burrow 20 feet <br><i>Green dragon</i>: 30-foot cone of acid, resist acid 20, swim 40 feet <br><i>Red dragon</i>: 30-foot cone of fire, resist fire 30, vulnerability to cold <br><i>White dragon</i>: 30-foot cone of cold, resist cold 20, swim 60 feet, vulnerability to fire <br><i>Brass dragon</i>: 60-foot line of fire, resist fire 20, burrow 30 feet, vulnerability to cold <br><i>Bronze dragon</i>: 60-foot line of electricity, resist electricity 20, swim 60 feet <br><i>Copper dragon</i>: 60-foot line of acid, resist acid 20, <i>spider climb</i> (always active) <br><i>Gold dragon</i>: 30-foot cone of fire, resist fire 20, swim 60 feet <br><i>Silver dragon</i>: 30-foot cone of cold, resist cold 30, vulnerability to fire</p>\n</div>\n",
      "chat": "",
      "unidentified": ""
    },
    "tags": [],
    "activation": {
      "cost": 1,
      "type": "standard"
    },
    "unchainedAction": {
      "activation": {
        "cost": 2,
        "type": "action"
      }
    },
    "duration": {
      "value": null,
      "units": ""
    },
    "target": {
      "value": "you"
    },
    "range": {
      "value": null,
      "units": "personal",
      "maxIncrements": 1,
      "minValue": null,
      "minUnits": ""
    },
    "uses": {
      "value": 0,
      "max": 0,
      "per": "",
      "autoDeductCharges": true,
      "autoDeductChargesCost": "1"
    },
    "measureTemplate": {
      "type": "",
      "size": "0",
      "overrideColor": false,
      "customColor": "",
      "overrideTexture": false,
      "customTexture": ""
    },
    "attackName": "",
    "actionType": "spellsave",
    "attackBonus": "",
    "critConfirmBonus": "",
    "damage": {
      "parts": [],
      "critParts": [],
      "nonCritParts": []
    },
    "attackParts": [],
    "formula": "",
    "ability": {
      "attack": "",
      "damage": "",
      "damageMult": 1,
      "critRange": 20,
      "critMult": 2
    },
    "save": {
      "dc": "0",
      "type": "",
      "description": "see below"
    },
    "effectNotes": "",
    "attackNotes": "",
    "soundEffect": "",
    "links": {
      "children": []
    },
    "learnedAt": {
      "class": [
        [
          "sorcerer/wizard",
          6
        ],
        [
          "alchemist",
          6
        ],
        [
          "magus",
          6
        ]
      ],
      "domain": [],
      "subDomain": [
        [
          "Dragon",
          6
        ]
      ],
      "elementalSchool": [],
      "bloodline": [
        [
          "Draconic",
          6
        ]
      ]
    },
    "level": 6,
    "clOffset": 0,
    "slOffset": 0,
    "school": "trs",
    "subschool": "polymorph",
    "types": "",
    "nonlethal": false,
    "conditionals": [],
    "components": {
      "value": "",
      "verbal": true,
      "somatic": true,
      "material": true,
      "focus": false,
      "divineFocus": 0
    },
    "castTime": "",
    "materials": {
      "value": "a scale of the dragon type you plan to assume",
      "focus": "",
      "gpValue": 0
    },
    "spellbook": "primary",
    "preparation": {
      "preparedAmount": 0,
      "maxAmount": 0,
      "autoDeductCharges": true,
      "spontaneousPrepared": true,
      "mode": "prepared"
    },
    "atWill": false,
    "sr": false,
    "shortDescription": "<p>You become a Medium chromatic or metallic dragon (see the <i>Pathfinder RPG Bestiary</i>). You gain a +4 size bonus to Strength, a +2 size bonus to Constitution, a +4 natural armor bonus, fly 60 feet (poor), darkvision 60 feet, a breath weapon, and resistance to one element. You also gain one bite (1d8), two claws (1d6), and two wing attacks (1d4). Your breath weapon and resistance depend on the type of dragon. You can only use the breath weapon once per casting of this spell. All breath weapons deal 6d8 points of damage and allow a Reflex save for half damage. In addition, some of the dragon types grant additional abilities, as noted below.</p><p><br><i>Black dragon</i>: 60-foot line of acid, resist acid 20, swim 60 feet <br><i>Blue dragon</i>: 60-foot line of electricity, resist electricity 20, burrow 20 feet <br><i>Green dragon</i>: 30-foot cone of acid, resist acid 20, swim 40 feet <br><i>Red dragon</i>: 30-foot cone of fire, resist fire 30, vulnerability to cold <br><i>White dragon</i>: 30-foot cone of cold, resist cold 20, swim 60 feet, vulnerability to fire <br><i>Brass dragon</i>: 60-foot line of fire, resist fire 20, burrow 30 feet, vulnerability to cold <br><i>Bronze dragon</i>: 60-foot line of electricity, resist electricity 20, swim 60 feet <br><i>Copper dragon</i>: 60-foot line of acid, resist acid 20, <i>spider climb</i> (always active) <br><i>Gold dragon</i>: 30-foot cone of fire, resist fire 20, swim 60 feet <br><i>Silver dragon</i>: 30-foot cone of cold, resist cold 30, vulnerability to fire</p>",
    "spellDuration": "1 min./level",
    "spellEffect": "",
    "spellArea": "",
    "showInQuickbar": false,
    "spellPoints": {
      "cost": "1 + @sl"
    },
    "domain": false,
    "slotCost": 1
  },
  "flags": {},
  "img": "systems/pf1/icons/misc/magic-swirl.png",
  "effects": []
}