{
  "_id": "1jvikwzrr06uwtzp",
  "name": "Garden of Peril",
  "permission": {
    "default": 0
  },
  "type": "spell",
  "data": {
    "description": {
      "value": "<div class=\"spell-description\">\n  <p>\n    <strong>School</strong>&nbsp;conjuration&nbsp;(creation)&nbsp;[poison];\n    <strong>Level</strong>&nbsp;druid 2, hunter 2, ranger 2, sorcerer/wizard 2, summoner 2, unchained Summoner 2, witch 2;\n    \n    \n    \n    \n  </p>\n  <p>\n    <strong>Casting Time</strong>&nbsp;1 standard action<br>\n    <strong>Components</strong>&nbsp;V, S, M/DF (a pinch of spores)<br>\n  </p>\n  <p>\n    <strong>Range</strong>&nbsp;medium (100 ft. + 10 ft./level)<br>\n    \n    \n    <strong>Effect</strong>&nbsp;one poisonous mushroom/level, no two of which can be more than 30 ft. apart<br>\n    <strong>Duration</strong>&nbsp;1 round/level (D)<br>\n    <strong>Saving Throw</strong>&nbsp;Fortitude negates;&nbsp;<strong>Spell Resistance</strong>&nbsp;no<br>\n  </p>\n  <h2>Description</h2>\n  <p>Vividly colored poisonous mushrooms instantly spring into existence in squares you select. The mushrooms can appear on any solid surface, even growing horizontally from walls or upside down from the ceiling.  Once per round as a move action, starting the round after you cast this spell, you can command the mushrooms to release poisonous spores. Each creature adjacent to a mushroom or in a mushroom's square must then succeed at a Fortitude save or become sickened for 1d4 rounds. The condition of creatures that fail multiple saving throws does not worsen, but each additional failed saving throw adds 1d4 rounds to the duration the creature is sickened.  The mushrooms are Tiny and cannot provide cover, but they are fairly sturdy (AC 7, hp 30, break DC 20). Creatures can  move through squares containing mushrooms as normal. When destroyed, a mushroom evaporates and releases one last cloud of spores.</p>\n</div>\n",
      "chat": "",
      "unidentified": ""
    },
    "tags": [],
    "activation": {
      "cost": 1,
      "type": "standard"
    },
    "unchainedAction": {
      "activation": {
        "cost": 2,
        "type": "action"
      }
    },
    "duration": {
      "value": null,
      "units": ""
    },
    "target": {
      "value": ""
    },
    "range": {
      "value": null,
      "units": "medium",
      "maxIncrements": 1,
      "minValue": null,
      "minUnits": ""
    },
    "uses": {
      "value": 0,
      "max": 0,
      "per": "",
      "autoDeductCharges": true,
      "autoDeductChargesCost": "1"
    },
    "measureTemplate": {
      "type": "",
      "size": "0",
      "overrideColor": false,
      "customColor": "",
      "overrideTexture": false,
      "customTexture": ""
    },
    "attackName": "",
    "actionType": "spellsave",
    "attackBonus": "",
    "critConfirmBonus": "",
    "damage": {
      "parts": [],
      "critParts": [],
      "nonCritParts": []
    },
    "attackParts": [],
    "formula": "",
    "ability": {
      "attack": "",
      "damage": "",
      "damageMult": 1,
      "critRange": 20,
      "critMult": 2
    },
    "save": {
      "dc": "0",
      "type": "fort",
      "description": "Fortitude negates"
    },
    "effectNotes": "",
    "attackNotes": "",
    "soundEffect": "",
    "links": {
      "children": []
    },
    "learnedAt": {
      "class": [
        [
          "sorcerer/wizard",
          2
        ],
        [
          "druid",
          2
        ],
        [
          "ranger",
          2
        ],
        [
          "summoner",
          2
        ],
        [
          "witch",
          2
        ],
        [
          "hunter",
          2
        ],
        [
          "unchained Summoner",
          2
        ]
      ],
      "domain": [],
      "subDomain": [],
      "elementalSchool": [],
      "bloodline": []
    },
    "level": 2,
    "clOffset": 0,
    "slOffset": 0,
    "school": "con",
    "subschool": "creation",
    "types": "poison",
    "nonlethal": false,
    "conditionals": [],
    "components": {
      "value": "",
      "verbal": true,
      "somatic": true,
      "material": true,
      "focus": false,
      "divineFocus": 2
    },
    "castTime": "",
    "materials": {
      "value": "a pinch of spores",
      "focus": "",
      "gpValue": 0
    },
    "spellbook": "primary",
    "preparation": {
      "preparedAmount": 0,
      "maxAmount": 0,
      "autoDeductCharges": true,
      "spontaneousPrepared": true,
      "mode": "prepared"
    },
    "atWill": false,
    "sr": false,
    "shortDescription": "<p>Vividly colored poisonous mushrooms instantly spring into existence in squares you select. The mushrooms can appear on any solid surface, even growing horizontally from walls or upside down from the ceiling.  Once per round as a move action, starting the round after you cast this spell, you can command the mushrooms to release poisonous spores. Each creature adjacent to a mushroom or in a mushroom's square must then succeed at a Fortitude save or become sickened for 1d4 rounds. The condition of creatures that fail multiple saving throws does not worsen, but each additional failed saving throw adds 1d4 rounds to the duration the creature is sickened.  The mushrooms are Tiny and cannot provide cover, but they are fairly sturdy (AC 7, hp 30, break DC 20). Creatures can  move through squares containing mushrooms as normal. When destroyed, a mushroom evaporates and releases one last cloud of spores.</p>",
    "spellDuration": "1 round/level (D)",
    "spellEffect": "one poisonous mushroom/level, no two of which can be more than 30 ft. apart",
    "spellArea": "",
    "showInQuickbar": false,
    "spellPoints": {
      "cost": "1 + @sl"
    },
    "domain": false,
    "slotCost": 1
  },
  "flags": {},
  "img": "systems/pf1/icons/misc/magic-swirl.png",
  "effects": []
}