{
  "_id": "ze2v5hkginj0tnge",
  "name": "Ghost Brand",
  "permission": {
    "default": 0
  },
  "type": "spell",
  "data": {
    "description": {
      "value": "<div class=\"spell-description\">\n  <p>\n    <strong>School</strong>&nbsp;transmutation&nbsp;[shadow];\n    <strong>Level</strong>&nbsp;bard 4, occultist 3, spiritualist 4, witch 4;\n    \n    \n    \n    \n  </p>\n  <p>\n    <strong>Casting Time</strong>&nbsp;10 minutes<br>\n    <strong>Components</strong>&nbsp;V, S, M (a branding iron and a strip of white silk worth 10 gp)<br>\n  </p>\n  <p>\n    <strong>Range</strong>&nbsp;touch<br>\n    \n    <strong>Targets</strong>&nbsp;one willing creature and one object touched<br>\n    \n    <strong>Duration</strong>&nbsp;1 day/level (D)<br>\n      <strong>Saving Throw</strong>&nbsp;none;&nbsp;\n      <strong>Spell Resistance</strong>&nbsp;no<br>\n  </p>\n  <h2>Description</h2>\n  <p>You alter the fundamental substance of a single object up to 2 cubic feet per level in size and at least one size category smaller than the target creature, causing it to become shadowy and intangible, as though made out of quasi-real shadowstuff. You link the intangible item to the target's flesh by making a brand shaped like the item on the target's skin. The intangible item merges with the target's flesh and is contained within the target's body, moving with the target wherever it goes. The creature can retrieve the item or reabsorb it as a full-round action, and can do so as many times as it wants. When worn or wielded by the target, the item regains its solidity and functions normally, though the target can't drop or remove the item (other than by using the full-round action), nor can it be disarmed or stolen. If the item is destroyed, the spell ends. If the <i>ghost brand</i> spell is dispelled while the object is inside the target's body,  the object bursts out of the target's flesh, dealing 3d6 points of piercing and slashing damage to the target that bypasses DR, as well as 1d6 points of bleed damage.</p>\n</div>\n",
      "chat": "",
      "unidentified": ""
    },
    "tags": [],
    "activation": {
      "cost": 10,
      "type": "minute"
    },
    "unchainedAction": {
      "activation": {
        "cost": 10,
        "type": "minute"
      }
    },
    "duration": {
      "value": null,
      "units": ""
    },
    "target": {
      "value": "one willing creature and one object touched"
    },
    "range": {
      "value": null,
      "units": "touch",
      "maxIncrements": 1,
      "minValue": null,
      "minUnits": ""
    },
    "uses": {
      "value": 0,
      "max": 0,
      "per": "",
      "autoDeductCharges": true,
      "autoDeductChargesCost": "1"
    },
    "measureTemplate": {
      "type": "",
      "size": "0",
      "overrideColor": false,
      "customColor": "",
      "overrideTexture": false,
      "customTexture": ""
    },
    "attackName": "",
    "actionType": "",
    "attackBonus": "",
    "critConfirmBonus": "",
    "damage": {
      "parts": [],
      "critParts": [],
      "nonCritParts": []
    },
    "attackParts": [],
    "formula": "",
    "ability": {
      "attack": "",
      "damage": "",
      "damageMult": 1,
      "critRange": 20,
      "critMult": 2
    },
    "save": {
      "dc": "0",
      "type": "",
      "description": ""
    },
    "effectNotes": "",
    "attackNotes": "",
    "soundEffect": "",
    "links": {
      "children": []
    },
    "learnedAt": {
      "class": [
        [
          "bard",
          4
        ],
        [
          "witch",
          4
        ],
        [
          "occultist",
          3
        ],
        [
          "spiritualist",
          4
        ]
      ],
      "domain": [],
      "subDomain": [],
      "elementalSchool": [],
      "bloodline": []
    },
    "level": 4,
    "clOffset": 0,
    "slOffset": 0,
    "school": "trs",
    "subschool": "",
    "types": "shadow",
    "nonlethal": false,
    "conditionals": [],
    "components": {
      "value": "",
      "verbal": true,
      "somatic": true,
      "material": true,
      "focus": false,
      "divineFocus": 0
    },
    "castTime": "",
    "materials": {
      "value": "a branding iron and a strip of white silk worth 10 gp",
      "focus": "",
      "gpValue": 10
    },
    "spellbook": "",
    "preparation": {
      "preparedAmount": 0,
      "maxAmount": 0,
      "autoDeductCharges": false,
      "spontaneousPrepared": false,
      "mode": "prepared"
    },
    "atWill": false,
    "sr": false,
    "shortDescription": "<p>You alter the fundamental substance of a single object up to 2 cubic feet per level in size and at least one size category smaller than the target creature, causing it to become shadowy and intangible, as though made out of quasi-real shadowstuff. You link the intangible item to the target's flesh by making a brand shaped like the item on the target's skin. The intangible item merges with the target's flesh and is contained within the target's body, moving with the target wherever it goes. The creature can retrieve the item or reabsorb it as a full-round action, and can do so as many times as it wants. When worn or wielded by the target, the item regains its solidity and functions normally, though the target can't drop or remove the item (other than by using the full-round action), nor can it be disarmed or stolen. If the item is destroyed, the spell ends. If the <i>ghost brand</i> spell is dispelled while the object is inside the target's body,  the object bursts out of the target's flesh, dealing 3d6 points of piercing and slashing damage to the target that bypasses DR, as well as 1d6 points of bleed damage.</p>",
    "spellDuration": "1 day/level (D)",
    "spellEffect": "",
    "spellArea": "",
    "showInQuickbar": false,
    "spellPoints": {
      "cost": ""
    },
    "domain": false,
    "slotCost": 1
  },
  "flags": {},
  "img": "systems/pf1/icons/misc/magic-swirl.png",
  "effects": []
}