{
  "_id": "0sssdtv0tkbns2r3",
  "name": "Grove of Respite",
  "permission": {
    "default": 0
  },
  "type": "spell",
  "data": {
    "description": {
      "value": "<div class=\"spell-description\">\n  <p>\n    <strong>School</strong>&nbsp;conjuration&nbsp;(creation);\n    <strong>Level</strong>&nbsp;druid 4, hunter 4, ranger 4, shaman 5;\n    \n    \n    \n    \n  </p>\n  <p>\n    <strong>Casting Time</strong>&nbsp;10 minutes<br>\n    <strong>Components</strong>&nbsp;V, S, M/DF (a leaf or blade of grass and a drop of water)<br>\n  </p>\n  <p>\n    <strong>Range</strong>&nbsp;close (25 ft. + 5 ft./2 levels)<br>\n    \n    \n    <strong>Effect</strong>&nbsp;20-ft.-radius grove<br>\n    <strong>Duration</strong>&nbsp;2 hours/level (D)<br>\n    <strong>Saving Throw</strong>&nbsp;none;&nbsp;<strong>Spell Resistance</strong>&nbsp;no<br>\n  </p>\n  <h2>Description</h2>\n  <p>You conjure a sheltered grove of trees surrounding a shallow spring. The grove appears from nowhere even in the most barren, rocky soil regardless of season, but the spell must be cast outside on open ground.</p><p>The area within the grove is temperate and comfortable, like that of a <i>tiny hut</i>, although the grove provides no illumination and provides no protection from the elements. The water in the grove's spring is clean and drinkable. Additionally, the trees provide a variety of ripe fruit, regardless of season, which acts as a <i>goodberry</i> spell for up to eight people. The grove is warded with an <i>alarm</i> spell that alerts you whenever any creature enters the area. Once the spell expires, the grove vanishes, including all fruit, water, and other materials from it, although any nourishment or healing gained from its effects remains.</p>\n</div>\n",
      "chat": "",
      "unidentified": ""
    },
    "tags": [],
    "activation": {
      "cost": 10,
      "type": "minute"
    },
    "unchainedAction": {
      "activation": {
        "cost": 10,
        "type": "minute"
      }
    },
    "duration": {
      "value": null,
      "units": ""
    },
    "target": {
      "value": ""
    },
    "range": {
      "value": null,
      "units": "close",
      "maxIncrements": 1,
      "minValue": null,
      "minUnits": ""
    },
    "uses": {
      "value": 0,
      "max": 0,
      "per": "",
      "autoDeductCharges": true,
      "autoDeductChargesCost": "1"
    },
    "measureTemplate": {
      "type": "",
      "size": "0",
      "overrideColor": false,
      "customColor": "",
      "overrideTexture": false,
      "customTexture": ""
    },
    "attackName": "",
    "actionType": "other",
    "attackBonus": "",
    "critConfirmBonus": "",
    "damage": {
      "parts": [],
      "critParts": [],
      "nonCritParts": []
    },
    "attackParts": [],
    "formula": "",
    "ability": {
      "attack": "",
      "damage": "",
      "damageMult": 1,
      "critRange": 20,
      "critMult": 2
    },
    "save": {
      "dc": "0",
      "type": "",
      "description": ""
    },
    "effectNotes": "",
    "attackNotes": "",
    "soundEffect": "",
    "links": {
      "children": []
    },
    "learnedAt": {
      "class": [
        [
          "druid",
          4
        ],
        [
          "ranger",
          4
        ],
        [
          "shaman",
          5
        ],
        [
          "hunter",
          4
        ]
      ],
      "domain": [],
      "subDomain": [],
      "elementalSchool": [],
      "bloodline": []
    },
    "level": 4,
    "clOffset": 0,
    "slOffset": 0,
    "school": "con",
    "subschool": "creation",
    "types": "",
    "nonlethal": false,
    "conditionals": [],
    "components": {
      "value": "",
      "verbal": true,
      "somatic": true,
      "material": true,
      "focus": false,
      "divineFocus": 2
    },
    "castTime": "",
    "materials": {
      "value": "a leaf or blade of grass and a drop of water",
      "focus": "",
      "gpValue": 0
    },
    "spellbook": "primary",
    "preparation": {
      "preparedAmount": 0,
      "maxAmount": 0,
      "autoDeductCharges": true,
      "spontaneousPrepared": true,
      "mode": "prepared"
    },
    "atWill": false,
    "sr": false,
    "shortDescription": "<p>You conjure a sheltered grove of trees surrounding a shallow spring. The grove appears from nowhere even in the most barren, rocky soil regardless of season, but the spell must be cast outside on open ground.</p><p>The area within the grove is temperate and comfortable, like that of a <i>tiny hut</i>, although the grove provides no illumination and provides no protection from the elements. The water in the grove's spring is clean and drinkable. Additionally, the trees provide a variety of ripe fruit, regardless of season, which acts as a <i>goodberry</i> spell for up to eight people. The grove is warded with an <i>alarm</i> spell that alerts you whenever any creature enters the area. Once the spell expires, the grove vanishes, including all fruit, water, and other materials from it, although any nourishment or healing gained from its effects remains.</p>",
    "spellDuration": "2 hours/level (D)",
    "spellEffect": "20-ft.-radius grove",
    "spellArea": "",
    "showInQuickbar": false,
    "spellPoints": {
      "cost": "1 + @sl"
    },
    "domain": false,
    "slotCost": 1
  },
  "flags": {},
  "img": "systems/pf1/icons/misc/magic-swirl.png",
  "effects": []
}