{
  "_id": "y2byo50vj2hrltl4",
  "name": "Hungry Earth",
  "permission": {
    "default": 0
  },
  "type": "spell",
  "data": {
    "description": {
      "value": "<div class=\"spell-description\">\n  <p>\n    <strong>School</strong>&nbsp;transmutation;\n    <strong>Level</strong>&nbsp;druid 5, hunter 5, sorcerer/wizard 5, witch 5;\n    \n    \n    \n    <strong>Bloodline</strong>&nbsp;Ghoul 5;\n  </p>\n  <p>\n    <strong>Casting Time</strong>&nbsp;1 standard action<br>\n    <strong>Components</strong>&nbsp;V, S<br>\n  </p>\n  <p>\n    <strong>Range</strong>&nbsp;medium (100 ft. + 10 ft./level)<br>\n    <strong>Area</strong>&nbsp;20-foot-radius spread<br>\n    \n    \n    <strong>Duration</strong>&nbsp;1 round/level<br>\n    <strong>Saving Throw</strong>&nbsp;none;&nbsp;<strong>Spell Resistance</strong>&nbsp;no<br>\n  </p>\n  <h2>Description</h2>\n  <p>The ground attempts to pull creatures beneath its surface as if hungry for the flesh of mortals.  Immediately, and at the beginning of each of your turns, every creature touching the ground within the area of the spell is the target of a grapple combat maneuver. Creatures that enter the area of effect are also automatically attacked. The ground does not provoke attacks of opportunity. The earth's CMB is equal to 5 + your caster level for the purpose of this combat maneuver check. Attempt the combat maneuver check only once each round and apply the result to all creatures in the area of effect.  Each time the ground succeeds at a combat maneuver check to grapple a foe, it drags the creature farther down, eventually forcing the creature below its surface. With the first successful check, the target gains the grappled condition. Grappled opponents can't move without first breaking the grapple (doing so requires a successful DC 20 combat maneuver or Escape Artist check). The ground receives a +5 bonus on combat maneuver checks to grapple opponents it is already grappling. After the second successful grapple combat maneuver check, the grappled creature is pulled to the ground and becomes prone. On the third successful grapple combat maneuver check, the creature is fully buried and must hold its breath or begin suffocating.  A buried creature can't attempt to escape unless the effect ends or it breaks the grapple. The DC to escape the grapple increases to 25 for a creature that has been pulled beneath the earth.</p>\n</div>\n",
      "chat": "",
      "unidentified": ""
    },
    "tags": [],
    "activation": {
      "cost": 1,
      "type": "standard"
    },
    "unchainedAction": {
      "activation": {
        "cost": 2,
        "type": "action"
      }
    },
    "duration": {
      "value": null,
      "units": ""
    },
    "target": {
      "value": ""
    },
    "range": {
      "value": null,
      "units": "medium",
      "maxIncrements": 1,
      "minValue": null,
      "minUnits": ""
    },
    "uses": {
      "value": 0,
      "max": 0,
      "per": "",
      "autoDeductCharges": true,
      "autoDeductChargesCost": "1"
    },
    "measureTemplate": {
      "type": "",
      "size": "0",
      "overrideColor": false,
      "customColor": "",
      "overrideTexture": false,
      "customTexture": ""
    },
    "attackName": "",
    "actionType": "",
    "attackBonus": "",
    "critConfirmBonus": "",
    "damage": {
      "parts": [],
      "critParts": [],
      "nonCritParts": []
    },
    "attackParts": [],
    "formula": "",
    "ability": {
      "attack": "",
      "damage": "",
      "damageMult": 1,
      "critRange": 20,
      "critMult": 2
    },
    "save": {
      "dc": "0",
      "type": "",
      "description": ""
    },
    "effectNotes": "",
    "attackNotes": "",
    "soundEffect": "",
    "links": {
      "children": []
    },
    "learnedAt": {
      "class": [
        [
          "sorcerer/wizard",
          5
        ],
        [
          "druid",
          5
        ],
        [
          "witch",
          5
        ],
        [
          "hunter",
          5
        ]
      ],
      "domain": [],
      "subDomain": [],
      "elementalSchool": [],
      "bloodline": [
        [
          "Ghoul",
          5
        ]
      ]
    },
    "level": 5,
    "clOffset": 0,
    "slOffset": 0,
    "school": "trs",
    "subschool": "",
    "types": "",
    "nonlethal": false,
    "conditionals": [],
    "components": {
      "value": "",
      "verbal": true,
      "somatic": true,
      "material": false,
      "focus": false,
      "divineFocus": 0
    },
    "castTime": "",
    "materials": {
      "value": "",
      "focus": "",
      "gpValue": 0
    },
    "spellbook": "primary",
    "preparation": {
      "preparedAmount": 0,
      "maxAmount": 0,
      "autoDeductCharges": true,
      "spontaneousPrepared": true,
      "mode": "prepared"
    },
    "atWill": false,
    "sr": false,
    "shortDescription": "<p>The ground attempts to pull creatures beneath its surface as if hungry for the flesh of mortals.  Immediately, and at the beginning of each of your turns, every creature touching the ground within the area of the spell is the target of a grapple combat maneuver. Creatures that enter the area of effect are also automatically attacked. The ground does not provoke attacks of opportunity. The earth's CMB is equal to 5 + your caster level for the purpose of this combat maneuver check. Attempt the combat maneuver check only once each round and apply the result to all creatures in the area of effect.  Each time the ground succeeds at a combat maneuver check to grapple a foe, it drags the creature farther down, eventually forcing the creature below its surface. With the first successful check, the target gains the grappled condition. Grappled opponents can't move without first breaking the grapple (doing so requires a successful DC 20 combat maneuver or Escape Artist check). The ground receives a +5 bonus on combat maneuver checks to grapple opponents it is already grappling. After the second successful grapple combat maneuver check, the grappled creature is pulled to the ground and becomes prone. On the third successful grapple combat maneuver check, the creature is fully buried and must hold its breath or begin suffocating.  A buried creature can't attempt to escape unless the effect ends or it breaks the grapple. The DC to escape the grapple increases to 25 for a creature that has been pulled beneath the earth.</p>",
    "spellDuration": "1 round/level",
    "spellEffect": "",
    "spellArea": "20-foot-radius spread",
    "showInQuickbar": false,
    "spellPoints": {
      "cost": "1 + @sl"
    },
    "domain": false,
    "slotCost": 1
  },
  "flags": {},
  "img": "systems/pf1/icons/misc/magic-swirl.png",
  "effects": []
}