{
  "_id": "u5ss3ac14t6h5l50",
  "name": "Huntmaster's Spear",
  "permission": {
    "default": 0
  },
  "type": "spell",
  "data": {
    "description": {
      "value": "<div class=\"spell-description\">\n  <p>\n    <strong>School</strong>&nbsp;transmutation;\n    <strong>Level</strong>&nbsp;antipaladin 1, bloodrager 2, druid 2, hunter 1, inquisitor 2, magus 2, occultist 2, paladin 1, ranger 1, shaman 2;\n    \n    \n    \n    \n  </p>\n  <p>\n    <strong>Casting Time</strong>&nbsp;10 minutes<br>\n    <strong>Components</strong>&nbsp;V, S, M/DF (see text)<br>\n  </p>\n  <p>\n    <strong>Range</strong>&nbsp;touch<br>\n    \n    <strong>Targets</strong>&nbsp;nonmagical spear touched<br>\n    \n    <strong>Duration</strong>&nbsp;24 hours or until discharged<br>\n    <strong>Saving Throw</strong>&nbsp;Will negates (harmless, object);&nbsp;<strong>Spell Resistance</strong>&nbsp;yes<br>\n  </p>\n  <h2>Description</h2>\n  <p>Choose one creature type (and subtype, if applicable) from the ranger's favored enemy list. When you cast this spell, the targeted spear hums with destructive energy and functions as a <i>+1 spear</i> against creatures of the selected type.  You can discharge this spell in order to make an especially powerful attack with the spear. The spear's critical range becomes 18-20 and its critical multiplier becomes x3. If you make this attack as part of a charge action, you gain an enhancement bonus of +30 feet to your base speed while performing the charge. If you throw the spear as part of this attack, its range increment increases to 80 feet. If you cast this spell on a masterwork spear, it also gains the <i>bane</i> special ability against the selected creature type and automatically bypasses any damage reduction (except DR/-) regardless of the creature's type. After resolving the attack, the spear is completely destroyed in a burst of energy.  Any creature other than you treats the spear as a normal weapon of its type. You can have only one huntmaster's spear in effect at a time. If you cast the spell again, any previous instance of the spell immediately ends. If you expend a monster trophy of the type selected as an optional material component for this spell, you reduce the casting time to 1 round.</p>\n</div>\n",
      "chat": "",
      "unidentified": ""
    },
    "tags": [],
    "activation": {
      "cost": 10,
      "type": "minute"
    },
    "unchainedAction": {
      "activation": {
        "cost": 10,
        "type": "minute"
      }
    },
    "duration": {
      "value": null,
      "units": ""
    },
    "target": {
      "value": "nonmagical spear touched"
    },
    "range": {
      "value": null,
      "units": "touch",
      "maxIncrements": 1,
      "minValue": null,
      "minUnits": ""
    },
    "uses": {
      "value": 0,
      "max": 0,
      "per": "",
      "autoDeductCharges": true,
      "autoDeductChargesCost": "1"
    },
    "measureTemplate": {
      "type": "",
      "size": "0",
      "overrideColor": false,
      "customColor": "",
      "overrideTexture": false,
      "customTexture": ""
    },
    "attackName": "",
    "actionType": "spellsave",
    "attackBonus": "",
    "critConfirmBonus": "",
    "damage": {
      "parts": [],
      "critParts": [],
      "nonCritParts": []
    },
    "attackParts": [],
    "formula": "",
    "ability": {
      "attack": "",
      "damage": "",
      "damageMult": 1,
      "critRange": 20,
      "critMult": 2
    },
    "save": {
      "dc": "0",
      "type": "will",
      "description": "Will negates (harmless, object)"
    },
    "effectNotes": "",
    "attackNotes": "",
    "soundEffect": "",
    "links": {
      "children": []
    },
    "learnedAt": {
      "class": [
        [
          "druid",
          2
        ],
        [
          "ranger",
          1
        ],
        [
          "paladin",
          1
        ],
        [
          "inquisitor",
          2
        ],
        [
          "antipaladin",
          1
        ],
        [
          "magus",
          2
        ],
        [
          "bloodrager",
          2
        ],
        [
          "shaman",
          2
        ],
        [
          "occultist",
          2
        ],
        [
          "hunter",
          1
        ]
      ],
      "domain": [],
      "subDomain": [],
      "elementalSchool": [],
      "bloodline": []
    },
    "level": 2,
    "clOffset": 0,
    "slOffset": 0,
    "school": "trs",
    "subschool": "",
    "types": "",
    "nonlethal": false,
    "conditionals": [],
    "components": {
      "value": "",
      "verbal": true,
      "somatic": true,
      "material": true,
      "focus": false,
      "divineFocus": 2
    },
    "castTime": "",
    "materials": {
      "value": "see text",
      "focus": "",
      "gpValue": 0
    },
    "spellbook": "primary",
    "preparation": {
      "preparedAmount": 0,
      "maxAmount": 0,
      "autoDeductCharges": true,
      "spontaneousPrepared": true,
      "mode": "prepared"
    },
    "atWill": false,
    "sr": true,
    "shortDescription": "<p>Choose one creature type (and subtype, if applicable) from the ranger's favored enemy list. When you cast this spell, the targeted spear hums with destructive energy and functions as a <i>+1 spear</i> against creatures of the selected type.  You can discharge this spell in order to make an especially powerful attack with the spear. The spear's critical range becomes 18-20 and its critical multiplier becomes x3. If you make this attack as part of a charge action, you gain an enhancement bonus of +30 feet to your base speed while performing the charge. If you throw the spear as part of this attack, its range increment increases to 80 feet. If you cast this spell on a masterwork spear, it also gains the <i>bane</i> special ability against the selected creature type and automatically bypasses any damage reduction (except DR/-) regardless of the creature's type. After resolving the attack, the spear is completely destroyed in a burst of energy.  Any creature other than you treats the spear as a normal weapon of its type. You can have only one huntmaster's spear in effect at a time. If you cast the spell again, any previous instance of the spell immediately ends. If you expend a monster trophy of the type selected as an optional material component for this spell, you reduce the casting time to 1 round.</p>",
    "spellDuration": "24 hours or until discharged",
    "spellEffect": "",
    "spellArea": "",
    "showInQuickbar": false,
    "spellPoints": {
      "cost": "1 + @sl"
    },
    "domain": false,
    "slotCost": 1
  },
  "flags": {},
  "img": "systems/pf1/icons/misc/magic-swirl.png",
  "effects": []
}