{
  "_id": "olbko3loip9gjwo0",
  "name": "Innocuous Shape",
  "permission": {
    "default": 0
  },
  "type": "spell",
  "data": {
    "description": {
      "value": "<div class=\"spell-description\">\n  <p>\n    <strong>School</strong>&nbsp;transmutation&nbsp;(polymorph);\n    <strong>Level</strong>&nbsp;alchemist 4, psychic 4, shaman 4, sorcerer/wizard 4, witch 4;\n    \n    \n    \n    \n  </p>\n  <p>\n    <strong>Casting Time</strong>&nbsp;1 standard action<br>\n    <strong>Components</strong>&nbsp;V, S, M (a handful of dandelion seeds)<br>\n  </p>\n  <p>\n    <strong>Range</strong>&nbsp;touch<br>\n    \n    <strong>Targets</strong>&nbsp;living creature touched<br>\n    \n    <strong>Duration</strong>&nbsp;1 minute/level (D)<br>\n    <strong>Saving Throw</strong>&nbsp;Will negates (harmless);&nbsp;<strong>Spell Resistance</strong>&nbsp;yes<br>\n  </p>\n  <h2>Description</h2>\n  <p>This spell transforms a creature into a Medium or smaller animal or humanoid of no more than 1 Hit Die. If you use this spell to cause the target to take on the form of an animal, the spell functions as <i>beast shape II</i>. If the form is that of a humanoid, the spell can function as <i>alter self</i>, <i>youthful</i> appearanceUM, or both, such that you can transform a creature into a generic, <i>youthful</i> humanoid of any type.  Any creature that interacts with the target of this spell must succeed at a Will saving throw (using the DC of the spell) or view the target in the most innocuous possible light. On a failed saving throw, the creature views all of the target's actions as inoffensive and no cause for concern unless the target becomes an obvious threat. The creature can otherwise act normally, and feels no compunction to obey or ignore the target; it simply assumes none of the target's actions are dangerous or malicious unless shown evidence that proves otherwise.</p>\n</div>\n",
      "chat": "",
      "unidentified": ""
    },
    "tags": [],
    "activation": {
      "cost": 1,
      "type": "standard"
    },
    "unchainedAction": {
      "activation": {
        "cost": 2,
        "type": "action"
      }
    },
    "duration": {
      "value": null,
      "units": ""
    },
    "target": {
      "value": "living creature touched"
    },
    "range": {
      "value": null,
      "units": "touch",
      "maxIncrements": 1,
      "minValue": null,
      "minUnits": ""
    },
    "uses": {
      "value": 0,
      "max": 0,
      "per": "",
      "autoDeductCharges": true,
      "autoDeductChargesCost": "1"
    },
    "measureTemplate": {
      "type": "",
      "size": "0",
      "overrideColor": false,
      "customColor": "",
      "overrideTexture": false,
      "customTexture": ""
    },
    "attackName": "",
    "actionType": "spellsave",
    "attackBonus": "",
    "critConfirmBonus": "",
    "damage": {
      "parts": [],
      "critParts": [],
      "nonCritParts": []
    },
    "attackParts": [],
    "formula": "",
    "ability": {
      "attack": "",
      "damage": "",
      "damageMult": 1,
      "critRange": 20,
      "critMult": 2
    },
    "save": {
      "dc": "0",
      "type": "will",
      "description": "Will negates (harmless)"
    },
    "effectNotes": "",
    "attackNotes": "",
    "soundEffect": "",
    "links": {
      "children": []
    },
    "learnedAt": {
      "class": [
        [
          "sorcerer/wizard",
          4
        ],
        [
          "alchemist",
          4
        ],
        [
          "witch",
          4
        ],
        [
          "shaman",
          4
        ],
        [
          "psychic",
          4
        ]
      ],
      "domain": [],
      "subDomain": [],
      "elementalSchool": [],
      "bloodline": []
    },
    "level": 4,
    "clOffset": 0,
    "slOffset": 0,
    "school": "trs",
    "subschool": "polymorph",
    "types": "",
    "nonlethal": false,
    "conditionals": [],
    "components": {
      "value": "",
      "verbal": true,
      "somatic": true,
      "material": true,
      "focus": false,
      "divineFocus": 0
    },
    "castTime": "",
    "materials": {
      "value": "a handful of dandelion seeds",
      "focus": "",
      "gpValue": 0
    },
    "spellbook": "primary",
    "preparation": {
      "preparedAmount": 0,
      "maxAmount": 0,
      "autoDeductCharges": true,
      "spontaneousPrepared": true,
      "mode": "prepared"
    },
    "atWill": false,
    "sr": true,
    "shortDescription": "<p>This spell transforms a creature into a Medium or smaller animal or humanoid of no more than 1 Hit Die. If you use this spell to cause the target to take on the form of an animal, the spell functions as <i>beast shape II</i>. If the form is that of a humanoid, the spell can function as <i>alter self</i>, <i>youthful</i> appearanceUM, or both, such that you can transform a creature into a generic, <i>youthful</i> humanoid of any type.  Any creature that interacts with the target of this spell must succeed at a Will saving throw (using the DC of the spell) or view the target in the most innocuous possible light. On a failed saving throw, the creature views all of the target's actions as inoffensive and no cause for concern unless the target becomes an obvious threat. The creature can otherwise act normally, and feels no compunction to obey or ignore the target; it simply assumes none of the target's actions are dangerous or malicious unless shown evidence that proves otherwise.</p>",
    "spellDuration": "1 minute/level (D)",
    "spellEffect": "",
    "spellArea": "",
    "showInQuickbar": false,
    "spellPoints": {
      "cost": "1 + @sl"
    },
    "domain": false,
    "slotCost": 1
  },
  "flags": {},
  "img": "systems/pf1/icons/misc/magic-swirl.png",
  "effects": []
}