{
  "_id": "rej243r3een201a7",
  "name": "Maw of Chaos",
  "permission": {
    "default": 0
  },
  "type": "spell",
  "data": {
    "description": {
      "value": "<div class=\"spell-description\">\n  <p>\n    <strong>School</strong>&nbsp;conjuration&nbsp;(teleportation)&nbsp;[chaotic];\n    <strong>Level</strong>&nbsp;cleric/oracle 8, sorcerer/wizard 8;\n    \n    \n    \n    \n  </p>\n  <p>\n    <strong>Casting Time</strong>&nbsp;1 standard action<br>\n    <strong>Components</strong>&nbsp;V, S, F/DF (a gold-plated, cold iron ring that was forged in the Abyss)<br>\n  </p>\n  <p>\n    <strong>Range</strong>&nbsp;close (25 ft. + 5 ft./2 levels)<br>\n    <strong>Area</strong>&nbsp;5-foot-radius spread<br>\n    \n    \n    <strong>Duration</strong>&nbsp;concentration (maximum 1 round/level)<br>\n    <strong>Saving Throw</strong>&nbsp;see text;&nbsp;<strong>Spell Resistance</strong>&nbsp;yes<br>\n  </p>\n  <h2>Description</h2>\n  <p>This spell creates a rip in reality that plunges into the interspatial vortices that constantly churn with the raw destructive chaos of the Abyss. Each round at the beginning of your turn, the <i>Maw of Chaos</i> attempts a drag combat maneuver check against every creature within 40 feet, using your caster level plus your primary spellcasting ability modifier in place of a CMB. If a creature is dragged into a <i>Maw of Chaos</i>, the area erupts in a surge of chaotic energy and the creature takes 1d6 points of damage per caster level. Only one such eruption can occur per round.  Creatures dragged adjacent to the <i>Maw of Chaos</i> become entangled by the frayed strands of reality being torn apart at the rim of the <i>Maw of Chaos</i>. Escape requires a successful Escape Artist check or grapple check against a DC equal to 10 plus the spell's save DC. Every creature without the chaotic subtype that ends its turn adjacent to a <i>Maw of Chaos</i> takes 2 points of damage to each ability score. Creatures with the lawful subtype take double this amount of damage; creatures with the chaotic subtype take no damage.  Calling, summoning, and teleportation effects used within 30 feet of the <i>Maw of Chaos</i> or that cause a creature to appear within 30 feet of a <i>Maw of Chaos</i> are redirected, causing the creature to arrive adjacent to the <i>Maw of Chaos</i> rather than at its intended destination. Unattended objects (including dead bodies) adjacent to the <i>Maw of Chaos</i> are drawn into it and affected as by <i>disintegrate</i> at the beginning of the caster's next turn.</p>\n</div>\n",
      "chat": "",
      "unidentified": ""
    },
    "tags": [],
    "activation": {
      "cost": 1,
      "type": "standard"
    },
    "unchainedAction": {
      "activation": {
        "cost": 2,
        "type": "action"
      }
    },
    "duration": {
      "value": null,
      "units": ""
    },
    "target": {
      "value": ""
    },
    "range": {
      "value": null,
      "units": "close",
      "maxIncrements": 1,
      "minValue": null,
      "minUnits": ""
    },
    "uses": {
      "value": 0,
      "max": 0,
      "per": "",
      "autoDeductCharges": true,
      "autoDeductChargesCost": "1"
    },
    "measureTemplate": {
      "type": "",
      "size": "0",
      "overrideColor": false,
      "customColor": "",
      "overrideTexture": false,
      "customTexture": ""
    },
    "attackName": "",
    "actionType": "spellsave",
    "attackBonus": "",
    "critConfirmBonus": "",
    "damage": {
      "parts": [],
      "critParts": [],
      "nonCritParts": []
    },
    "attackParts": [],
    "formula": "",
    "ability": {
      "attack": "",
      "damage": "",
      "damageMult": 1,
      "critRange": 20,
      "critMult": 2
    },
    "save": {
      "dc": "0",
      "type": "",
      "description": "see text"
    },
    "effectNotes": "",
    "attackNotes": "",
    "soundEffect": "",
    "links": {
      "children": []
    },
    "learnedAt": {
      "class": [
        [
          "sorcerer/wizard",
          8
        ],
        [
          "cleric/oracle",
          8
        ]
      ],
      "domain": [],
      "subDomain": [],
      "elementalSchool": [],
      "bloodline": []
    },
    "level": 8,
    "clOffset": 0,
    "slOffset": 0,
    "school": "con",
    "subschool": "teleportation",
    "types": "chaotic",
    "nonlethal": false,
    "conditionals": [],
    "components": {
      "value": "",
      "verbal": true,
      "somatic": true,
      "material": false,
      "focus": true,
      "divineFocus": 3
    },
    "castTime": "",
    "materials": {
      "value": "",
      "focus": "a gold-plated, cold iron ring that was forged in the Abyss",
      "gpValue": 0
    },
    "spellbook": "primary",
    "preparation": {
      "preparedAmount": 0,
      "maxAmount": 0,
      "autoDeductCharges": true,
      "spontaneousPrepared": true,
      "mode": "prepared"
    },
    "atWill": false,
    "sr": true,
    "shortDescription": "<p>This spell creates a rip in reality that plunges into the interspatial vortices that constantly churn with the raw destructive chaos of the Abyss. Each round at the beginning of your turn, the <i>Maw of Chaos</i> attempts a drag combat maneuver check against every creature within 40 feet, using your caster level plus your primary spellcasting ability modifier in place of a CMB. If a creature is dragged into a <i>Maw of Chaos</i>, the area erupts in a surge of chaotic energy and the creature takes 1d6 points of damage per caster level. Only one such eruption can occur per round.  Creatures dragged adjacent to the <i>Maw of Chaos</i> become entangled by the frayed strands of reality being torn apart at the rim of the <i>Maw of Chaos</i>. Escape requires a successful Escape Artist check or grapple check against a DC equal to 10 plus the spell's save DC. Every creature without the chaotic subtype that ends its turn adjacent to a <i>Maw of Chaos</i> takes 2 points of damage to each ability score. Creatures with the lawful subtype take double this amount of damage; creatures with the chaotic subtype take no damage.  Calling, summoning, and teleportation effects used within 30 feet of the <i>Maw of Chaos</i> or that cause a creature to appear within 30 feet of a <i>Maw of Chaos</i> are redirected, causing the creature to arrive adjacent to the <i>Maw of Chaos</i> rather than at its intended destination. Unattended objects (including dead bodies) adjacent to the <i>Maw of Chaos</i> are drawn into it and affected as by <i>disintegrate</i> at the beginning of the caster's next turn.</p>",
    "spellDuration": "concentration (maximum 1 round/level)",
    "spellEffect": "",
    "spellArea": "5-foot-radius spread",
    "showInQuickbar": false,
    "spellPoints": {
      "cost": "1 + @sl"
    },
    "domain": false,
    "slotCost": 1
  },
  "flags": {},
  "img": "systems/pf1/icons/misc/magic-swirl.png",
  "effects": []
}