{
  "_id": "esugpfcs3zwbujt1",
  "name": "Microcosm",
  "permission": {
    "default": 0
  },
  "type": "spell",
  "data": {
    "description": {
      "value": "<div class=\"spell-description\">\n  <p>\n    <strong>School</strong>&nbsp;illusion&nbsp;(phantasm)&nbsp;[mind-affecting];\n    <strong>Level</strong>&nbsp;psychic 9;\n    \n    \n    \n    <strong>Bloodline</strong>&nbsp;Psychic 9;\n  </p>\n  <p>\n    <strong>Casting Time</strong>&nbsp;1 standard action<br>\n    <strong>Components</strong>&nbsp;V, S<br>\n  </p>\n  <p>\n    <strong>Range</strong>&nbsp;close (25 ft. + 5 ft./2 levels)<br>\n    \n    <strong>Targets</strong>&nbsp;one or more creatures<br>\n    \n    <strong>Duration</strong>&nbsp;permanent<br>\n    <strong>Saving Throw</strong>&nbsp;Will partial (see text);&nbsp;<strong>Spell Resistance</strong>&nbsp;yes<br>\n  </p>\n  <h2>Description</h2>\n  <p>You plunge the targets' minds into a veiled immersive mindscape (see page 235) of your own design. You can affect any number of creatures whose combined total Hit Dice do not exceed 30. A creature of 10 HD or fewer gets no saving throw, one of 11-15 HD escapes after 10 minutes per level you possess on a successful save, and a creature of 16 HD or more negates the effect on a successful save. Given time, the bodies of creatures  whose minds are trapped in a <i>microcosm</i> can die of starvation and thirst without care. Creatures can neither escape from nor enter a <i>microcosm</i>, even via a <i>mindscape door</i>. <i>Microcosm</i> can be ended only by <i>miracle</i> or <i>wish</i>.  Creatures inside a <i>microcosm</i> can be affected by mind-affecting effects targeted against their real bodies. However, they perceive them as natural events within their inner mindscape. Multiple creatures affected by the same <i>microcosm</i> can interact with one another within the mindscape.</p>\n</div>\n",
      "chat": "",
      "unidentified": ""
    },
    "tags": [],
    "activation": {
      "cost": 1,
      "type": "standard"
    },
    "unchainedAction": {
      "activation": {
        "cost": 2,
        "type": "action"
      }
    },
    "duration": {
      "value": null,
      "units": ""
    },
    "target": {
      "value": "one or more creatures"
    },
    "range": {
      "value": null,
      "units": "close",
      "maxIncrements": 1,
      "minValue": null,
      "minUnits": ""
    },
    "uses": {
      "value": 0,
      "max": 0,
      "per": "",
      "autoDeductCharges": true,
      "autoDeductChargesCost": "1"
    },
    "measureTemplate": {
      "type": "",
      "size": "0",
      "overrideColor": false,
      "customColor": "",
      "overrideTexture": false,
      "customTexture": ""
    },
    "attackName": "",
    "actionType": "spellsave",
    "attackBonus": "",
    "critConfirmBonus": "",
    "damage": {
      "parts": [],
      "critParts": [],
      "nonCritParts": []
    },
    "attackParts": [],
    "formula": "",
    "ability": {
      "attack": "",
      "damage": "",
      "damageMult": 1,
      "critRange": 20,
      "critMult": 2
    },
    "save": {
      "dc": "0",
      "type": "will",
      "description": "Will partial (see text)"
    },
    "effectNotes": "",
    "attackNotes": "",
    "soundEffect": "",
    "links": {
      "children": []
    },
    "learnedAt": {
      "class": [
        [
          "psychic",
          9
        ]
      ],
      "domain": [],
      "subDomain": [],
      "elementalSchool": [],
      "bloodline": [
        [
          "Psychic",
          9
        ]
      ]
    },
    "level": 9,
    "clOffset": 0,
    "slOffset": 0,
    "school": "ill",
    "subschool": "phantasm",
    "types": "mind-affecting",
    "nonlethal": false,
    "conditionals": [],
    "components": {
      "value": "",
      "verbal": true,
      "somatic": true,
      "material": false,
      "focus": false,
      "divineFocus": 0
    },
    "castTime": "",
    "materials": {
      "value": "",
      "focus": "",
      "gpValue": 0
    },
    "spellbook": "primary",
    "preparation": {
      "preparedAmount": 0,
      "maxAmount": 0,
      "autoDeductCharges": true,
      "spontaneousPrepared": true,
      "mode": "prepared"
    },
    "atWill": false,
    "sr": true,
    "shortDescription": "<p>You plunge the targets' minds into a veiled immersive mindscape (see page 235) of your own design. You can affect any number of creatures whose combined total Hit Dice do not exceed 30. A creature of 10 HD or fewer gets no saving throw, one of 11-15 HD escapes after 10 minutes per level you possess on a successful save, and a creature of 16 HD or more negates the effect on a successful save. Given time, the bodies of creatures  whose minds are trapped in a <i>microcosm</i> can die of starvation and thirst without care. Creatures can neither escape from nor enter a <i>microcosm</i>, even via a <i>mindscape door</i>. <i>Microcosm</i> can be ended only by <i>miracle</i> or <i>wish</i>.  Creatures inside a <i>microcosm</i> can be affected by mind-affecting effects targeted against their real bodies. However, they perceive them as natural events within their inner mindscape. Multiple creatures affected by the same <i>microcosm</i> can interact with one another within the mindscape.</p>",
    "spellDuration": "permanent",
    "spellEffect": "",
    "spellArea": "",
    "showInQuickbar": false,
    "spellPoints": {
      "cost": "1 + @sl"
    },
    "domain": false,
    "slotCost": 1
  },
  "flags": {},
  "img": "systems/pf1/icons/misc/magic-swirl.png",
  "effects": []
}