{
  "_id": "d5lo6ttj0m6folux",
  "name": "Peacebond, Greater",
  "permission": {
    "default": 0
  },
  "type": "spell",
  "data": {
    "description": {
      "value": "<div class=\"spell-description\">\n  <p>\n    <strong>School</strong>&nbsp;abjuration;\n    <strong>Level</strong>&nbsp;inquisitor 4, occultist 4, psychic 5, sorcerer/wizard 5, witch 5;\n    \n    \n    \n    \n  </p>\n  <p>\n    <strong>Casting Time</strong>&nbsp;1 standard action<br>\n    <strong>Components</strong>&nbsp;S<br>\n  </p>\n  <p>\n    <strong>Range</strong>&nbsp;medium (100 ft. + 10 ft./level)<br>\n    \n    <strong>Targets</strong>&nbsp;up to one weapon/level, no two of which can be more than 30 ft. apart<br>\n    \n    <strong>Duration</strong>&nbsp;1 minute/level<br>\n      <strong>Saving Throw</strong>&nbsp;Will negates (object);&nbsp;\n      <strong>Spell Resistance</strong>&nbsp;yes<br>\n  </p>\n  <h2>Description</h2>\n  <p>If a target weapon is sheathed or slung as the spell is cast, this functions as @Compendium[pf1.spells.7vdlcav97p98hgy5]{Peacebond}, locking the target's weapon in place on its owner's body or within the weapon's sheath or holster. Anyone who then tries to draw the weapon must spend a standard action and succeed at a Strength check to do so, provoking attacks of opportunity whether the attempt succeeds or fails. The DC for Strength checks required by this spell is equal to the spell's save DC. If a target weapon is not currently sheathed or slung as the spell is cast, the weapon immediately attempts to sheathe itself, and its wielder must succeed at a Strength check to prevent it from doing so. Once sheathed or slung in this way, the weapon is difficult to draw, as previously noted above. Unattended weapons that are not currently sheathed or slung are anchored in place by the spell, and require a successful Strength check to pick up; each attempt requires a standard action. If the wielder doesn't have a sheath or sling available for the weapon, failure on the Strength check causes the weapon to fall to the ground, at which point it requires a Strength check to pick up, as with unattended weapons.</p>\n</div>\n",
      "chat": "",
      "unidentified": ""
    },
    "tags": [],
    "activation": {
      "cost": 1,
      "type": "standard"
    },
    "unchainedAction": {
      "activation": {
        "cost": 2,
        "type": "action"
      }
    },
    "duration": {
      "value": null,
      "units": ""
    },
    "target": {
      "value": "up to one weapon/level, no two of which can be more than 30 ft. apart"
    },
    "range": {
      "value": null,
      "units": "medium",
      "maxIncrements": 1,
      "minValue": null,
      "minUnits": ""
    },
    "uses": {
      "value": 0,
      "max": 0,
      "per": "",
      "autoDeductCharges": true,
      "autoDeductChargesCost": "1"
    },
    "measureTemplate": {
      "type": "",
      "size": "0",
      "overrideColor": false,
      "customColor": "",
      "overrideTexture": false,
      "customTexture": ""
    },
    "attackName": "",
    "actionType": "spellsave",
    "attackBonus": "",
    "critConfirmBonus": "",
    "damage": {
      "parts": [],
      "critParts": [],
      "nonCritParts": []
    },
    "attackParts": [],
    "formula": "",
    "ability": {
      "attack": "",
      "damage": "",
      "damageMult": 1,
      "critRange": 20,
      "critMult": 2
    },
    "save": {
      "dc": "0",
      "type": "will",
      "description": "Will negates (object)"
    },
    "effectNotes": "",
    "attackNotes": "",
    "soundEffect": "",
    "links": {
      "children": []
    },
    "learnedAt": {
      "class": [
        [
          "sorcerer/wizard",
          5
        ],
        [
          "witch",
          5
        ],
        [
          "inquisitor",
          4
        ],
        [
          "psychic",
          5
        ],
        [
          "occultist",
          4
        ]
      ],
      "domain": [],
      "subDomain": [],
      "elementalSchool": [],
      "bloodline": []
    },
    "level": 5,
    "clOffset": 0,
    "slOffset": 0,
    "school": "abj",
    "subschool": "",
    "types": "",
    "nonlethal": false,
    "conditionals": [],
    "components": {
      "value": "",
      "verbal": false,
      "somatic": true,
      "material": false,
      "focus": false,
      "divineFocus": 0
    },
    "castTime": "",
    "materials": {
      "value": "",
      "focus": "",
      "gpValue": 0
    },
    "spellbook": "",
    "preparation": {
      "preparedAmount": 0,
      "maxAmount": 0,
      "autoDeductCharges": true,
      "spontaneousPrepared": true,
      "mode": "prepared"
    },
    "atWill": false,
    "sr": true,
    "shortDescription": "<p>If a target weapon is sheathed or slung as the spell is cast, this functions as @Compendium[pf1.spells.7vdlcav97p98hgy5]{Peacebond}, locking the target's weapon in place on its owner's body or within the weapon's sheath or holster. Anyone who then tries to draw the weapon must spend a standard action and succeed at a Strength check to do so, provoking attacks of opportunity whether the attempt succeeds or fails. The DC for Strength checks required by this spell is equal to the spell's save DC. If a target weapon is not currently sheathed or slung as the spell is cast, the weapon immediately attempts to sheathe itself, and its wielder must succeed at a Strength check to prevent it from doing so. Once sheathed or slung in this way, the weapon is difficult to draw, as previously noted above. Unattended weapons that are not currently sheathed or slung are anchored in place by the spell, and require a successful Strength check to pick up; each attempt requires a standard action. If the wielder doesn't have a sheath or sling available for the weapon, failure on the Strength check causes the weapon to fall to the ground, at which point it requires a Strength check to pick up, as with unattended weapons.</p>",
    "spellDuration": "1 minute/level",
    "spellEffect": "",
    "spellArea": "",
    "showInQuickbar": false,
    "spellPoints": {
      "cost": "1 + @sl"
    },
    "domain": false,
    "slotCost": 1,
    "identifiedName": "Peacebond, Greater"
  },
  "flags": {},
  "img": "systems/pf1/icons/misc/magic-swirl.png",
  "effects": []
}