{
  "_id": "6efjgs1qvmj6yxqv",
  "name": "Phantasmal Killer",
  "permission": {
    "default": 0
  },
  "type": "spell",
  "data": {
    "description": {
      "value": "<div class=\"spell-description\">\n  <p>\n    <strong>School</strong>&nbsp;illusion&nbsp;(phantasm)&nbsp;[fear, mind-affecting];\n    <strong>Level</strong>&nbsp;bloodrager 4, magus 4, medium 3, mesmerist 4, psychic 4, sorcerer/wizard 4, spiritualist 4, witch 4;\n    <strong>Domain</strong>&nbsp;Madness 6;\n    <strong>Subdomain</strong>&nbsp;Nightmare 4;\n    \n    \n  </p>\n  <p>\n    <strong>Casting Time</strong>&nbsp;1 standard action<br>\n    <strong>Components</strong>&nbsp;V, S<br>\n  </p>\n  <p>\n    <strong>Range</strong>&nbsp;medium (100 ft. + 10 ft./level)<br>\n    \n    <strong>Targets</strong>&nbsp;one living creature<br>\n    \n    <strong>Duration</strong>&nbsp;instantaneous<br>\n    <strong>Saving Throw</strong>&nbsp;Will disbelief, then Fortitude partial; see text;&nbsp;<strong>Spell Resistance</strong>&nbsp;yes<br>\n  </p>\n  <h2>Description</h2>\n  <p>You create a phantasmal image of the most fearsome creature imaginable to the subject simply by forming the fears of the subject's subconscious mind into something that its conscious mind can visualize: this most horrible beast. Only the spell's subject can see the <i>phantasmal killer</i>. You see only a vague shape. The target first gets a Will save to recognize the image as unreal. If that save fails, the phantasm touches the subject, and the subject must succeed on a Fortitude save or die from fear.</p><p>Even if the Fortitude save is successful, the subject takes 3d6 points of damage.</p><p>If the subject of a <i>phantasmal killer</i> attack succeeds in disbelieving and possesses telepathy or is wearing a <i>helm of telepathy</i>, the beast can be turned upon you. You must then disbelieve it or become subject to its deadly fear attack.</p>\n</div>\n",
      "chat": "",
      "unidentified": ""
    },
    "tags": [],
    "activation": {
      "cost": 1,
      "type": "standard"
    },
    "unchainedAction": {
      "activation": {
        "cost": 2,
        "type": "action"
      }
    },
    "duration": {
      "value": null,
      "units": ""
    },
    "target": {
      "value": "one living creature"
    },
    "range": {
      "value": null,
      "units": "medium",
      "maxIncrements": 1,
      "minValue": null,
      "minUnits": ""
    },
    "uses": {
      "value": 0,
      "max": 0,
      "per": "",
      "autoDeductCharges": true,
      "autoDeductChargesCost": "1"
    },
    "measureTemplate": {
      "type": "",
      "size": "0",
      "overrideColor": false,
      "customColor": "",
      "overrideTexture": false,
      "customTexture": ""
    },
    "attackName": "",
    "actionType": "spellsave",
    "attackBonus": "",
    "critConfirmBonus": "",
    "damage": {
      "parts": [],
      "critParts": [],
      "nonCritParts": []
    },
    "attackParts": [],
    "formula": "",
    "ability": {
      "attack": "",
      "damage": "",
      "damageMult": 1,
      "critRange": 20,
      "critMult": 2
    },
    "save": {
      "dc": "0",
      "type": "fort",
      "description": "Will disbelief, then Fortitude partial; see text"
    },
    "effectNotes": "",
    "attackNotes": "",
    "soundEffect": "",
    "links": {
      "children": []
    },
    "learnedAt": {
      "class": [
        [
          "sorcerer/wizard",
          4
        ],
        [
          "witch",
          4
        ],
        [
          "magus",
          4
        ],
        [
          "bloodrager",
          4
        ],
        [
          "psychic",
          4
        ],
        [
          "medium",
          3
        ],
        [
          "mesmerist",
          4
        ],
        [
          "spiritualist",
          4
        ]
      ],
      "domain": [
        [
          "Madness",
          6
        ]
      ],
      "subDomain": [
        [
          "Nightmare",
          4
        ]
      ],
      "elementalSchool": [],
      "bloodline": []
    },
    "level": 4,
    "clOffset": 0,
    "slOffset": 0,
    "school": "ill",
    "subschool": "phantasm",
    "types": "fear, mind-affecting",
    "nonlethal": false,
    "conditionals": [],
    "components": {
      "value": "",
      "verbal": true,
      "somatic": true,
      "material": false,
      "focus": false,
      "divineFocus": 0
    },
    "castTime": "",
    "materials": {
      "value": "",
      "focus": "",
      "gpValue": 0
    },
    "spellbook": "primary",
    "preparation": {
      "preparedAmount": 0,
      "maxAmount": 0,
      "autoDeductCharges": true,
      "spontaneousPrepared": true,
      "mode": "prepared"
    },
    "atWill": false,
    "sr": true,
    "shortDescription": "<p>You create a phantasmal image of the most fearsome creature imaginable to the subject simply by forming the fears of the subject's subconscious mind into something that its conscious mind can visualize: this most horrible beast. Only the spell's subject can see the <i>phantasmal killer</i>. You see only a vague shape. The target first gets a Will save to recognize the image as unreal. If that save fails, the phantasm touches the subject, and the subject must succeed on a Fortitude save or die from fear.</p><p>Even if the Fortitude save is successful, the subject takes 3d6 points of damage.</p><p>If the subject of a <i>phantasmal killer</i> attack succeeds in disbelieving and possesses telepathy or is wearing a <i>helm of telepathy</i>, the beast can be turned upon you. You must then disbelieve it or become subject to its deadly fear attack.</p>",
    "spellDuration": "instantaneous",
    "spellEffect": "",
    "spellArea": "",
    "showInQuickbar": false,
    "spellPoints": {
      "cost": "1 + @sl"
    },
    "domain": false,
    "slotCost": 1
  },
  "flags": {},
  "img": "systems/pf1/icons/misc/magic-swirl.png",
  "effects": []
}