{
  "_id": "21ksduh3fm41vmjk",
  "name": "Prying Eyes, Greater",
  "permission": {
    "default": 0
  },
  "type": "spell",
  "data": {
    "description": {
      "value": "<div class=\"spell-description\">\n  <p>\n    <strong>School</strong>&nbsp;divination;\n    <strong>Level</strong>&nbsp;psychic 8, sorcerer/wizard 8, witch 8;\n    \n    \n    \n    <strong>Bloodline</strong>&nbsp;Starsoul 8;\n  </p>\n  <p>\n    <strong>Casting Time</strong>&nbsp;1 minute<br>\n    <strong>Components</strong>&nbsp;V, S, M (a handful of crystal marbles)<br>\n  </p>\n  <p>\n    <strong>Range</strong>&nbsp;1 miles<br>\n    \n    \n    <strong>Effect</strong>&nbsp;10 or more levitating eyes<br>\n    <strong>Duration</strong>&nbsp;1 hour/level; see text<br>\n    <strong>Saving Throw</strong>&nbsp;none;&nbsp;<strong>Spell Resistance</strong>&nbsp;no<br>\n  </p>\n  <h2>Description</h2>\n  <p>This spell functions like <i>prying eyes,</i> except that the eyes can see all things as they actually are, just as if they had <i>true seeing</i> with a range of 120 feet. Thus, they can navigate darkened areas at normal speed. Also, a <i>greater prying eye</i>'s maximum Perception modifier is +25 instead of +15.</p>\n</div>\n",
      "chat": "",
      "unidentified": ""
    },
    "tags": [],
    "activation": {
      "cost": 1,
      "type": "minute"
    },
    "unchainedAction": {
      "activation": {
        "cost": 1,
        "type": "minute"
      }
    },
    "duration": {
      "value": null,
      "units": ""
    },
    "target": {
      "value": ""
    },
    "range": {
      "value": 1,
      "units": "mi",
      "maxIncrements": 1,
      "minValue": null,
      "minUnits": ""
    },
    "uses": {
      "value": 0,
      "max": 0,
      "per": "",
      "autoDeductCharges": true,
      "autoDeductChargesCost": "1"
    },
    "measureTemplate": {
      "type": "",
      "size": "0",
      "overrideColor": false,
      "customColor": "",
      "overrideTexture": false,
      "customTexture": ""
    },
    "attackName": "",
    "actionType": "other",
    "attackBonus": "",
    "critConfirmBonus": "",
    "damage": {
      "parts": [],
      "critParts": [],
      "nonCritParts": []
    },
    "attackParts": [],
    "formula": "",
    "ability": {
      "attack": "",
      "damage": "",
      "damageMult": 1,
      "critRange": 20,
      "critMult": 2
    },
    "save": {
      "dc": "0",
      "type": "",
      "description": ""
    },
    "effectNotes": "",
    "attackNotes": "",
    "soundEffect": "",
    "links": {
      "children": []
    },
    "learnedAt": {
      "class": [
        [
          "sorcerer/wizard",
          8
        ],
        [
          "witch",
          8
        ],
        [
          "psychic",
          8
        ]
      ],
      "domain": [],
      "subDomain": [],
      "elementalSchool": [],
      "bloodline": [
        [
          "Starsoul",
          8
        ]
      ]
    },
    "level": 8,
    "clOffset": 0,
    "slOffset": 0,
    "school": "div",
    "subschool": "",
    "types": "",
    "nonlethal": false,
    "conditionals": [],
    "components": {
      "value": "",
      "verbal": true,
      "somatic": true,
      "material": true,
      "focus": false,
      "divineFocus": 0
    },
    "castTime": "",
    "materials": {
      "value": "a handful of crystal marbles",
      "focus": "",
      "gpValue": 0
    },
    "spellbook": "primary",
    "preparation": {
      "preparedAmount": 0,
      "maxAmount": 0,
      "autoDeductCharges": true,
      "spontaneousPrepared": true,
      "mode": "prepared"
    },
    "atWill": false,
    "sr": false,
    "shortDescription": "<p>This spell functions like <i>prying eyes,</i> except that the eyes can see all things as they actually are, just as if they had <i>true seeing</i> with a range of 120 feet. Thus, they can navigate darkened areas at normal speed. Also, a <i>greater prying eye</i>'s maximum Perception modifier is +25 instead of +15.</p>",
    "spellDuration": "1 hour/level; see text",
    "spellEffect": "10 or more levitating eyes",
    "spellArea": "",
    "showInQuickbar": false,
    "spellPoints": {
      "cost": "1 + @sl"
    },
    "domain": false,
    "slotCost": 1
  },
  "flags": {},
  "img": "systems/pf1/icons/misc/magic-swirl.png",
  "effects": []
}