{
  "_id": "vj453xqbi6jo71u9",
  "name": "Rite of Bodily Purity",
  "permission": {
    "default": 0
  },
  "type": "spell",
  "data": {
    "description": {
      "value": "<div class=\"spell-description\">\n  <p>\n    <strong>School</strong>&nbsp;abjuration&nbsp;[meditative];\n    <strong>Level</strong>&nbsp;cleric/oracle 1, druid 1, hunter 1, paladin 1, ranger 1, shaman 1;\n    \n    \n    \n    \n  </p>\n  <p>\n    <strong>Casting Time</strong>&nbsp;1 hour<br>\n    <strong>Components</strong>&nbsp;V, M (soothing incense worth 100 gp)<br>\n  </p>\n  <p>\n    <strong>Range</strong>&nbsp;personal<br>\n    \n    <strong>Targets</strong>&nbsp;you<br>\n    \n    <strong>Duration</strong>&nbsp;24 hours or until discharged<br>\n  </p>\n  <h2>Description</h2>\n  <p>You energize your body's immune system, improving your ability to resist toxins and ailments. You gain a +2 resistance bonus on saving throws to resist diseases, drugs, and poisons. Additionally, at any time during the spell's duration, whenever you fail a saving throw to resist a disease, drug, or poison, you can expend the spell's remaining duration as an immediate action in order to reroll that saving throw. You must take the second result, even if it's worse. The +2 resistance bonus granted by the spell applies to the reroll, but after you make this reroll, the spell ends.</p>\n</div>\n",
      "chat": "",
      "unidentified": ""
    },
    "tags": [],
    "activation": {
      "cost": 1,
      "type": "hour"
    },
    "unchainedAction": {
      "activation": {
        "cost": 1,
        "type": "hour"
      }
    },
    "duration": {
      "value": null,
      "units": ""
    },
    "target": {
      "value": "you"
    },
    "range": {
      "value": null,
      "units": "personal",
      "maxIncrements": 1,
      "minValue": null,
      "minUnits": ""
    },
    "uses": {
      "value": 0,
      "max": 0,
      "per": "",
      "autoDeductCharges": true,
      "autoDeductChargesCost": "1"
    },
    "measureTemplate": {
      "type": "",
      "size": "0",
      "overrideColor": false,
      "customColor": "",
      "overrideTexture": false,
      "customTexture": ""
    },
    "attackName": "",
    "actionType": "",
    "attackBonus": "",
    "critConfirmBonus": "",
    "damage": {
      "parts": [],
      "critParts": [],
      "nonCritParts": []
    },
    "attackParts": [],
    "formula": "",
    "ability": {
      "attack": "",
      "damage": "",
      "damageMult": 1,
      "critRange": 20,
      "critMult": 2
    },
    "save": {
      "dc": "0",
      "type": "",
      "description": ""
    },
    "effectNotes": "",
    "attackNotes": "",
    "soundEffect": "",
    "links": {
      "children": []
    },
    "learnedAt": {
      "class": [
        [
          "cleric/oracle",
          1
        ],
        [
          "druid",
          1
        ],
        [
          "ranger",
          1
        ],
        [
          "paladin",
          1
        ],
        [
          "shaman",
          1
        ],
        [
          "hunter",
          1
        ]
      ],
      "domain": [],
      "subDomain": [],
      "elementalSchool": [],
      "bloodline": []
    },
    "level": 1,
    "clOffset": 0,
    "slOffset": 0,
    "school": "abj",
    "subschool": "",
    "types": "meditative",
    "nonlethal": false,
    "conditionals": [],
    "components": {
      "value": "",
      "verbal": true,
      "somatic": false,
      "material": true,
      "focus": false,
      "divineFocus": 0
    },
    "castTime": "",
    "materials": {
      "value": "soothing incense worth 100 gp",
      "focus": "",
      "gpValue": 100
    },
    "spellbook": "",
    "preparation": {
      "preparedAmount": 0,
      "maxAmount": 0,
      "autoDeductCharges": false,
      "spontaneousPrepared": false,
      "mode": "prepared"
    },
    "atWill": false,
    "sr": false,
    "shortDescription": "<p>You energize your body's immune system, improving your ability to resist toxins and ailments. You gain a +2 resistance bonus on saving throws to resist diseases, drugs, and poisons. Additionally, at any time during the spell's duration, whenever you fail a saving throw to resist a disease, drug, or poison, you can expend the spell's remaining duration as an immediate action in order to reroll that saving throw. You must take the second result, even if it's worse. The +2 resistance bonus granted by the spell applies to the reroll, but after you make this reroll, the spell ends.</p>",
    "spellDuration": "24 hours or until discharged",
    "spellEffect": "",
    "spellArea": "",
    "showInQuickbar": false,
    "spellPoints": {
      "cost": ""
    },
    "domain": false,
    "slotCost": 1
  },
  "flags": {},
  "img": "systems/pf1/icons/misc/magic-swirl.png",
  "effects": []
}