{
  "_id": "rczytkwh8xn1btvx",
  "name": "Shadow Jaunt",
  "permission": {
    "default": 0
  },
  "type": "spell",
  "data": {
    "description": {
      "value": "<div class=\"spell-description\">\n  <p>\n    <strong>School</strong>&nbsp;illusion&nbsp;(shadow)&nbsp;[shadow];\n    <strong>Level</strong>&nbsp;antipaladin 3, bard 4, sorcerer/wizard 4, spiritualist 4, summoner 4, unchained Summoner 4;\n    \n    \n    \n    \n  </p>\n  <p>\n    <strong>Casting Time</strong>&nbsp;1 standard action<br>\n    <strong>Components</strong>&nbsp;V, S<br>\n  </p>\n  <p>\n    <strong>Range</strong>&nbsp;close (25 ft. + 5 ft./2 levels)<br>\n    \n    <strong>Targets</strong>&nbsp;you<br>\n    \n    <strong>Duration</strong>&nbsp;instantaneous and 1 round; see text<br>\n    <strong>Saving Throw</strong>&nbsp;none;&nbsp;<strong>Spell Resistance</strong>&nbsp;no<br>\n  </p>\n  <h2>Description</h2>\n  <p>You instantly travel between shadows to a point within range, though line of sight is not necessary. You leave a shadowy image of yourself in your former location and are wrapped in shadow at your destination; you can attempt a Stealth check as a free action to hide in your new location. Creatures that fail opposed Perception checks typically aren't aware that you are no longer at your former location unless they are familiar with this spell and identify the effects. Any attack on your former location causes the shadows to disperse, allowing any creature that can see your former location to immediately notice your disappearance. In addition, for 1 round, the envelope of shadow around you grants you concealment (20% miss chance). This spell doesn't function if there are no shadows within 5 feet of your starting location, and you can't travel through your own shadow. If you choose a destination that has no shadows, you appear from the shadow closest to your destination that's within the spell's range (this could be your starting location if there are no other shadows within the spell's range).</p>\n</div>\n",
      "chat": "",
      "unidentified": ""
    },
    "tags": [],
    "activation": {
      "cost": 1,
      "type": "standard"
    },
    "unchainedAction": {
      "activation": {
        "cost": 2,
        "type": "action"
      }
    },
    "duration": {
      "value": null,
      "units": ""
    },
    "target": {
      "value": "you"
    },
    "range": {
      "value": null,
      "units": "close",
      "maxIncrements": 1,
      "minValue": null,
      "minUnits": ""
    },
    "uses": {
      "value": 0,
      "max": 0,
      "per": "",
      "autoDeductCharges": true,
      "autoDeductChargesCost": "1"
    },
    "measureTemplate": {
      "type": "",
      "size": "0",
      "overrideColor": false,
      "customColor": "",
      "overrideTexture": false,
      "customTexture": ""
    },
    "attackName": "",
    "actionType": "",
    "attackBonus": "",
    "critConfirmBonus": "",
    "damage": {
      "parts": [],
      "critParts": [],
      "nonCritParts": []
    },
    "attackParts": [],
    "formula": "",
    "ability": {
      "attack": "",
      "damage": "",
      "damageMult": 1,
      "critRange": 20,
      "critMult": 2
    },
    "save": {
      "dc": "0",
      "type": "",
      "description": ""
    },
    "effectNotes": "",
    "attackNotes": "",
    "soundEffect": "",
    "links": {
      "children": []
    },
    "learnedAt": {
      "class": [
        [
          "sorcerer/wizard",
          4
        ],
        [
          "bard",
          4
        ],
        [
          "summoner",
          4
        ],
        [
          "antipaladin",
          3
        ],
        [
          "spiritualist",
          4
        ],
        [
          "unchained Summoner",
          4
        ]
      ],
      "domain": [],
      "subDomain": [],
      "elementalSchool": [],
      "bloodline": []
    },
    "level": 4,
    "clOffset": 0,
    "slOffset": 0,
    "school": "ill",
    "subschool": "shadow",
    "types": "shadow",
    "nonlethal": false,
    "conditionals": [],
    "components": {
      "value": "",
      "verbal": true,
      "somatic": true,
      "material": false,
      "focus": false,
      "divineFocus": 0
    },
    "castTime": "",
    "materials": {
      "value": "",
      "focus": "",
      "gpValue": 0
    },
    "spellbook": "primary",
    "preparation": {
      "preparedAmount": 0,
      "maxAmount": 0,
      "autoDeductCharges": true,
      "spontaneousPrepared": true,
      "mode": "prepared"
    },
    "atWill": false,
    "sr": false,
    "shortDescription": "<p>You instantly travel between shadows to a point within range, though line of sight is not necessary. You leave a shadowy image of yourself in your former location and are wrapped in shadow at your destination; you can attempt a Stealth check as a free action to hide in your new location. Creatures that fail opposed Perception checks typically aren't aware that you are no longer at your former location unless they are familiar with this spell and identify the effects. Any attack on your former location causes the shadows to disperse, allowing any creature that can see your former location to immediately notice your disappearance. In addition, for 1 round, the envelope of shadow around you grants you concealment (20% miss chance). This spell doesn't function if there are no shadows within 5 feet of your starting location, and you can't travel through your own shadow. If you choose a destination that has no shadows, you appear from the shadow closest to your destination that's within the spell's range (this could be your starting location if there are no other shadows within the spell's range).</p>",
    "spellDuration": "instantaneous and 1 round; see text",
    "spellEffect": "",
    "spellArea": "",
    "showInQuickbar": false,
    "spellPoints": {
      "cost": "1 + @sl"
    },
    "domain": false,
    "slotCost": 1
  },
  "flags": {},
  "img": "systems/pf1/icons/misc/magic-swirl.png",
  "effects": []
}