{
  "_id": "luk9whzdczlyitok",
  "name": "Share Senses",
  "permission": {
    "default": 0
  },
  "type": "spell",
  "data": {
    "description": {
      "value": "<div class=\"spell-description\">\n  <p>\n    <strong>School</strong>&nbsp;divination&nbsp;(scrying);\n    <strong>Level</strong>&nbsp;medium 3, psychic 3, sorcerer/wizard 4, witch 3;\n    \n    \n    \n    \n  </p>\n  <p>\n    <strong>Casting Time</strong>&nbsp;1 full-round action<br>\n    <strong>Components</strong>&nbsp;V, S, M (a hair, scale, or feather from your familiar)<br>\n  </p>\n  <p>\n    <strong>Range</strong>&nbsp;long (400 ft. + 40 ft./level)<br>\n    \n    <strong>Targets</strong>&nbsp;your familiar<br>\n    \n    <strong>Duration</strong>&nbsp;1 minute/level (D)<br>\n    <strong>Saving Throw</strong>&nbsp;Will negates (harmless);&nbsp;<strong>Spell Resistance</strong>&nbsp;yes<br>\n  </p>\n  <h2>Description</h2>\n  <p>Spending a moment in meditation and conjuring an image of the creature to mind, you reshape your link with your familiar, causing it to functions like a scrying sensor. Upon this spell you can hear, see, or smell (any one, your choice) what your familiar is experiencing. You gain the benefits of any nonmagical special abilities your familiar has tied to the chosen sense (such as low-light vision or scent), but use your own Perception skill. You don't need line of sight or line of effect to your familiar, but you must have an active empathic link. You may change the sense you are sharing as a standard action. Unlike other scrying spells, share senses does not allow magically or supernaturally enhanced senses to work through it, and you are unable to see in magical or natural darkness unless your familiar possesses the ability to see in such conditions.</p><p>The sensory link with your familiar can be detected as though it were a scrying sensor.</p>\n</div>\n",
      "chat": "",
      "unidentified": ""
    },
    "tags": [],
    "activation": {
      "cost": 1,
      "type": "full"
    },
    "unchainedAction": {
      "activation": {
        "cost": 3,
        "type": "action"
      }
    },
    "duration": {
      "value": null,
      "units": ""
    },
    "target": {
      "value": "your familiar"
    },
    "range": {
      "value": null,
      "units": "long",
      "maxIncrements": 1,
      "minValue": null,
      "minUnits": ""
    },
    "uses": {
      "value": 0,
      "max": 0,
      "per": "",
      "autoDeductCharges": true,
      "autoDeductChargesCost": "1"
    },
    "measureTemplate": {
      "type": "",
      "size": "0",
      "overrideColor": false,
      "customColor": "",
      "overrideTexture": false,
      "customTexture": ""
    },
    "attackName": "",
    "actionType": "spellsave",
    "attackBonus": "",
    "critConfirmBonus": "",
    "damage": {
      "parts": [],
      "critParts": [],
      "nonCritParts": []
    },
    "attackParts": [],
    "formula": "",
    "ability": {
      "attack": "",
      "damage": "",
      "damageMult": 1,
      "critRange": 20,
      "critMult": 2
    },
    "save": {
      "dc": "0",
      "type": "will",
      "description": "Will negates (harmless)"
    },
    "effectNotes": "",
    "attackNotes": "",
    "soundEffect": "",
    "links": {
      "children": []
    },
    "learnedAt": {
      "class": [
        [
          "sorcerer/wizard",
          4
        ],
        [
          "witch",
          3
        ],
        [
          "psychic",
          3
        ],
        [
          "medium",
          3
        ]
      ],
      "domain": [],
      "subDomain": [],
      "elementalSchool": [],
      "bloodline": []
    },
    "level": 4,
    "clOffset": 0,
    "slOffset": 0,
    "school": "div",
    "subschool": "scrying",
    "types": "",
    "nonlethal": false,
    "conditionals": [],
    "components": {
      "value": "",
      "verbal": true,
      "somatic": true,
      "material": true,
      "focus": false,
      "divineFocus": 0
    },
    "castTime": "",
    "materials": {
      "value": "a hair, scale, or feather from your familiar",
      "focus": "",
      "gpValue": 0
    },
    "spellbook": "primary",
    "preparation": {
      "preparedAmount": 0,
      "maxAmount": 0,
      "autoDeductCharges": true,
      "spontaneousPrepared": true,
      "mode": "prepared"
    },
    "atWill": false,
    "sr": true,
    "shortDescription": "<p>Spending a moment in meditation and conjuring an image of the creature to mind, you reshape your link with your familiar, causing it to functions like a scrying sensor. Upon this spell you can hear, see, or smell (any one, your choice) what your familiar is experiencing. You gain the benefits of any nonmagical special abilities your familiar has tied to the chosen sense (such as low-light vision or scent), but use your own Perception skill. You don't need line of sight or line of effect to your familiar, but you must have an active empathic link. You may change the sense you are sharing as a standard action. Unlike other scrying spells, share senses does not allow magically or supernaturally enhanced senses to work through it, and you are unable to see in magical or natural darkness unless your familiar possesses the ability to see in such conditions.</p><p>The sensory link with your familiar can be detected as though it were a scrying sensor.</p>",
    "spellDuration": "1 minute/level (D)",
    "spellEffect": "",
    "spellArea": "",
    "showInQuickbar": false,
    "spellPoints": {
      "cost": "1 + @sl"
    },
    "domain": false,
    "slotCost": 1
  },
  "flags": {},
  "img": "systems/pf1/icons/misc/magic-swirl.png",
  "effects": []
}