{
  "_id": "ntcb8hjlxps8v212",
  "name": "Sleepwalk",
  "permission": {
    "default": 0
  },
  "type": "spell",
  "data": {
    "description": {
      "value": "<div class=\"spell-description\">\n  <p>\n    <strong>School</strong>&nbsp;enchantment&nbsp;(compulsion)&nbsp;[mind-affecting];\n    <strong>Level</strong>&nbsp;inquisitor 4, mesmerist 4, psychic 4, witch 4;\n    \n    \n    \n    \n  </p>\n  <p>\n    <strong>Casting Time</strong>&nbsp;1 round<br>\n    <strong>Components</strong>&nbsp;V, S, M (a sprig of belladonna worth 100 gp)<br>\n  </p>\n  <p>\n    <strong>Range</strong>&nbsp;touch<br>\n    \n    <strong>Targets</strong>&nbsp;unconscious creature touched<br>\n    \n    <strong>Duration</strong>&nbsp;1 hour/level (D)<br>\n      <strong>Saving Throw</strong>&nbsp;Will negates; see text;&nbsp;\n      <strong>Spell Resistance</strong>&nbsp;yes<br>\n  </p>\n  <h2>Description</h2>\n  <p>You compel an unconscious or sleeping creature to rise and move in a half-awake state. The target creature staggers about if led or guided, but remains helpless for all other purposes.</p><p>The subject moves at half speed and is limited to a single move action each round. It is not capable of moving at a higher rate of speed or taking actions other than movement except by magical assistance, and automatically fails any Dexterity- or Strength-based skill checks. If the creature takes any damage while <i><i>sleepwalk</i>ing</i> it must make a new saving throw or the spell ends and the creature awakes (if it has more than 0 hit points). When the spell ends or is dismissed, the target remains unconscious and must be awoken normally. While <i>sleepwalk</i> allows an unconscious creature to move, it does not awaken the creature, nor does it stabilize or otherwise heal them. A disabled creature that moves about while under the effects of this spell does not start dying again as a result of this movement.</p>\n</div>\n",
      "chat": "",
      "unidentified": ""
    },
    "tags": [],
    "activation": {
      "cost": 1,
      "type": "round"
    },
    "unchainedAction": {
      "activation": {
        "cost": 3,
        "type": "action"
      }
    },
    "duration": {
      "value": null,
      "units": ""
    },
    "target": {
      "value": "unconscious creature touched"
    },
    "range": {
      "value": null,
      "units": "touch",
      "maxIncrements": 1,
      "minValue": null,
      "minUnits": ""
    },
    "uses": {
      "value": 0,
      "max": 0,
      "per": "",
      "autoDeductCharges": true,
      "autoDeductChargesCost": "1"
    },
    "measureTemplate": {
      "type": "",
      "size": "0",
      "overrideColor": false,
      "customColor": "",
      "overrideTexture": false,
      "customTexture": ""
    },
    "attackName": "",
    "actionType": "spellsave",
    "attackBonus": "",
    "critConfirmBonus": "",
    "damage": {
      "parts": [],
      "critParts": [],
      "nonCritParts": []
    },
    "attackParts": [],
    "formula": "",
    "ability": {
      "attack": "",
      "damage": "",
      "damageMult": 1,
      "critRange": 20,
      "critMult": 2
    },
    "save": {
      "dc": "0",
      "type": "will",
      "description": "Will negates; see text"
    },
    "effectNotes": "",
    "attackNotes": "",
    "soundEffect": "",
    "links": {
      "children": []
    },
    "learnedAt": {
      "class": [
        [
          "witch",
          4
        ],
        [
          "inquisitor",
          4
        ],
        [
          "psychic",
          4
        ],
        [
          "mesmerist",
          4
        ]
      ],
      "domain": [],
      "subDomain": [],
      "elementalSchool": [],
      "bloodline": []
    },
    "level": 4,
    "clOffset": 0,
    "slOffset": 0,
    "school": "enc",
    "subschool": "compulsion",
    "types": "mind-affecting",
    "nonlethal": false,
    "conditionals": [],
    "components": {
      "value": "",
      "verbal": true,
      "somatic": true,
      "material": true,
      "focus": false,
      "divineFocus": 0
    },
    "castTime": "",
    "materials": {
      "value": "a sprig of belladonna worth 100 gp",
      "focus": "",
      "gpValue": 100
    },
    "spellbook": "",
    "preparation": {
      "preparedAmount": 0,
      "maxAmount": 0,
      "autoDeductCharges": false,
      "spontaneousPrepared": false,
      "mode": "prepared"
    },
    "atWill": false,
    "sr": true,
    "shortDescription": "<p>You compel an unconscious or sleeping creature to rise and move in a half-awake state. The target creature staggers about if led or guided, but remains helpless for all other purposes.</p><p>The subject moves at half speed and is limited to a single move action each round. It is not capable of moving at a higher rate of speed or taking actions other than movement except by magical assistance, and automatically fails any Dexterity- or Strength-based skill checks. If the creature takes any damage while <i><i>sleepwalk</i>ing</i> it must make a new saving throw or the spell ends and the creature awakes (if it has more than 0 hit points). When the spell ends or is dismissed, the target remains unconscious and must be awoken normally. While <i>sleepwalk</i> allows an unconscious creature to move, it does not awaken the creature, nor does it stabilize or otherwise heal them. A disabled creature that moves about while under the effects of this spell does not start dying again as a result of this movement.</p>",
    "spellDuration": "1 hour/level (D)",
    "spellEffect": "",
    "spellArea": "",
    "showInQuickbar": false,
    "spellPoints": {
      "cost": ""
    },
    "domain": false,
    "slotCost": 1
  },
  "flags": {},
  "img": "systems/pf1/icons/misc/magic-swirl.png",
  "effects": []
}