{
  "_id": "1rhpxleafu8mi5yu",
  "name": "Snake Staff",
  "permission": {
    "default": 0
  },
  "type": "spell",
  "data": {
    "description": {
      "value": "<div class=\"spell-description\">\n  <p>\n    <strong>School</strong>&nbsp;transmutation;\n    <strong>Level</strong>&nbsp;cleric/oracle 5, druid 5, hunter 5, shaman 6;\n    \n    \n    \n    \n  </p>\n  <p>\n    <strong>Casting Time</strong>&nbsp;1 standard action<br>\n    <strong>Components</strong>&nbsp;V, S, M (a knife suitable for whittling)<br>\n  </p>\n  <p>\n    <strong>Range</strong>&nbsp;medium (100 ft. + 10 ft./level)<br>\n    \n    <strong>Targets</strong>&nbsp;1 or more pieces of wood, no two of which can be more than 30 ft. apart<br>\n    \n    <strong>Duration</strong>&nbsp;1 round/level<br>\n    <strong>Saving Throw</strong>&nbsp;Will negates (object);&nbsp;<strong>Spell Resistance</strong>&nbsp;yes<br>\n  </p>\n  <h2>Description</h2>\n  <p>With a long hissing whisper, you transform ordinary pieces of wood into various sorts of snakes that immediately attack your foes.</p><p> As long as the snakes remain within sight, you can direct their actions telepathically as a free action. You can only apply this spell to wooden objects not in a creature's possession or not part of a larger structure or plant. Each time you cast this spell you can create a number of snakes equal to your caster level. More powerful snakes take up more than one of your available total, as noted below.</p><p> Venomous Snake: A stick or piece of firewood. Counts as 1 snake.</p><p> Constrictor Snake: A staff or tree branch. Counts as 2 snakes.</p><p> Advanced Venomous Snake: A stick or piece of firewood. Counts as 2 snakes.</p><p> Advanced Constrictor Snake: A staff or tree branch. Counts as 3 snakes.</p><p> Advanced Giant Venomous Snake: A log or pile of debris. Counts as 4 snakes.</p><p> Advanced Giant Constrictor Snake: A fallen tree or a large pile of debris. Counts as 5 snakes.</p>\n</div>\n",
      "chat": "",
      "unidentified": ""
    },
    "tags": [],
    "activation": {
      "cost": 1,
      "type": "standard"
    },
    "unchainedAction": {
      "activation": {
        "cost": 2,
        "type": "action"
      }
    },
    "duration": {
      "value": null,
      "units": ""
    },
    "target": {
      "value": "1 or more pieces of wood, no two of which can be more than 30 ft. apart"
    },
    "range": {
      "value": null,
      "units": "medium",
      "maxIncrements": 1,
      "minValue": null,
      "minUnits": ""
    },
    "uses": {
      "value": 0,
      "max": 0,
      "per": "",
      "autoDeductCharges": true,
      "autoDeductChargesCost": "1"
    },
    "measureTemplate": {
      "type": "",
      "size": "0",
      "overrideColor": false,
      "customColor": "",
      "overrideTexture": false,
      "customTexture": ""
    },
    "attackName": "",
    "actionType": "spellsave",
    "attackBonus": "",
    "critConfirmBonus": "",
    "damage": {
      "parts": [],
      "critParts": [],
      "nonCritParts": []
    },
    "attackParts": [],
    "formula": "",
    "ability": {
      "attack": "",
      "damage": "",
      "damageMult": 1,
      "critRange": 20,
      "critMult": 2
    },
    "save": {
      "dc": "0",
      "type": "will",
      "description": "Will negates (object)"
    },
    "effectNotes": "",
    "attackNotes": "",
    "soundEffect": "",
    "links": {
      "children": []
    },
    "learnedAt": {
      "class": [
        [
          "cleric/oracle",
          5
        ],
        [
          "druid",
          5
        ],
        [
          "shaman",
          6
        ],
        [
          "hunter",
          5
        ]
      ],
      "domain": [],
      "subDomain": [],
      "elementalSchool": [],
      "bloodline": []
    },
    "level": 5,
    "clOffset": 0,
    "slOffset": 0,
    "school": "trs",
    "subschool": "",
    "types": "",
    "nonlethal": false,
    "conditionals": [],
    "components": {
      "value": "",
      "verbal": true,
      "somatic": true,
      "material": true,
      "focus": false,
      "divineFocus": 0
    },
    "castTime": "",
    "materials": {
      "value": "a knife suitable for whittling",
      "focus": "",
      "gpValue": 0
    },
    "spellbook": "primary",
    "preparation": {
      "preparedAmount": 0,
      "maxAmount": 0,
      "autoDeductCharges": true,
      "spontaneousPrepared": true,
      "mode": "prepared"
    },
    "atWill": false,
    "sr": true,
    "shortDescription": "<p>With a long hissing whisper, you transform ordinary pieces of wood into various sorts of snakes that immediately attack your foes.</p><p> As long as the snakes remain within sight, you can direct their actions telepathically as a free action. You can only apply this spell to wooden objects not in a creature's possession or not part of a larger structure or plant. Each time you cast this spell you can create a number of snakes equal to your caster level. More powerful snakes take up more than one of your available total, as noted below.</p><p> Venomous Snake: A stick or piece of firewood. Counts as 1 snake.</p><p> Constrictor Snake: A staff or tree branch. Counts as 2 snakes.</p><p> Advanced Venomous Snake: A stick or piece of firewood. Counts as 2 snakes.</p><p> Advanced Constrictor Snake: A staff or tree branch. Counts as 3 snakes.</p><p> Advanced Giant Venomous Snake: A log or pile of debris. Counts as 4 snakes.</p><p> Advanced Giant Constrictor Snake: A fallen tree or a large pile of debris. Counts as 5 snakes.</p>",
    "spellDuration": "1 round/level",
    "spellEffect": "",
    "spellArea": "",
    "showInQuickbar": false,
    "spellPoints": {
      "cost": "1 + @sl"
    },
    "domain": false,
    "slotCost": 1
  },
  "flags": {},
  "img": "systems/pf1/icons/misc/magic-swirl.png",
  "effects": []
}