{
  "_id": "glvtd09wmsbapbcf",
  "name": "Unbearable Brightness",
  "permission": {
    "default": 0
  },
  "type": "spell",
  "data": {
    "description": {
      "value": "<div class=\"spell-description\">\n  <p>\n    <strong>School</strong>&nbsp;evocation&nbsp;[light];\n    <strong>Level</strong>&nbsp;alchemist 4, occultist 4, psychic 4, sorcerer/wizard 4, witch 4;\n    \n    \n    \n    \n  </p>\n  <p>\n    <strong>Casting Time</strong>&nbsp;1 standard action<br>\n    <strong>Components</strong>&nbsp;V, S<br>\n  </p>\n  <p>\n    <strong>Range</strong>&nbsp;personal<br>\n    <strong>Area</strong>&nbsp;30-ft.-radius emanation centered on you<br>\n    \n    \n    <strong>Duration</strong>&nbsp;1 round/level<br>\n    \n  </p>\n  <h2>Description</h2>\n  <p>Your body glows with a terrible light. Creatures within 30 feet of you that can see you are dazzled (no saving throw).</p><p>Creatures with light sensitivity must succeed at a Reflex saving throw or be blinded. This light counts as <i>daylight</i> for the purpose of affecting darkness effects (and vice versa).</p><p>If the emanation enters an area under the effect of magical darkness (or vice versa), both effects are temporarily negated so that the otherwise prevailing light conditions exist in the overlapping areas of effect. Dazzled and blinded conditions from your light end when the spell ends or when the creature is out of line of sight.</p>\n</div>\n",
      "chat": "",
      "unidentified": ""
    },
    "tags": [],
    "activation": {
      "cost": 1,
      "type": "standard"
    },
    "unchainedAction": {
      "activation": {
        "cost": 2,
        "type": "action"
      }
    },
    "duration": {
      "value": null,
      "units": ""
    },
    "target": {
      "value": ""
    },
    "range": {
      "value": null,
      "units": "personal",
      "maxIncrements": 1,
      "minValue": null,
      "minUnits": ""
    },
    "uses": {
      "value": 0,
      "max": 0,
      "per": "",
      "autoDeductCharges": true,
      "autoDeductChargesCost": "1"
    },
    "measureTemplate": {
      "type": "",
      "size": "0",
      "overrideColor": false,
      "customColor": "",
      "overrideTexture": false,
      "customTexture": ""
    },
    "attackName": "",
    "actionType": "spellsave",
    "attackBonus": "",
    "critConfirmBonus": "",
    "damage": {
      "parts": [],
      "critParts": [],
      "nonCritParts": []
    },
    "attackParts": [],
    "formula": "",
    "ability": {
      "attack": "",
      "damage": "",
      "damageMult": 1,
      "critRange": 20,
      "critMult": 2
    },
    "save": {
      "dc": "0",
      "type": "ref",
      "description": "none and Reflex partial (see text)"
    },
    "effectNotes": "",
    "attackNotes": "",
    "soundEffect": "",
    "links": {
      "children": []
    },
    "learnedAt": {
      "class": [
        [
          "sorcerer/wizard",
          4
        ],
        [
          "alchemist",
          4
        ],
        [
          "witch",
          4
        ],
        [
          "psychic",
          4
        ],
        [
          "occultist",
          4
        ]
      ],
      "domain": [],
      "subDomain": [],
      "elementalSchool": [],
      "bloodline": []
    },
    "level": 4,
    "clOffset": 0,
    "slOffset": 0,
    "school": "evo",
    "subschool": "",
    "types": "light",
    "nonlethal": false,
    "conditionals": [],
    "components": {
      "value": "",
      "verbal": true,
      "somatic": true,
      "material": false,
      "focus": false,
      "divineFocus": 0
    },
    "castTime": "",
    "materials": {
      "value": "",
      "focus": "",
      "gpValue": 0
    },
    "spellbook": "primary",
    "preparation": {
      "preparedAmount": 0,
      "maxAmount": 0,
      "autoDeductCharges": true,
      "spontaneousPrepared": true,
      "mode": "prepared"
    },
    "atWill": false,
    "sr": false,
    "shortDescription": "<p>Your body glows with a terrible light. Creatures within 30 feet of you that can see you are dazzled (no saving throw).</p><p>Creatures with light sensitivity must succeed at a Reflex saving throw or be blinded. This light counts as <i>daylight</i> for the purpose of affecting darkness effects (and vice versa).</p><p>If the emanation enters an area under the effect of magical darkness (or vice versa), both effects are temporarily negated so that the otherwise prevailing light conditions exist in the overlapping areas of effect. Dazzled and blinded conditions from your light end when the spell ends or when the creature is out of line of sight.</p>",
    "spellDuration": "1 round/level",
    "spellEffect": "",
    "spellArea": "30-ft.-radius emanation centered on you",
    "showInQuickbar": false,
    "spellPoints": {
      "cost": "1 + @sl"
    },
    "domain": false,
    "slotCost": 1
  },
  "flags": {},
  "img": "systems/pf1/icons/misc/magic-swirl.png",
  "effects": []
}