{
  "_id": "g3pq7xWWdUVYw6ai",
  "name": "Barbarian",
  "permission": {
    "default": 0
  },
  "type": "class",
  "data": {
    "description": {
      "value": "<p>For some, there is only rage. In the ways of their people, in the fury of their passion, in the howl of battle, conflict is all these brutal souls know. Savages, hired muscle, masters of vicious martial techniques, they are not soldiers or professional warriors—they are the battle possessed, creatures of slaughter and spirits of war. Known as barbarians, these warmongers know little of training, preparation, or the rules of warfare; for them, only the moment exists, with the foes that stand before them and the knowledge that the next moment might hold their death. They possess a sixth sense in regard to danger and the endurance to weather all that might entail. These brutal warriors might rise from all walks of life, both civilized and savage, though whole societies embracing such philosophies roam the wild places of the world. Within barbarians storms the primal spirit of battle, and woe to those who face their rage.</p>\n<p><strong>Role</strong>: Barbarians excel in combat, possessing the martial prowess and fortitude to take on foes seemingly far superior to themselves. With rage granting them boldness and daring beyond that of most other warriors, barbarians charge furiously into battle and ruin all who would stand in their way.</p>\n<p><strong>Alignment</strong>: Any non-lawful</p>\n<p><strong>Hit Die</strong>: d12</p>\n<p><strong>Starting Wealth</strong>: 3d6 × 10 gp (average 105gp.) In addition, each character begins play with an outfit worth 10 gp or less.</p>\n<h3><strong><span id=\"Class_Skills\">Class Skills</span></strong></h3>\n<p>The barbarian’s class skills are&nbsp;<a href=\"https://www.d20pfsrd.com/skills/acrobatics\" rel=\"nofollow\">Acrobatics</a>&nbsp;(<a href=\"https://www.d20pfsrd.com/basics-ability-scores/ability-scores#TOC-Dexterity-Dex-\" rel=\"nofollow\">Dex</a>),&nbsp;<a href=\"https://www.d20pfsrd.com/skills/climb\" rel=\"nofollow\">Climb</a>&nbsp;(<a href=\"https://www.d20pfsrd.com/basics-ability-scores/ability-scores#TOC-Strength-Str-\" rel=\"nofollow\">Str</a>),&nbsp;<a href=\"https://www.d20pfsrd.com/skills/craft\" rel=\"nofollow\">Craft</a>&nbsp;(<a href=\"https://www.d20pfsrd.com/basics-ability-scores/ability-scores#TOC-Intelligence-Int-\" rel=\"nofollow\">Int</a>),&nbsp;<a href=\"https://www.d20pfsrd.com/skills/handle-animal\" rel=\"nofollow\">Handle Animal</a>&nbsp;(<a href=\"https://www.d20pfsrd.com/basics-ability-scores/ability-scores#TOC-Charisma-Cha-\" rel=\"nofollow\">Cha</a>),&nbsp;<a href=\"https://www.d20pfsrd.com/skills/intimidate\" rel=\"nofollow\">Intimidate</a>&nbsp;(<a href=\"https://www.d20pfsrd.com/basics-ability-scores/ability-scores#TOC-Charisma-Cha-\" rel=\"nofollow\">Cha</a>),&nbsp;<a href=\"https://www.d20pfsrd.com/skills/knowledge\" rel=\"nofollow\">Knowledge</a>&nbsp;(nature) (<a href=\"https://www.d20pfsrd.com/basics-ability-scores/ability-scores#TOC-Intelligence-Int-\" rel=\"nofollow\">Int</a>),&nbsp;<a href=\"https://www.d20pfsrd.com/skills/perception\" rel=\"nofollow\">Perception</a>&nbsp;(<a href=\"https://www.d20pfsrd.com/basics-ability-scores/ability-scores#TOC-Wisdom-Wis-\" rel=\"nofollow\">Wis</a>),&nbsp;<a href=\"https://www.d20pfsrd.com/skills/ride\" rel=\"nofollow\">Ride</a>&nbsp;(<a href=\"https://www.d20pfsrd.com/basics-ability-scores/ability-scores#TOC-Dexterity-Dex-\" rel=\"nofollow\">Dex</a>),&nbsp;<a href=\"https://www.d20pfsrd.com/skills/survival\" rel=\"nofollow\">Survival</a>&nbsp;(<a href=\"https://www.d20pfsrd.com/basics-ability-scores/ability-scores#TOC-Wisdom-Wis-\" rel=\"nofollow\">Wis</a>), and&nbsp;<a href=\"https://www.d20pfsrd.com/skills/swim\" rel=\"nofollow\">Swim</a>&nbsp;(<a href=\"https://www.d20pfsrd.com/basics-ability-scores/ability-scores#TOC-Strength-Str-\" rel=\"nofollow\">Str</a>).</p>\n<p><strong>Skill Ranks Per Level</strong>: 4 +&nbsp;<a href=\"https://www.d20pfsrd.com/basics-ability-scores/ability-scores#TOC-Intelligence-Int-\" rel=\"nofollow\">Int</a>&nbsp;modifier.</p>\n<div>\n<div>&nbsp;</div>\n</div>",
      "chat": "",
      "unidentified": ""
    },
    "tags": [],
    "changes": [],
    "changeFlags": {
      "loseDexToAC": false,
      "noStr": false,
      "noDex": false,
      "oneInt": false,
      "oneWis": false,
      "oneCha": false,
      "noEncumbrance": false,
      "mediumArmorFullSpeed": false,
      "heavyArmorFullSpeed": false
    },
    "links": {
      "children": [],
      "classAssociations": [
        {
          "id": "pf1.class-abilities.WSqWT9ZIshtC5vlV",
          "dataType": "compendium",
          "name": "Rage",
          "img": "systems/pf1/icons/feats/extra-rage.jpg",
          "hiddenLinks": {},
          "level": 1,
          "_index": 0
        },
        {
          "id": "pf1.class-abilities.9EX00obqhGHcrOdp",
          "dataType": "compendium",
          "name": "Fast Movement (BAR)",
          "img": "systems/pf1/icons/skills/armor_01.jpg",
          "hiddenLinks": {},
          "level": 1,
          "_index": 1
        },
        {
          "id": "pf1.class-abilities.0v0NLj0tuVAu2Cla",
          "dataType": "compendium",
          "name": "Mighty Rage",
          "img": "systems/pf1/icons/feats/extra-rage.jpg",
          "hiddenLinks": {},
          "level": 20,
          "_index": 2
        },
        {
          "id": "pf1.class-abilities.aYdjgDZJCNvKpLQP",
          "dataType": "compendium",
          "name": "Tireless Rage",
          "img": "systems/pf1/icons/feats/improved-iron-will.jpg",
          "hiddenLinks": {},
          "level": 16,
          "_index": 3
        },
        {
          "id": "pf1.class-abilities.Q3x319WbNkCssApD",
          "dataType": "compendium",
          "name": "Indomitable Will",
          "img": "systems/pf1/icons/feats/athletic.jpg",
          "hiddenLinks": {},
          "level": 14,
          "_index": 4
        },
        {
          "id": "pf1.class-abilities.IWNz5tJCnpig4UtX",
          "dataType": "compendium",
          "name": "Greater Rage",
          "img": "systems/pf1/icons/feats/extra-rage.jpg",
          "hiddenLinks": {},
          "level": 11,
          "_index": 5
        },
        {
          "id": "pf1.class-abilities.ZfnHhhTFQVo0Lj4P",
          "dataType": "compendium",
          "name": "Improved Uncanny Dodge",
          "img": "systems/pf1/icons/feats/wind-stance.jpg",
          "hiddenLinks": {},
          "level": 5,
          "_index": 6
        },
        {
          "id": "pf1.class-abilities.7WaQxnVaaoL4AGr8",
          "dataType": "compendium",
          "name": "Uncanny Dodge",
          "img": "systems/pf1/icons/feats/wind-stance.jpg",
          "hiddenLinks": {},
          "level": 2,
          "_index": 7
        },
        {
          "id": "pf1.class-abilities.BoEkMviJrW0PKmhj",
          "dataType": "compendium",
          "name": "Trap Sense",
          "img": "systems/pf1/icons/items/inventory/hook-hand.jpg",
          "hiddenLinks": {},
          "level": 3,
          "_index": 8
        },
        {
          "id": "pf1.class-abilities.HdzsFdoGauXFjU2S",
          "dataType": "compendium",
          "name": "Rage Powers",
          "img": "systems/pf1/icons/feats/intimidating-prowess.jpg",
          "hiddenLinks": {},
          "level": 2,
          "_index": 9
        },
        {
          "id": "pf1.class-abilities.RENIeTVjWB7Mq6Mw",
          "dataType": "compendium",
          "name": "Damage Reduction",
          "img": "systems/pf1/icons/items/armor/shield-light-metal.png",
          "hiddenLinks": {},
          "level": 7,
          "_index": 10
        }
      ]
    },
    "tag": "barbarian",
    "useCustomTag": true,
    "armorProf": {
      "value": [
        "lgt",
        "med",
        "shl"
      ],
      "custom": ""
    },
    "weaponProf": {
      "value": [
        "sim",
        "mar"
      ],
      "custom": ""
    },
    "classType": "base",
    "levels": {
      "value": 0,
      "_deprecated": true
    },
    "level": 1,
    "hd": 12,
    "hp": 12,
    "bab": "high",
    "skillsPerLevel": 4,
    "savingThrows": {
      "fort": {
        "value": "high"
      },
      "ref": {
        "value": "low"
      },
      "will": {
        "value": "low"
      }
    },
    "fc": {
      "hp": {
        "value": 0
      },
      "skill": {
        "value": 0
      },
      "alt": {
        "value": 0
      }
    },
    "classSkills": {
      "acr": true,
      "apr": false,
      "art": false,
      "blf": false,
      "clm": true,
      "crf": true,
      "dip": false,
      "dev": false,
      "dis": false,
      "esc": false,
      "fly": false,
      "han": true,
      "hea": false,
      "int": true,
      "kar": false,
      "kdu": false,
      "ken": false,
      "kge": false,
      "khi": false,
      "klo": false,
      "kna": true,
      "kno": false,
      "kpl": false,
      "kre": false,
      "lin": false,
      "lor": false,
      "per": true,
      "prf": false,
      "pro": false,
      "rid": true,
      "sen": false,
      "slt": false,
      "spl": false,
      "ste": false,
      "sur": true,
      "swm": true,
      "umd": false
    },
    "extraDescription": {
      "value": "<h2>Weapon and Armor Proficiency</h2>\n<p>A barbarian is proficient with all&nbsp;<a href=\"https://www.d20pfsrd.com/equipment/weapons#TOC-Simple-Martial-and-Exotic-Weapons-\" rel=\"nofollow\">simple and martial weapons</a>, light&nbsp;<a href=\"https://www.d20pfsrd.com/basics-ability-scores/glossary#TOC-Armor-Bonus\">armor</a>, medium&nbsp;<a href=\"https://www.d20pfsrd.com/basics-ability-scores/glossary#TOC-Armor-Bonus\">armor</a>, and shields (except tower shields).</p>\n<h2>Fast Movement (Ex)</h2>\n<p>A barbarian’s land speed is faster than the norm for her race by +10 feet. This benefit applies only when he is wearing no&nbsp;<a href=\"https://www.d20pfsrd.com/basics-ability-scores/glossary#TOC-Armor-Bonus\">armor</a>, light&nbsp;<a href=\"https://www.d20pfsrd.com/basics-ability-scores/glossary#TOC-Armor-Bonus\">armor</a>, or medium&nbsp;<a href=\"https://www.d20pfsrd.com/basics-ability-scores/glossary#TOC-Armor-Bonus\">armor</a>, and not carrying a heavy load. Apply this bonus before modifying the barbarian’s speed because of any load carried or armor worn. This bonus stacks with any other bonuses to the barbarian’s land speed.</p>\n<h2>Rage (Ex)</h2>\n<p>A barbarian can call upon inner reserves of strength and ferocity, granting her additional combat prowess. Starting at 1st level, a barbarian can rage for a number of rounds per day equal to 4 + her&nbsp;<a href=\"https://www.d20pfsrd.com/basics-ability-scores/ability-scores#TOC-Constitution-Con-\" rel=\"nofollow\">Constitution</a>&nbsp;modifier. At each level after 1st, she can rage for 2 additional rounds. Temporary increases to&nbsp;<a href=\"https://www.d20pfsrd.com/basics-ability-scores/ability-scores#TOC-Constitution-Con-\" rel=\"nofollow\">Constitution</a>, such as those gained from rage and spells like&nbsp;<a href=\"https://www.d20pfsrd.com/magic/all-spells/b/bear-s-endurance\">bear’s endurance</a>, do not increase the total number of rounds that a barbarian can rage per day. A barbarian can enter rage as a free action. The total number of rounds of rage per day is renewed after resting for 8 hours, although these hours do not need to be consecutive.</p>\n<p>While in rage, a barbarian gains a +4 morale bonus to her&nbsp;<a href=\"https://www.d20pfsrd.com/basics-ability-scores/ability-scores#TOC-Strength-Str-\" rel=\"nofollow\">Strength</a>&nbsp;and&nbsp;<a href=\"https://www.d20pfsrd.com/basics-ability-scores/ability-scores#TOC-Constitution-Con-\" rel=\"nofollow\">Constitution</a>, as well as a +2 morale bonus on&nbsp;<a href=\"https://www.d20pfsrd.com/gamemastering/combat#TOC-Will\" rel=\"nofollow\">Will</a>&nbsp;saves. In addition, she takes a –2 penalty to&nbsp;<a href=\"https://www.d20pfsrd.com/gamemastering/combat#TOC-Armor-Class\" rel=\"nofollow\">Armor Class</a>. The increase to&nbsp;<a href=\"https://www.d20pfsrd.com/basics-ability-scores/ability-scores#TOC-Constitution-Con-\" rel=\"nofollow\">Constitution</a>&nbsp;grants the barbarian 2 hit points per Hit Dice, but these disappear when the rage ends and are not lost first like&nbsp;<a href=\"https://www.d20pfsrd.com/gamemastering/combat#TOC-Temporary-Hit-Points\" rel=\"nofollow\">temporary hit points</a>. While in rage, a barbarian cannot use any&nbsp;<a href=\"https://www.d20pfsrd.com/basics-ability-scores/glossary#TOC-Charisma-Cha-\" rel=\"nofollow\">Charisma</a>-,&nbsp;<a href=\"https://www.d20pfsrd.com/basics-ability-scores/glossary#TOC-Dexterity-Dex-\" rel=\"nofollow\">Dexterity</a>-, or&nbsp;<a href=\"https://www.d20pfsrd.com/basics-ability-scores/glossary#TOC-Intelligence-Int-\" rel=\"nofollow\">Intelligence</a>-based skills (except&nbsp;<a href=\"https://www.d20pfsrd.com/skills/acrobatics\" rel=\"nofollow\">Acrobatics</a>,&nbsp;<a href=\"https://www.d20pfsrd.com/skills/fly\" rel=\"nofollow\">Fly</a>,&nbsp;<a href=\"https://www.d20pfsrd.com/skills/intimidate\" rel=\"nofollow\">Intimidate</a>, and&nbsp;<a href=\"https://www.d20pfsrd.com/skills/ride\" rel=\"nofollow\">Ride</a>) or any ability that requires patience or concentration.</p>\n<p>A barbarian can end her rage as a free action and is&nbsp;<a href=\"https://www.d20pfsrd.com/gamemastering/conditions#TOC-Fatigued\" rel=\"nofollow\">fatigued</a>&nbsp;after rage for a number of rounds equal to 2 times the number of rounds spent in the rage. A barbarian cannot enter a new rage while&nbsp;<a href=\"https://www.d20pfsrd.com/gamemastering/conditions#TOC-Fatigued\" rel=\"nofollow\">fatigued</a>&nbsp;or&nbsp;<a href=\"https://www.d20pfsrd.com/gamemastering/conditions#TOC-Exhausted\" rel=\"nofollow\">exhausted</a>&nbsp;but can otherwise enter rage multiple times during a single encounter or combat. If a barbarian falls&nbsp;<a href=\"https://www.d20pfsrd.com/gamemastering/conditions#TOC-Unconscious\" rel=\"nofollow\">unconscious</a>, her rage immediately ends, placing her in peril of death.</p>\n<h2>Rage Powers (Ex)</h2>\n<p>As a barbarian gains levels, she learns to use her rage in new ways. Starting at 2nd level, a barbarian gains a&nbsp;<a href=\"https://www.d20pfsrd.com/classes/core-classes/barbarian/rage-powers\">rage power</a>. She gains another&nbsp;<a href=\"https://www.d20pfsrd.com/classes/core-classes/barbarian/rage-powers\">rage power</a>&nbsp;for every two levels of barbarian attained after 2nd level. A barbarian gains the benefits of&nbsp;<a href=\"https://www.d20pfsrd.com/classes/core-classes/barbarian/rage-powers\">rage powers</a>&nbsp;only while raging, and some of these powers require the barbarian to take an action first. Unless otherwise noted, a barbarian cannot select an individual power more than once.</p>\n<p>Any barbarian who meets the powers’ prerequisites can select and use rage powers. Totem rage powers grant powers related to a theme. A barbarian cannot select from more than one group of totem rage powers; for example, a barbarian who selects a beast totem rage power cannot later choose to gain any of the dragon totem rage powers (any rage power with “dragon totem” in its title).</p>\n<ul>\n<li>A complete list of rage powers can be found here:&nbsp;<a href=\"https://www.d20pfsrd.com/classes/core-classes/barbarian/rage-powers\">Rage Powers</a></li>\n</ul>\n<h2>Uncanny Dodge (Ex)</h2>\n<p>At 2nd level, a barbarian gains the ability to react to danger before her senses would normally allow her to do so. She cannot be caught&nbsp;<a href=\"https://www.d20pfsrd.com/gamemastering/conditions#TOC-Flat-Footed\" rel=\"nofollow\">flat-footed</a>, nor does she lose her&nbsp;<a href=\"https://www.d20pfsrd.com/basics-ability-scores/ability-scores#TOC-Dexterity-Dex-\">Dex</a>&nbsp;bonus to AC if the attacker is invisible. She still loses her&nbsp;<a href=\"https://www.d20pfsrd.com/basics-ability-scores/glossary#TOC-Dexterity-Dex-\" rel=\"nofollow\">Dexterity</a>&nbsp;bonus to&nbsp;<a href=\"https://www.d20pfsrd.com/gamemastering/combat#TOC-Armor-Class\" rel=\"nofollow\">armor class</a>&nbsp;if immobilized. A barbarian with this ability can still lose her&nbsp;<a href=\"https://www.d20pfsrd.com/basics-ability-scores/glossary#TOC-Dexterity-Dex-\" rel=\"nofollow\">Dexterity</a>&nbsp;bonus to&nbsp;<a href=\"https://www.d20pfsrd.com/gamemastering/combat#TOC-Armor-Class\" rel=\"nofollow\">armor class</a>&nbsp;if an opponent successfully uses the feint action against her.</p>\n<p>If a barbarian already has&nbsp;<a href=\"https://www.d20pfsrd.com/classes/core-classes/rogue#TOC-Uncanny-Dodge-Ex-\">uncanny dodge</a>&nbsp;from a different class, she automatically gains&nbsp;<a href=\"https://www.d20pfsrd.com/classes/core-classes/rogue#TOC-Improved-Uncanny-Dodge-Ex-\">improved uncanny dodge</a>&nbsp;(see below) instead.</p>\n<h2>Trap Sense (Ex)</h2>\n<p>At 3rd level, a barbarian gains a +1 bonus on&nbsp;<a href=\"https://www.d20pfsrd.com/gamemastering/combat#TOC-Reflex\" rel=\"nofollow\">Reflex</a>&nbsp;saves made to avoid traps and a +1&nbsp;<a href=\"https://www.d20pfsrd.com/gamemastering/combat#dodge_bonus\" rel=\"nofollow\">dodge bonus</a>&nbsp;to&nbsp;<a href=\"https://www.d20pfsrd.com/gamemastering/combat#TOC-Armor-Class\" rel=\"nofollow\">armor class</a>&nbsp;against attacks made by traps. These bonuses increase by +1 every three barbarian levels thereafter (6th, 9th, 12th, 15th, and 18th level). Trap sense bonuses gained from multiple classes stack.</p>\n<h2>Improved Uncanny Dodge (Ex)</h2>\n<p>At 5th level and higher, a barbarian can no longer be flanked. This defense denies a rogue the ability to sneak attack the barbarian by flanking her, unless the attacker has at least four more rogue levels than the target has barbarian levels.</p>\n<p>If a character already has&nbsp;<a href=\"https://www.d20pfsrd.com/classes/core-classes/rogue#TOC-Uncanny-Dodge-Ex-\">uncanny dodge</a>&nbsp;(see above) from another class, the levels from the classes that grant&nbsp;<a href=\"https://www.d20pfsrd.com/classes/core-classes/rogue#TOC-Uncanny-Dodge-Ex-\">uncanny dodge</a>&nbsp;stack to determine the minimum rogue level required to flank the character.</p>\n<h2>Damage Reduction (Ex)</h2>\n<p>At 7th level, a barbarian gains&nbsp;<a href=\"https://www.d20pfsrd.com/gamemastering/special-abilities#TOC-Damage-Reduction\" rel=\"nofollow\">damage reduction</a>. Subtract 1 from the damage the barbarian takes each time she is dealt damage from a weapon or a natural attack. At 10th level, and every three barbarian levels thereafter (13th, 16th, and 19th level), this&nbsp;<a href=\"https://www.d20pfsrd.com/gamemastering/special-abilities#TOC-Damage-Reduction\" rel=\"nofollow\">damage reduction</a>&nbsp;rises by 1 point.&nbsp;<a href=\"https://www.d20pfsrd.com/gamemastering/special-abilities#TOC-Damage-Reduction\" rel=\"nofollow\">Damage reduction</a>&nbsp;can reduce damage to 0 but not below 0.</p>\n<h2>Greater Rage (Ex)</h2>\n<p>At 11th level, when a barbarian enters rage, the morale bonus to her&nbsp;<a href=\"https://www.d20pfsrd.com/basics-ability-scores/ability-scores#TOC-Strength-Str-\" rel=\"nofollow\">Strength</a>&nbsp;and&nbsp;<a href=\"https://www.d20pfsrd.com/basics-ability-scores/ability-scores#TOC-Constitution-Con-\" rel=\"nofollow\">Constitution</a>&nbsp;increases to +6 and the morale bonus on her&nbsp;<a href=\"https://www.d20pfsrd.com/gamemastering/combat#TOC-Will\" rel=\"nofollow\">Will</a>&nbsp;saves increases to +3.</p>\n<h2>Indomitable Will (Ex)</h2>\n<p>While in rage, a barbarian of 14th level or higher gains a +4 bonus on&nbsp;<a href=\"https://www.d20pfsrd.com/gamemastering/combat#TOC-Will\" rel=\"nofollow\">Will</a>&nbsp;saves to resist enchantment spells. This bonus stacks with all other modifiers, including the morale bonus on&nbsp;<a href=\"https://www.d20pfsrd.com/gamemastering/combat#TOC-Will\" rel=\"nofollow\">Will</a>&nbsp;saves she also receives during her rage.</p>\n<h2>Tireless Rage (Ex)</h2>\n<p>Starting at 17th level, a barbarian no longer becomes&nbsp;<a href=\"https://www.d20pfsrd.com/gamemastering/conditions#TOC-Fatigued\" rel=\"nofollow\">fatigued</a>&nbsp;at the end of her rage.</p>\n<h2>Mighty Rage (Ex)</h2>\n<p>At 20th level, when a barbarian enters rage, the morale bonus to her&nbsp;<a href=\"https://www.d20pfsrd.com/basics-ability-scores/ability-scores#TOC-Strength-Str-\" rel=\"nofollow\">Strength</a>&nbsp;and&nbsp;<a href=\"https://www.d20pfsrd.com/basics-ability-scores/ability-scores#TOC-Constitution-Con-\" rel=\"nofollow\">Constitution</a>&nbsp;increases to +8 and the morale bonus on her&nbsp;<a href=\"https://www.d20pfsrd.com/gamemastering/combat#TOC-Will\" rel=\"nofollow\">Will</a>&nbsp;saves increases to +4.</p>\n<h1>Ex-Barbarians</h1>\n<p>A barbarian who becomes lawful loses the ability to rage and cannot gain more levels as a barbarian. She retains all other benefits of the class.</p>",
      "chat": "",
      "unidentified": ""
    },
    "damage": {
      "parts": [],
      "critParts": [],
      "nonCritParts": []
    },
    "preparation": {
      "maxAmount": 0
    },
    "weaponData": {
      "critRange": 20,
      "critMult": 2
    },
    "uses": {
      "value": 0,
      "max": 0
    }
  },
  "flags": {},
  "img": "systems/pf1/icons/items/weapons/greataxe.png",
  "effects": []
}