{
  "_id": "SjFqQceVeVBzBwgn",
  "name": "Cleric",
  "permission": {
    "default": 0
  },
  "type": "class",
  "data": {
    "description": {
      "value": "<p>In faith and the miracles of the divine, many find a greater purpose. Called to serve powers beyond most mortal understanding, all priests preach wonders and provide for the spiritual needs of their people. Clerics are more than mere priests, though; these emissaries of the divine work the will of their deities through strength of arms and the magic of their gods. Devoted to the tenets of the religions and philosophies that inspire them, these ecclesiastics quest to spread the knowledge and influence of their faith. Yet while they might share similar abilities, clerics prove as different from one another as the divinities they serve, with some offering healing and redemption, others judging law and truth, and still others spreading conflict and corruption. The ways of the cleric are varied, yet all who tread these paths walk with the mightiest of allies and bear the arms of the gods themselves.</p>\n<p><strong>Role</strong>: More than capable of upholding the honor of their deities in battle, clerics often prove stalwart and capable combatants. Their true strength lies in their capability to draw upon the power of their deities, whether to increase their own and their allies’ prowess in battle, to vex their foes with divine magic, or to lend healing to companions in need. As their powers are influenced by their faith, all clerics must focus their worship upon a divine source. While the vast majority of clerics revere a specific deity, a small number dedicate themselves to a divine concept worthy of devotion—such as battle, death, justice, or knowledge—free of a deific abstraction. (Work with your GM if you prefer this path to selecting a specific deity.)</p>\n<p><strong>Alignment</strong>: A cleric’s alignment must be within one step of her deity’s, along either the law/chaos axis or the good/evil axis.</p>\n<p><strong>Hit Die</strong>: d8</p>\n<p><strong>Starting Wealth</strong>: 4d6 × 10 gp (average 140 gp.) In addition, each character begins play with an outfit worth 10 gp or less.</p>\n<h2><span id=\"Class_Skills\">Class Skills</span></h2>\n<p>The cleric’s class skills are <a href=\"https://www.d20pfsrd.com/skills/appraise\">Appraise</a>&nbsp;(<a href=\"https://www.d20pfsrd.com/basics-ability-scores/ability-scores#TOC-Intelligence-Int-\" rel=\"nofollow\">Int</a>), <a href=\"https://www.d20pfsrd.com/skills/craft\">Craft</a>&nbsp;(<a href=\"https://www.d20pfsrd.com/basics-ability-scores/ability-scores#TOC-Intelligence-Int-\" rel=\"nofollow\">Int</a>), <a href=\"https://www.d20pfsrd.com/skills/diplomacy\">Diplomacy</a>&nbsp;(<a href=\"https://www.d20pfsrd.com/basics-ability-scores/ability-scores#TOC-Charisma-Cha-\" rel=\"nofollow\">Cha</a>), <a href=\"https://www.d20pfsrd.com/skills/heal\">Heal</a>&nbsp;(<a href=\"https://www.d20pfsrd.com/basics-ability-scores/ability-scores#TOC-Wisdom-Wis-\" rel=\"nofollow\">Wis</a>), <a href=\"https://www.d20pfsrd.com/skills/knowledge\">Knowledge</a>&nbsp;(arcana) (<a href=\"https://www.d20pfsrd.com/basics-ability-scores/ability-scores#TOC-Intelligence-Int-\" rel=\"nofollow\">Int</a>), <a href=\"https://www.d20pfsrd.com/skills/knowledge\">Knowledge</a>&nbsp;(history) (<a href=\"https://www.d20pfsrd.com/basics-ability-scores/ability-scores#TOC-Intelligence-Int-\" rel=\"nofollow\">Int</a>), <a href=\"https://www.d20pfsrd.com/skills/knowledge\">Knowledge</a>&nbsp;(nobility) (<a href=\"https://www.d20pfsrd.com/basics-ability-scores/ability-scores#TOC-Intelligence-Int-\" rel=\"nofollow\">Int</a>), <a href=\"https://www.d20pfsrd.com/skills/knowledge\">Knowledge</a>&nbsp;(planes) (<a href=\"https://www.d20pfsrd.com/basics-ability-scores/ability-scores#TOC-Intelligence-Int-\" rel=\"nofollow\">Int</a>), <a href=\"https://www.d20pfsrd.com/skills/knowledge\">Knowledge</a>&nbsp;(religion) (<a href=\"https://www.d20pfsrd.com/basics-ability-scores/ability-scores#TOC-Intelligence-Int-\" rel=\"nofollow\">Int</a>), <a href=\"https://www.d20pfsrd.com/skills/linguistics\">Linguistics</a>&nbsp;(<a href=\"https://www.d20pfsrd.com/basics-ability-scores/ability-scores#TOC-Intelligence-Int-\" rel=\"nofollow\">Int</a>), <a href=\"https://www.d20pfsrd.com/skills/profession\">Profession</a>&nbsp;(<a href=\"https://www.d20pfsrd.com/basics-ability-scores/ability-scores#TOC-Wisdom-Wis-\" rel=\"nofollow\">Wis</a>), <a href=\"https://www.d20pfsrd.com/skills/sense-motive\">Sense Motive</a>&nbsp;(<a href=\"https://www.d20pfsrd.com/basics-ability-scores/ability-scores#TOC-Wisdom-Wis-\" rel=\"nofollow\">Wis</a>), and <a href=\"https://www.d20pfsrd.com/skills/spellcraft\">Spellcraft</a>&nbsp;(<a href=\"https://www.d20pfsrd.com/basics-ability-scores/ability-scores#TOC-Intelligence-Int-\" rel=\"nofollow\">Int</a>).</p>\n<p><strong>Skill Ranks Per Level</strong>: 2 +&nbsp;<a href=\"https://www.d20pfsrd.com/basics-ability-scores/ability-scores#TOC-Intelligence-Int-\" rel=\"nofollow\">Int</a>&nbsp;modifier.</p>",
      "chat": "",
      "unidentified": ""
    },
    "tags": [],
    "changes": [],
    "changeFlags": {
      "loseDexToAC": false,
      "noStr": false,
      "noDex": false,
      "oneInt": false,
      "oneWis": false,
      "oneCha": false,
      "noEncumbrance": false,
      "mediumArmorFullSpeed": false,
      "heavyArmorFullSpeed": false
    },
    "links": {
      "children": [],
      "classAssociations": [
        {
          "id": "pf1.class-abilities.kXXz1lO4i7CibHJ9",
          "dataType": "compendium",
          "name": "Channel Energy",
          "img": "systems/pf1/icons/skills/blue_20.jpg",
          "hiddenLinks": {},
          "level": 1,
          "_index": 0
        },
        {
          "id": "pf1.class-abilities.zrUJt7YpAJkf2NC6",
          "dataType": "compendium",
          "name": "Domains",
          "img": "systems/pf1/icons/items/inventory/candle.jpg",
          "hiddenLinks": {},
          "level": 1,
          "_index": 1
        }
      ]
    },
    "tag": "cleric",
    "useCustomTag": true,
    "armorProf": {
      "value": [
        "lgt",
        "med",
        "shl"
      ],
      "custom": ""
    },
    "weaponProf": {
      "value": [
        "sim"
      ],
      "custom": "Favored Weapon"
    },
    "classType": "base",
    "levels": {
      "value": 0,
      "_deprecated": true
    },
    "level": 1,
    "hd": 8,
    "hp": 8,
    "bab": "med",
    "skillsPerLevel": 2,
    "savingThrows": {
      "fort": {
        "value": "high"
      },
      "ref": {
        "value": "low"
      },
      "will": {
        "value": "high"
      }
    },
    "fc": {
      "hp": {
        "value": 0
      },
      "skill": {
        "value": 0
      },
      "alt": {
        "value": 0
      }
    },
    "classSkills": {
      "acr": false,
      "apr": true,
      "art": false,
      "blf": false,
      "clm": false,
      "crf": false,
      "dip": true,
      "dev": false,
      "dis": false,
      "esc": false,
      "fly": false,
      "han": false,
      "hea": true,
      "int": false,
      "kar": true,
      "kdu": false,
      "ken": false,
      "kge": false,
      "khi": true,
      "klo": false,
      "kna": false,
      "kno": true,
      "kpl": true,
      "kre": true,
      "lin": true,
      "lor": false,
      "per": false,
      "prf": false,
      "pro": true,
      "rid": false,
      "sen": true,
      "slt": false,
      "spl": true,
      "ste": false,
      "sur": false,
      "swm": false,
      "umd": false
    },
    "extraDescription": {
      "value": "<h2>Weapon and Armor Proficiency</h2>\n<p>Clerics are proficient with all&nbsp;<a href=\"https://www.d20pfsrd.com/equipment/weapons#TOC-Simple-Martial-and-Exotic-Weapons-\">simple weapons</a>, light&nbsp;<a href=\"https://www.d20pfsrd.com/basics-ability-scores/glossary#TOC-Armor-Bonus\">armor</a>, medium&nbsp;<a href=\"https://www.d20pfsrd.com/basics-ability-scores/glossary#TOC-Armor-Bonus\">armor</a>, and shields (except tower shields). Clerics are also proficient with the favored weapon of their deities.</p>\n<h2>Aura (Ex)</h2>\n<p>A cleric of a chaotic, evil, good, or lawful deity has a particularly powerful aura corresponding to the deity’s alignment (see&nbsp;<a href=\"https://www.d20pfsrd.com/magic/all-spells/d/detect-evil\">detect evil</a>&nbsp;for details).</p>\n<h2>Spellcasting</h2>\n<p>A cleric casts divine spells which are drawn from the&nbsp;<a href=\"https://www.d20pfsrd.com/magic/spell-lists-and-domains/spell-lists-cleric\">cleric spell list</a>. Her alignment, however, may restrict her from casting certain spells opposed to her moral or ethical beliefs; see Chaotic, Evil, Good, and Lawful Spells. A cleric must choose and prepare her spells in advance.</p>\n<p>To prepare or cast a spell, a cleric must have a&nbsp;<a href=\"https://www.d20pfsrd.com/basics-ability-scores/ability-scores#TOC-Wisdom-Wis-\" rel=\"nofollow\">Wisdom</a>&nbsp;score equal to at least 10 + the spell level. The Difficulty Class for a saving throw against a cleric’s spell is 10 + the spell level + the cleric’s&nbsp;<a href=\"https://www.d20pfsrd.com/basics-ability-scores/ability-scores#TOC-Wisdom-Wis-\" rel=\"nofollow\">Wisdom</a>&nbsp;modifier.</p>\n<p>Like other spellcasters, a cleric can cast only a certain number of spells of each spell level per day. Her base daily spell allotment is given on&nbsp;Table: Cleric. In addition, she receives bonus spells per day if she has a high&nbsp;<a href=\"https://www.d20pfsrd.com/basics-ability-scores/ability-scores#TOC-Wisdom-Wis-\" rel=\"nofollow\">Wisdom</a>&nbsp;score (see&nbsp;<a href=\"https://www.d20pfsrd.com/basics-ability-scores/ability-scores#TOC-Abilities-and-Spellcasters\" rel=\"nofollow\">Table: Ability Modifiers and Bonus Spells</a>).</p>\n<p>Clerics meditate or pray for their spells. Each cleric must choose a time at which she must spend 1 hour each day in quiet contemplation or supplication to regain her daily allotment of spells. Time spent resting has no effect on whether a cleric can prepare spells. A cleric may prepare and cast any spell on the cleric spell list, provided that she can cast spells of that level, but she must choose which spells to prepare during her daily meditation.</p>\n<p><strong>Chaotic, Evil, Good, and Lawful Spells</strong>&nbsp;A cleric can’t cast spells of an alignment opposed to her own or her deity’s (if she has one). Spells associated with particular alignments are indicated by the chaotic, evil, good, and lawful descriptors in their spell descriptions.</p>\n<h2>Orisons</h2>\n<p>Clerics can prepare a number of orisons, or 0-level spells, each day, as noted on&nbsp;Table: Cleric&nbsp;under “Spells per day.” These spells are treated like any other spell, but they are not expended when cast and may be used again.</p>\n<h2>Channel Energy (Su)</h2>\n<p>Regardless of alignment, any cleric can release a wave of energy by channeling the power of her faith through her holy (or unholy) symbol. This energy can be used to cause or heal damage, depending on the type of energy channeled and the creatures targeted.</p>\n<p>A good cleric (or a neutral cleric who worships a good deity) channels positive energy and can choose to deal damage to&nbsp;<a href=\"https://www.d20pfsrd.com/bestiary/rules-for-monsters/creature-types#TOC-Undead\">undead</a>&nbsp;creatures or to heal living creatures. An evil cleric (or a neutral cleric who worships an evil deity) channels negative energy and can choose to deal damage to living creatures or to heal&nbsp;<a href=\"https://www.d20pfsrd.com/bestiary/rules-for-monsters/creature-types#TOC-Undead\">undead</a>&nbsp;creatures. A neutral cleric of a neutral deity (or one who is not devoted to a particular deity) must choose whether she channels positive or negative energy. Once this choice is made, it cannot be reversed. This decision also determines whether the cleric can cast spontaneous cure or inflict spells (see spontaneous casting).</p>\n<p>Channeling energy causes a burst that affects all creatures of one type (either&nbsp;<a href=\"https://www.d20pfsrd.com/bestiary/rules-for-monsters/creature-types#TOC-Undead\">undead</a>&nbsp;or living) in a 30-foot radius centered on the cleric. The amount of damage dealt or healed is equal to 1d6 points of damage plus 1d6 points of damage for every two cleric levels beyond 1st (2d6 at 3rd, 3d6 at 5th, and so on). Creatures that take damage from channeled energy receive a&nbsp;<a href=\"https://www.d20pfsrd.com/gamemastering/combat#TOC-Will\" rel=\"nofollow\">Will</a>&nbsp;save to halve the damage. The DC of this save is equal to 10 + 1/2 the cleric’s level + the cleric’s&nbsp;<a href=\"https://www.d20pfsrd.com/basics-ability-scores/ability-scores#TOC-Charisma-Cha-\" rel=\"nofollow\">Charisma</a>&nbsp;modifier. Creatures healed by channel energy cannot exceed their maximum hit point total—all excess healing is lost. A cleric may channel energy a number of times per day equal to 3 + her&nbsp;<a href=\"https://www.d20pfsrd.com/basics-ability-scores/ability-scores#TOC-Charisma-Cha-\" rel=\"nofollow\">Charisma</a>&nbsp;modifier. This is a standard action that does not provoke an attack of opportunity. A cleric can choose whether or not to include herself in this effect.</p>\n<p>A cleric must be able to present her holy symbol to use this ability.</p>\n<h2>Domains</h2>\n<p>A cleric’s deity influences her alignment, what magic she can perform, her values, and how others see her. A cleric chooses two&nbsp;<a href=\"https://www.d20pfsrd.com/classes/core-classes/cleric/domains\">domains</a>&nbsp;from among those belonging to her deity. A cleric can select an alignment&nbsp;<a href=\"https://www.d20pfsrd.com/classes/core-classes/cleric/domains\">domain</a>&nbsp;(Chaos, Evil, Good, or Law) only if her alignment matches that&nbsp;<a href=\"https://www.d20pfsrd.com/classes/core-classes/cleric/domains\">domain</a>. If a cleric is not devoted to a particular deity, she still selects two&nbsp;<a href=\"https://www.d20pfsrd.com/classes/core-classes/cleric/domains\">domains</a>&nbsp;to represent her spiritual inclinations and abilities (subject to GM approval). The restriction on alignment&nbsp;<a href=\"https://www.d20pfsrd.com/classes/core-classes/cleric/domains\">domains</a>&nbsp;still applies.</p>\n<p>Each&nbsp;<a href=\"https://www.d20pfsrd.com/classes/core-classes/cleric/domains\">domain</a>&nbsp;grants a number of&nbsp;<a href=\"https://www.d20pfsrd.com/classes/core-classes/cleric/domains\">domain</a>&nbsp;powers, dependent upon the level of the cleric, as well as a number of bonus spells. A cleric gains one&nbsp;<a href=\"https://www.d20pfsrd.com/classes/core-classes/cleric/domains\">domain</a>&nbsp;spell slot for each level of cleric spell she can cast, from 1st on up. Each day, a cleric can prepare one of the spells from her two&nbsp;<a href=\"https://www.d20pfsrd.com/classes/core-classes/cleric/domains\">domain</a>s in that slot. If a&nbsp;<a href=\"https://www.d20pfsrd.com/classes/core-classes/cleric/domains\">domain</a>&nbsp;spell is not on the cleric spell list, a cleric can prepare it only in her&nbsp;<a href=\"https://www.d20pfsrd.com/classes/core-classes/cleric/domains\">domain</a>&nbsp;spell slot. Domain spells cannot be used to cast spells spontaneously.</p>\n<p>In addition, a cleric gains the listed powers from both of her domains, if she is of a high enough level. Unless otherwise noted, activating a domain power is a standard action.</p>\n<ul>\n<li>A complete listing of cleric domains can be found here:&nbsp;<a href=\"https://www.d20pfsrd.com/classes/core-classes/cleric/domains\">Cleric Domains</a></li>\n</ul>\n<h2>Spontaneous Casting</h2>\n<p>A good cleric (or a neutral cleric of a good deity) can channel stored spell energy into healing spells that she did not prepare ahead of time. The cleric can “lose” any prepared spell that is not an orison or domain spell in order to cast any cure spell of the same spell level or lower (a cure spell is any spell with “cure” in its name).</p>\n<p>An evil cleric (or a neutral cleric of an evil deity) can’t convert prepared spells to cure spells but can convert them to inflict spells (an inflict spell is one with “inflict” in its name).</p>\n<p>A cleric who is neither good nor evil and whose deity is neither good nor evil can convert spells to either cure spells or inflict spells (player’s choice). Once the player makes this choice, it cannot be reversed. This choice also determines whether the cleric channels positive or negative energy (see channel energy).</p>\n<h2>Bonus Languages</h2>\n<p>A cleric’s bonus language options include Celestial, Abyssal, and Infernal (the languages of good, chaotic evil, and lawful evil outsiders, respectively). These choices are in addition to the bonus languages available to the character because of her race.</p>",
      "chat": "",
      "unidentified": ""
    },
    "damage": {
      "parts": [],
      "critParts": [],
      "nonCritParts": []
    },
    "preparation": {
      "maxAmount": 0
    },
    "weaponData": {
      "critRange": 20,
      "critMult": 2
    },
    "uses": {
      "value": 0,
      "max": 0
    }
  },
  "flags": {},
  "img": "systems/pf1/icons/items/inventory/badge-cross.jpg",
  "effects": []
}