{
  "_id": "0ahLHNR2864mih3n",
  "name": "Psychic",
  "permission": {
    "default": 0
  },
  "type": "class",
  "data": {
    "description": {
      "value": "<p>Within the mind of any sentient being lies power to rival that of the greatest magical artifact or holy site. By accessing these staggering vaults of mental energy, the psychic can shape the world around her, the minds of others, and pathways across the planes. No place or idea is too secret or remote for a psychic to access, and she can pull from every type of psychic magic. Many methods allow psychics to tap into their mental abilities, and the disciplines they follow affect their abilities.</p>\n<p><strong>Role:</strong> With a large suite of spells, psychics can handle many situations, but they excel at moving and manipulating objects, as well as reading and influencing thoughts.</p>\n<p><strong>Alignment:</strong> Any.</p>\n<p><strong>Hit Die</strong>: d6.</p>\n<p><strong>Starting Wealth</strong>: 2d6 × 10 gp (average 70 gp.) In addition, each character begins play with an outfit worth 10 gp or less.</p>\n<h2><span id=\"Class_Skills\">Class Skills</span></h2>\n<p>The psychic’s class skills are&nbsp;<a href=\"https://www.d20pfsrd.com/skills/bluff\">Bluff</a>&nbsp;(<a href=\"https://www.d20pfsrd.com/basics-ability-scores/ability-scores#TOC-Charisma-Cha-\">Cha</a>), <a href=\"https://www.d20pfsrd.com/skills/craft\">Craft</a>&nbsp;(<a href=\"https://www.d20pfsrd.com/basics-ability-scores/ability-scores#TOC-Intelligence-Int-\">Int</a>), <a href=\"https://www.d20pfsrd.com/skills/diplomacy\">Diplomacy</a>&nbsp;(<a href=\"https://www.d20pfsrd.com/basics-ability-scores/ability-scores#TOC-Charisma-Cha-\">Cha</a>), <a href=\"https://www.d20pfsrd.com/skills/fly\">Fly</a>&nbsp;(<a href=\"https://www.d20pfsrd.com/basics-ability-scores/ability-scores#TOC-Dexterity-Dex-\">Dex</a>), <a href=\"https://www.d20pfsrd.com/skills/intimidate\">Intimidate</a>&nbsp;(<a href=\"https://www.d20pfsrd.com/basics-ability-scores/ability-scores#TOC-Charisma-Cha-\">Cha</a>), <a href=\"https://www.d20pfsrd.com/skills/knowledge\">Knowledge</a>&nbsp;(all) (<a href=\"https://www.d20pfsrd.com/basics-ability-scores/ability-scores#TOC-Intelligence-Int-\">Int</a>), <a href=\"https://www.d20pfsrd.com/skills/linguistics\">Linguistics</a>&nbsp;(<a href=\"https://www.d20pfsrd.com/basics-ability-scores/ability-scores#TOC-Intelligence-Int-\">Int</a>), <a href=\"https://www.d20pfsrd.com/skills/perception\">Perception</a>&nbsp;(<a href=\"https://www.d20pfsrd.com/basics-ability-scores/ability-scores#TOC-Wisdom-Wis-\">Wis</a>), <a href=\"https://www.d20pfsrd.com/skills/profession\">Profession</a>&nbsp;(<a href=\"https://www.d20pfsrd.com/basics-ability-scores/ability-scores#TOC-Wisdom-Wis-\">Wis</a>), <a href=\"https://www.d20pfsrd.com/skills/sense-motive\">Sense Motive</a>&nbsp;(<a href=\"https://www.d20pfsrd.com/basics-ability-scores/ability-scores#TOC-Wisdom-Wis-\">Wis</a>), and&nbsp;<a href=\"https://www.d20pfsrd.com/skills/spellcraft\">Spellcraft</a>&nbsp;(<a href=\"https://www.d20pfsrd.com/basics-ability-scores/ability-scores#TOC-Intelligence-Int-\">Int</a>).</p>\n<p><strong>Skill Ranks per Level</strong>: 2 +&nbsp;<a href=\"https://www.d20pfsrd.com/basics-ability-scores/ability-scores#TOC-Intelligence-Int-\">Int</a>&nbsp;modifier.</p>",
      "chat": "",
      "unidentified": ""
    },
    "tags": [],
    "changes": [],
    "changeFlags": {
      "loseDexToAC": false,
      "noStr": false,
      "noDex": false,
      "oneInt": false,
      "oneWis": false,
      "oneCha": false,
      "noEncumbrance": false,
      "mediumArmorFullSpeed": false,
      "heavyArmorFullSpeed": false
    },
    "links": {
      "children": [],
      "classAssociations": [
        {
          "id": "pf1.class-abilities.BOUqxGDega0y1JOX",
          "dataType": "compendium",
          "name": "Psychic Discipline",
          "img": "systems/pf1/icons/spells/wind-grasp-acid-2.jpg",
          "hiddenLinks": {},
          "level": 1,
          "_index": 0
        },
        {
          "id": "pf1.class-abilities.qUVgcfJUUPTeubNm",
          "dataType": "compendium",
          "name": "Phrenic Amplifications",
          "img": "systems/pf1/icons/spells/shielding-eerie-3.jpg",
          "hiddenLinks": {},
          "level": 1,
          "_index": 1
        },
        {
          "id": "pf1.class-abilities.tFy3rxyljSq56HSg",
          "dataType": "compendium",
          "name": "Phrenic Pool",
          "img": "systems/pf1/icons/spells/air-burst-jade-3.jpg",
          "hiddenLinks": {},
          "level": 1,
          "_index": 2
        },
        {
          "id": "pf1.class-abilities.H13C5vWmFxF6NRdZ",
          "dataType": "compendium",
          "name": "Detect Thoughts",
          "img": "systems/pf1/icons/skills/shadow_12.jpg",
          "hiddenLinks": {},
          "level": 2,
          "_index": 3
        },
        {
          "id": "pf1.class-abilities.pI96OyLrjc1EyhaE",
          "dataType": "compendium",
          "name": "Telepathic Bond",
          "img": "systems/pf1/icons/spells/link-spirit-1.jpg",
          "hiddenLinks": {},
          "level": 9,
          "_index": 4
        },
        {
          "id": "pf1.class-abilities.nO6cI6JoY2THQoxZ",
          "dataType": "compendium",
          "name": "Major Amplifications",
          "img": "systems/pf1/icons/spells/shielding-spirit-3.jpg",
          "hiddenLinks": {},
          "level": 11,
          "_index": 5
        },
        {
          "id": "pf1.class-abilities.fVnL2yhENozMMZ8j",
          "dataType": "compendium",
          "name": "Telepathy",
          "img": "systems/pf1/icons/spells/light-royal-1.jpg",
          "hiddenLinks": {},
          "level": 17,
          "_index": 6
        },
        {
          "id": "pf1.class-abilities.64m65Z8ayGAHNDLT",
          "dataType": "compendium",
          "name": "Remade Self",
          "img": "systems/pf1/icons/skills/blue_35.jpg",
          "hiddenLinks": {},
          "level": 20,
          "_index": 7
        }
      ]
    },
    "tag": "psychic",
    "useCustomTag": true,
    "armorProf": {
      "value": [],
      "custom": ""
    },
    "weaponProf": {
      "value": [
        "sim"
      ],
      "custom": ""
    },
    "classType": "base",
    "levels": {
      "value": 0,
      "_deprecated": true
    },
    "level": 1,
    "hd": 6,
    "hp": 6,
    "bab": "low",
    "skillsPerLevel": 2,
    "savingThrows": {
      "fort": {
        "value": "low"
      },
      "ref": {
        "value": "low"
      },
      "will": {
        "value": "high"
      }
    },
    "fc": {
      "hp": {
        "value": 0
      },
      "skill": {
        "value": 0
      },
      "alt": {
        "value": 0
      }
    },
    "classSkills": {
      "blf": true,
      "acr": false,
      "apr": false,
      "art": false,
      "clm": false,
      "crf": true,
      "dip": true,
      "dev": false,
      "dis": false,
      "esc": false,
      "fly": true,
      "han": false,
      "hea": false,
      "int": true,
      "kar": true,
      "kdu": true,
      "ken": true,
      "kge": true,
      "khi": true,
      "klo": true,
      "kna": true,
      "kno": true,
      "kpl": true,
      "kre": true,
      "lin": true,
      "lor": false,
      "per": true,
      "prf": false,
      "pro": true,
      "rid": false,
      "sen": true,
      "slt": false,
      "spl": true,
      "ste": false,
      "sur": false,
      "swm": false,
      "umd": false
    },
    "damage": {
      "parts": [],
      "critParts": [],
      "nonCritParts": []
    },
    "preparation": {
      "maxAmount": 0
    },
    "weaponData": {
      "critRange": 20,
      "critMult": 2
    },
    "uses": {
      "value": 0,
      "max": 0
    }
  },
  "flags": {},
  "img": "systems/pf1/icons/skills/beast_04.jpg",
  "effects": []
}